(footprint "TE_2199119-4" (version 20221018) (generator pcbnew)
  (layer "F.Cu")
  (descr "M.2 Socket, Type 3 / Key M")
  (tags "NVMe, SSD, PCIE, M.2, M2, Key M, Socket 3")
  (attr through_hole)
  (fp_text reference "REF**" (at -7.729825 -7.539675) (layer "F.SilkS")
      (effects (font (size 1.000622 1.000622) (thickness 0.015)))
    (tstamp 5bdce8a7-8465-47c3-aa63-abbb267abe4d)
  )
  (fp_text value "TE_2199119-4" (at -3.28594 4.072385) (layer "F.Fab")
      (effects (font (size 1.001819 1.001819) (thickness 0.015)))
    (tstamp 8fa9bd7b-b7ad-470d-b57e-db0cd5a4955e)
  )
  (fp_line (start -10.95 -2.9) (end -10.95 2.5)
    (stroke (width 0.127) (type solid)) (layer "F.SilkS") (tstamp d10c680d-4b2c-4d7e-86c5-f73222ff879b))
  (fp_line (start -10.95 2.5) (end -9.35 2.5)
    (stroke (width 0.127) (type solid)) (layer "F.SilkS") (tstamp 867ca050-9dac-4907-bed5-5e6b1d2ac956))
  (fp_line (start -3.65 2.5) (end -1.85 2.5)
    (stroke (width 0.127) (type solid)) (layer "F.SilkS") (tstamp a070f5ef-51f3-4236-8b8a-3a49dc6cdb20))
  (fp_line (start -3.35 -5.25) (end -1.65 -5.25)
    (stroke (width 0.127) (type solid)) (layer "F.SilkS") (tstamp 18a150cb-94ea-4e65-8a5b-6b07b7150304))
  (fp_line (start 9.35 2.5) (end 10.95 2.5)
    (stroke (width 0.127) (type solid)) (layer "F.SilkS") (tstamp 16c3f661-84ff-45a2-a62e-394f4b783af7))
  (fp_line (start 10.95 2.5) (end 10.95 -2.9)
    (stroke (width 0.127) (type solid)) (layer "F.SilkS") (tstamp ee87bbd7-2e06-46a3-b3a3-dd0b5fe5651a))
  (fp_circle (center -9.25 -6.5) (end -9.13 -6.5)
    (stroke (width 0.24) (type solid)) (fill none) (layer "F.SilkS") (tstamp 4eef04f9-9885-4354-bb8d-72d247284710))
  (fp_line (start -12 0) (end 12 0)
    (stroke (width 0.05) (type solid)) (layer "Dwgs.User") (tstamp 16e71382-56b8-45ae-b840-f3c188036164))
  (fp_line (start 0 -7.25) (end 0 4.25)
    (stroke (width 0.05) (type solid)) (layer "Dwgs.User") (tstamp 544f5f4b-bf09-4e65-9ade-1f0d9a1dbc80))
  (fp_line (start -11.2 -6.3) (end 11.2 -6.3)
    (stroke (width 0.05) (type solid)) (layer "F.CrtYd") (tstamp d5462216-ace3-4947-802c-65676dca78db))
  (fp_line (start -11.2 3.3) (end -11.2 -6.3)
    (stroke (width 0.05) (type solid)) (layer "F.CrtYd") (tstamp e5a696e3-5a34-4733-a979-3aaf10a499b7))
  (fp_line (start 11.2 -6.3) (end 11.2 3.3)
    (stroke (width 0.05) (type solid)) (layer "F.CrtYd") (tstamp 326e0f69-c685-4f3e-a056-757546756ea2))
  (fp_line (start 11.2 3.3) (end -11.2 3.3)
    (stroke (width 0.05) (type solid)) (layer "F.CrtYd") (tstamp 36a48f97-0d6f-4437-9948-b9a06069816f))
  (fp_line (start -10.95 -5.25) (end 10.95 -5.25)
    (stroke (width 0.127) (type solid)) (layer "F.Fab") (tstamp 63e10768-acc6-4be6-a3a9-0b2c5928617b))
  (fp_line (start -10.95 2.5) (end -10.95 -5.25)
    (stroke (width 0.127) (type solid)) (layer "F.Fab") (tstamp 70af6a0d-de29-4f6b-be50-a10b472d8c0e))
  (fp_line (start 10.95 -5.25) (end 10.95 2.5)
    (stroke (width 0.127) (type solid)) (layer "F.Fab") (tstamp 84c9a155-29b1-4584-a97e-d42e95ab1f7e))
  (fp_line (start 10.95 2.5) (end -10.95 2.5)
    (stroke (width 0.127) (type solid)) (layer "F.Fab") (tstamp 45873665-c929-465d-85ed-c2248955a268))
  (fp_circle (center -9.25 -4.595) (end -9.13 -4.595)
    (stroke (width 0.24) (type solid)) (fill none) (layer "F.Fab") (tstamp ef210fab-61a7-4950-a617-8470579e0e9d))
  (pad "" np_thru_hole circle (at -10 0) (size 1.1 1.1) (drill 1.1) (layers "*.Cu" "*.Mask") (tstamp 2fb34321-18fb-456e-8be7-ae092ec603db))
  (pad "" np_thru_hole circle (at 10 0) (size 1.6 1.6) (drill 1.6) (layers "*.Cu" "*.Mask") (tstamp e09a153e-f789-4e8b-a334-bc6a9175ffe0))
  (pad "1" smd rect (at -9.25 -5.275) (size 0.3 1.55) (layers "F.Cu" "F.Paste" "F.Mask") (tstamp 1d6c474c-3d93-4ef0-b74c-11c7049c4f27))
  (pad "2" smd rect (at -9 2.275) (size 0.3 1.55) (layers "F.Cu" "F.Paste" "F.Mask") (tstamp 7ac0d1ad-a7d6-46e4-bd9a-04fdeb76b223))
  (pad "3" smd rect (at -8.75 -5.275) (size 0.3 1.55) (layers "F.Cu" "F.Paste" "F.Mask") (tstamp b45ea3c6-e87a-4cf2-8ab1-d52fc961433b))
  (pad "4" smd rect (at -8.5 2.275) (size 0.3 1.55) (layers "F.Cu" "F.Paste" "F.Mask") (tstamp 1fe5b1a8-1f5f-4357-b2b7-9334ac496c7e))
  (pad "5" smd rect (at -8.25 -5.275) (size 0.3 1.55) (layers "F.Cu" "F.Paste" "F.Mask") (tstamp 9d68b332-ae3b-457d-8619-4ef084580405))
  (pad "6" smd rect (at -8 2.275) (size 0.3 1.55) (layers "F.Cu" "F.Paste" "F.Mask") (tstamp c45c667e-c4ef-48f7-8c45-14230434ebd6))
  (pad "7" smd rect (at -7.75 -5.275) (size 0.3 1.55) (layers "F.Cu" "F.Paste" "F.Mask") (tstamp 922efad6-4a4a-4b02-970f-d8c41e41a550))
  (pad "8" smd rect (at -7.5 2.275) (size 0.3 1.55) (layers "F.Cu" "F.Paste" "F.Mask") (tstamp 1b47b05b-3c0e-43bd-b93d-6d1eab1b7aff))
  (pad "9" smd rect (at -7.25 -5.275) (size 0.3 1.55) (layers "F.Cu" "F.Paste" "F.Mask") (tstamp 5ae0ee1f-9469-4fce-bffb-6e8fcd81a6ec))
  (pad "10" smd rect (at -7 2.275) (size 0.3 1.55) (layers "F.Cu" "F.Paste" "F.Mask") (tstamp 51b01425-1ba0-4d8a-9b77-b31904634cb5))
  (pad "11" smd rect (at -6.75 -5.275) (size 0.3 1.55) (layers "F.Cu" "F.Paste" "F.Mask") (tstamp c2714bd3-865c-435a-8487-60e7e5efe980))
  (pad "12" smd rect (at -6.5 2.275) (size 0.3 1.55) (layers "F.Cu" "F.Paste" "F.Mask") (tstamp 76f0b157-f6c4-4e35-9fc2-a97131b751c6))
  (pad "13" smd rect (at -6.25 -5.275) (size 0.3 1.55) (layers "F.Cu" "F.Paste" "F.Mask") (tstamp 226e3691-a111-4890-a053-18e3d56de31e))
  (pad "14" smd rect (at -6 2.275) (size 0.3 1.55) (layers "F.Cu" "F.Paste" "F.Mask") (tstamp 5feab52b-4cb4-4acb-95c0-54bb6842dc62))
  (pad "15" smd rect (at -5.75 -5.275) (size 0.3 1.55) (layers "F.Cu" "F.Paste" "F.Mask") (tstamp f122636c-3e8e-4ca7-a19b-32be39d71c4b))
  (pad "16" smd rect (at -5.5 2.275) (size 0.3 1.55) (layers "F.Cu" "F.Paste" "F.Mask") (tstamp d553840e-240c-462a-9f28-c9e34ba3cda0))
  (pad "17" smd rect (at -5.25 -5.275) (size 0.3 1.55) (layers "F.Cu" "F.Paste" "F.Mask") (tstamp 36a4b845-6ad0-4277-948e-5462b15c186b))
  (pad "18" smd rect (at -5 2.275) (size 0.3 1.55) (layers "F.Cu" "F.Paste" "F.Mask") (tstamp 1045d130-f37e-46f3-b123-874f5ba884c0))
  (pad "19" smd rect (at -4.75 -5.275) (size 0.3 1.55) (layers "F.Cu" "F.Paste" "F.Mask") (tstamp 654f9182-89ff-46fb-9ac5-a3ba34a94bb3))
  (pad "20" smd rect (at -4.5 2.275) (size 0.3 1.55) (layers "F.Cu" "F.Paste" "F.Mask") (tstamp bcc649a9-4ef4-4b63-9200-4622715087be))
  (pad "21" smd rect (at -4.25 -5.275) (size 0.3 1.55) (layers "F.Cu" "F.Paste" "F.Mask") (tstamp efef0822-2246-4e8d-b4fb-3d3fff6e0da5))
  (pad "22" smd rect (at -4 2.275) (size 0.3 1.55) (layers "F.Cu" "F.Paste" "F.Mask") (tstamp f73aec92-687c-4665-a2bc-7f17a73009b4))
  (pad "23" smd rect (at -3.75 -5.275) (size 0.3 1.55) (layers "F.Cu" "F.Paste" "F.Mask") (tstamp 1d8f327c-fabd-46fe-a96f-910919d9292b))
  (pad "32" smd rect (at -1.5 2.275) (size 0.3 1.55) (layers "F.Cu" "F.Paste" "F.Mask") (tstamp b0c7132d-9bf6-47fb-85bc-1c04a7afd57b))
  (pad "33" smd rect (at -1.25 -5.275) (size 0.3 1.55) (layers "F.Cu" "F.Paste" "F.Mask") (tstamp 55439dab-5606-4937-916f-f3ce57ae2f72))
  (pad "34" smd rect (at -1 2.275) (size 0.3 1.55) (layers "F.Cu" "F.Paste" "F.Mask") (tstamp dc3679e8-bb82-425b-bf66-4ba37fef981d))
  (pad "35" smd rect (at -0.75 -5.275) (size 0.3 1.55) (layers "F.Cu" "F.Paste" "F.Mask") (tstamp 4911d509-4c5d-4c3a-b4b5-87ba357b39ce))
  (pad "36" smd rect (at -0.5 2.275) (size 0.3 1.55) (layers "F.Cu" "F.Paste" "F.Mask") (tstamp b9cd6d19-ea80-4caa-9583-0b97a60c86c0))
  (pad "37" smd rect (at -0.25 -5.275) (size 0.3 1.55) (layers "F.Cu" "F.Paste" "F.Mask") (tstamp ea155303-024a-459a-84e2-fbed8c904c81))
  (pad "38" smd rect (at 0 2.275) (size 0.3 1.55) (layers "F.Cu" "F.Paste" "F.Mask") (tstamp 92c7f9f5-d7df-45c5-ba49-f48cb40225d6))
  (pad "39" smd rect (at 0.25 -5.275) (size 0.3 1.55) (layers "F.Cu" "F.Paste" "F.Mask") (tstamp 91fbbca1-b43f-4a48-bebc-4e3ace1f59b1))
  (pad "40" smd rect (at 0.5 2.275) (size 0.3 1.55) (layers "F.Cu" "F.Paste" "F.Mask") (tstamp fccaa978-3093-40a1-87d6-8163fafa6f97))
  (pad "41" smd rect (at 0.75 -5.275) (size 0.3 1.55) (layers "F.Cu" "F.Paste" "F.Mask") (tstamp ec557d1a-faeb-4b13-bb5d-de2841e9a226))
  (pad "42" smd rect (at 1 2.275) (size 0.3 1.55) (layers "F.Cu" "F.Paste" "F.Mask") (tstamp 82d7ab8e-8713-4cb8-89d5-5c853f617a6a))
  (pad "43" smd rect (at 1.25 -5.275) (size 0.3 1.55) (layers "F.Cu" "F.Paste" "F.Mask") (tstamp 9457f9da-8b42-48b3-b730-ccd6f565053a))
  (pad "44" smd rect (at 1.5 2.275) (size 0.3 1.55) (layers "F.Cu" "F.Paste" "F.Mask") (tstamp 44d6c0b3-8fa2-49a4-b78b-7d9f3efacecc))
  (pad "45" smd rect (at 1.75 -5.275) (size 0.3 1.55) (layers "F.Cu" "F.Paste" "F.Mask") (tstamp decce41d-e7c8-4bb4-91ef-b60d771c5f13))
  (pad "46" smd rect (at 2 2.275) (size 0.3 1.55) (layers "F.Cu" "F.Paste" "F.Mask") (tstamp 517cdc79-14dc-46f8-b7b1-0f207db750a3))
  (pad "47" smd rect (at 2.25 -5.275) (size 0.3 1.55) (layers "F.Cu" "F.Paste" "F.Mask") (tstamp 23bb6544-7ec6-4066-9e68-80bd056efdbf))
  (pad "48" smd rect (at 2.5 2.275) (size 0.3 1.55) (layers "F.Cu" "F.Paste" "F.Mask") (tstamp b9b38c02-3a02-49ee-be33-f25b36f37bfb))
  (pad "49" smd rect (at 2.75 -5.275) (size 0.3 1.55) (layers "F.Cu" "F.Paste" "F.Mask") (tstamp ad1234e0-ad39-476d-9cb0-6df608d9edf9))
  (pad "50" smd rect (at 3 2.275) (size 0.3 1.55) (layers "F.Cu" "F.Paste" "F.Mask") (tstamp ae70f692-f2ba-4258-af87-bd43b37de219))
  (pad "51" smd rect (at 3.25 -5.275) (size 0.3 1.55) (layers "F.Cu" "F.Paste" "F.Mask") (tstamp bb342e2d-8e7f-4b00-95b9-fbb871a73ce0))
  (pad "52" smd rect (at 3.5 2.275) (size 0.3 1.55) (layers "F.Cu" "F.Paste" "F.Mask") (tstamp b7d872fc-2007-4426-a477-6d788a3dad1e))
  (pad "53" smd rect (at 3.75 -5.275) (size 0.3 1.55) (layers "F.Cu" "F.Paste" "F.Mask") (tstamp 0b2c0d63-b2a8-4258-bffb-a8abc08ae86b))
  (pad "54" smd rect (at 4 2.275) (size 0.3 1.55) (layers "F.Cu" "F.Paste" "F.Mask") (tstamp 54bccc82-97c4-4ef7-bd7e-a824aab41abc))
  (pad "55" smd rect (at 4.25 -5.275) (size 0.3 1.55) (layers "F.Cu" "F.Paste" "F.Mask") (tstamp 2dc5e1c1-e4c3-40d0-bc7d-7f471ba11b90))
  (pad "56" smd rect (at 4.5 2.275) (size 0.3 1.55) (layers "F.Cu" "F.Paste" "F.Mask") (tstamp a70e7e65-cc32-4f75-afcb-b2fde8abe365))
  (pad "57" smd rect (at 4.75 -5.275) (size 0.3 1.55) (layers "F.Cu" "F.Paste" "F.Mask") (tstamp 0e54b3cc-a0d7-42a9-ab59-65700cfaf40f))
  (pad "58" smd rect (at 5 2.275) (size 0.3 1.55) (layers "F.Cu" "F.Paste" "F.Mask") (tstamp 5333749f-f90c-4992-a585-8bffcb9ddb85))
  (pad "59" smd rect (at 5.25 -5.275) (size 0.3 1.55) (layers "F.Cu" "F.Paste" "F.Mask") (tstamp 413eec46-d535-49d5-a1c8-9a0718e5713d))
  (pad "60" smd rect (at 5.5 2.275) (size 0.3 1.55) (layers "F.Cu" "F.Paste" "F.Mask") (tstamp 2a14f6b1-6ce0-4d78-b9de-d82dbe98b24c))
  (pad "61" smd rect (at 5.75 -5.275) (size 0.3 1.55) (layers "F.Cu" "F.Paste" "F.Mask") (tstamp 93efba33-0492-472e-bdd2-edce1bb6666f))
  (pad "62" smd rect (at 6 2.275) (size 0.3 1.55) (layers "F.Cu" "F.Paste" "F.Mask") (tstamp 692dfd1a-eedf-4250-b737-22052d3f70fb))
  (pad "63" smd rect (at 6.25 -5.275) (size 0.3 1.55) (layers "F.Cu" "F.Paste" "F.Mask") (tstamp 8ee7d1f1-2baa-43d5-8e3d-e972837776c6))
  (pad "64" smd rect (at 6.5 2.275) (size 0.3 1.55) (layers "F.Cu" "F.Paste" "F.Mask") (tstamp 0173915e-a3b6-43ba-a2c9-2264c845ddab))
  (pad "65" smd rect (at 6.75 -5.275) (size 0.3 1.55) (layers "F.Cu" "F.Paste" "F.Mask") (tstamp abfbc12f-dbab-403a-90b3-2860fb092361))
  (pad "66" smd rect (at 7 2.275) (size 0.3 1.55) (layers "F.Cu" "F.Paste" "F.Mask") (tstamp 28f81fe1-e704-444d-8248-765d435fe979))
  (pad "67" smd rect (at 7.25 -5.275) (size 0.3 1.55) (layers "F.Cu" "F.Paste" "F.Mask") (tstamp 6c132a94-a995-486a-8cf4-fe345e9d18a1))
  (pad "68" smd rect (at 7.5 2.275) (size 0.3 1.55) (layers "F.Cu" "F.Paste" "F.Mask") (tstamp 52aa2fe0-a3fc-4c8c-98f7-496059b2ed1c))
  (pad "69" smd rect (at 7.75 -5.275) (size 0.3 1.55) (layers "F.Cu" "F.Paste" "F.Mask") (tstamp f07df301-d090-4978-8e09-935f6efaf78d))
  (pad "70" smd rect (at 8 2.275) (size 0.3 1.55) (layers "F.Cu" "F.Paste" "F.Mask") (tstamp c65e5406-08fe-4b55-ae42-f5af3d6d6e4a))
  (pad "71" smd rect (at 8.25 -5.275) (size 0.3 1.55) (layers "F.Cu" "F.Paste" "F.Mask") (tstamp d30a033e-0eb2-4fe3-9d6e-9ff669b5ab65))
  (pad "72" smd rect (at 8.5 2.275) (size 0.3 1.55) (layers "F.Cu" "F.Paste" "F.Mask") (tstamp a4613c84-942d-4dba-aa65-869b9e0172da))
  (pad "73" smd rect (at 8.75 -5.275) (size 0.3 1.55) (layers "F.Cu" "F.Paste" "F.Mask") (tstamp 11bb983e-b943-468c-aa24-54a94abfa27f))
  (pad "74" smd rect (at 9 2.275) (size 0.3 1.55) (layers "F.Cu" "F.Paste" "F.Mask") (tstamp c3b0a520-2f24-4991-bfc5-f79085a95e37))
  (pad "75" smd rect (at 9.25 -5.275) (size 0.3 1.55) (layers "F.Cu" "F.Paste" "F.Mask") (tstamp ff375390-ba61-419a-841e-fbe18f4448ba))
  (pad "SH1" smd rect (at -10.35 -4.5) (size 1.2 2.75) (layers "F.Cu" "F.Paste" "F.Mask") (tstamp 6bf1a1ce-7316-48f2-ba5e-003cedd9abc5))
  (pad "SH2" smd rect (at 10.35 -4.5) (size 1.2 2.75) (layers "F.Cu" "F.Paste" "F.Mask") (tstamp ee6bdd06-a91b-43be-8c9b-daf6ad60a926))
  (model "${BL_LIB_ROOT}/3dmodels/Connector_PCIE/TE-2199119-4.stp"
    (offset (xyz 0 -2.5 1.7))
    (scale (xyz 1 1 1))
    (rotate (xyz -90 0 0))
  )
)
