(footprint "USB_A_Amphenol_UE27AC54100_Horizontal" (version 20221018) (generator pcbnew)
  (layer "F.Cu")
  (descr "USB type A, Horizontal, https://www.molex.com/pdm_docs/sd/676433910_sd.pdf")
  (tags "USB_A Female Connector receptacle")
  (attr through_hole)
  (fp_text reference "REF**" (at 2.54 -2.286) (layer "F.SilkS")
      (effects (font (size 1 1) (thickness 0.15)))
    (tstamp b84c2a6d-921a-4177-8768-8745b7d9d749)
  )
  (fp_text value "USB_A_Amphenol_UE27AC54100_Horizontal" (at 3.5 14.5) (layer "F.Fab")
      (effects (font (size 1 1) (thickness 0.15)))
    (tstamp 41db280b-6b4c-4f03-a250-6c49c03a905d)
  )
  (fp_text user "${REFERENCE}" (at 3.5 3.7) (layer "F.Fab")
      (effects (font (size 1 1) (thickness 0.15)))
    (tstamp 957efe57-7979-4f6e-b42f-d6acec7535dc)
  )
  (fp_line (start -3.81 12.58) (end -3.81 13.1)
    (stroke (width 0.12) (type solid)) (layer "F.SilkS") (tstamp f52dedee-ce4d-485b-9571-2f23eea8863c))
  (fp_line (start -3.81 13.1) (end 10.81 13.1)
    (stroke (width 0.12) (type solid)) (layer "F.SilkS") (tstamp 654c206b-d45b-45aa-ba9c-d27a218a2913))
  (fp_line (start -3.16 -1.1) (end -3.16 0.95)
    (stroke (width 0.12) (type solid)) (layer "F.SilkS") (tstamp 596ebc18-6b6c-4dbd-9663-013f798ced27))
  (fp_line (start -3.16 -1.1) (end 10.16 -1.1)
    (stroke (width 0.12) (type solid)) (layer "F.SilkS") (tstamp 8e1e897d-eab1-4b2a-8e04-0ce033c3f2ad))
  (fp_line (start -3.16 12.58) (end -3.81 12.58)
    (stroke (width 0.12) (type solid)) (layer "F.SilkS") (tstamp 3679ebee-5557-4ec0-a6c7-cc119c2e9784))
  (fp_line (start -3.16 12.58) (end -3.16 4.47)
    (stroke (width 0.12) (type solid)) (layer "F.SilkS") (tstamp 52e8f8ea-d3d2-420e-9cca-9ae06499b93f))
  (fp_line (start 10.16 -1.1) (end 10.16 0.95)
    (stroke (width 0.12) (type solid)) (layer "F.SilkS") (tstamp 3b1967ba-ef4e-45b1-9679-83e63ebc3f0b))
  (fp_line (start 10.16 4.47) (end 10.16 12.58)
    (stroke (width 0.12) (type solid)) (layer "F.SilkS") (tstamp b024caca-a8c7-4fdb-846e-d8c7c2022eeb))
  (fp_line (start 10.81 12.58) (end 10.16 12.58)
    (stroke (width 0.12) (type solid)) (layer "F.SilkS") (tstamp edbebad9-1817-4e70-807a-d57e69a616b7))
  (fp_line (start 10.81 13.1) (end 10.81 12.58)
    (stroke (width 0.12) (type solid)) (layer "F.SilkS") (tstamp 949c02b9-b966-426d-b44f-d2dfc8954e29))
  (fp_line (start -4.2 12.19) (end -3.55 12.19)
    (stroke (width 0.05) (type solid)) (layer "F.CrtYd") (tstamp dc97fe19-9430-44ea-8d9c-e54dcfb18ac8))
  (fp_line (start -4.2 13.49) (end -4.2 12.19)
    (stroke (width 0.05) (type solid)) (layer "F.CrtYd") (tstamp 3df0244f-bb73-4183-839a-a48f58b52c6a))
  (fp_line (start -4.2 13.49) (end 11.2 13.49)
    (stroke (width 0.05) (type solid)) (layer "F.CrtYd") (tstamp 43555d29-8ed3-4e97-a64d-91bc0c352a5b))
  (fp_line (start -3.55 -1.5) (end -3.55 0.76)
    (stroke (width 0.05) (type solid)) (layer "F.CrtYd") (tstamp 9a677b3d-b8af-4cdc-854d-f120a155dcbf))
  (fp_line (start -3.55 -1.5) (end 10.55 -1.5)
    (stroke (width 0.05) (type solid)) (layer "F.CrtYd") (tstamp 60c7aed1-e69c-4dcc-a14d-047f3ed31a3c))
  (fp_line (start -3.55 12.19) (end -3.55 4.66)
    (stroke (width 0.05) (type solid)) (layer "F.CrtYd") (tstamp e2e5fb81-0cdd-4ec3-a886-b34a5e65b1a5))
  (fp_line (start 10.55 -1.5) (end 10.55 0.76)
    (stroke (width 0.05) (type solid)) (layer "F.CrtYd") (tstamp 14c25ec5-ab06-447c-9f9d-3d190cf084cf))
  (fp_line (start 10.55 12.19) (end 10.55 4.66)
    (stroke (width 0.05) (type solid)) (layer "F.CrtYd") (tstamp 243ed221-0f2e-4d21-96bf-7b1e8be905e7))
  (fp_line (start 11.2 12.19) (end 10.55 12.19)
    (stroke (width 0.05) (type solid)) (layer "F.CrtYd") (tstamp ff625451-c3d2-4e74-b161-aaedbbd008dc))
  (fp_line (start 11.2 13.49) (end 11.2 12.19)
    (stroke (width 0.05) (type solid)) (layer "F.CrtYd") (tstamp bb18c4a5-f3c1-4f4f-919c-0ff3e5d88537))
  (fp_arc (start -3.55 4.66) (mid -5.078208 2.71) (end -3.55 0.76)
    (stroke (width 0.05) (type solid)) (layer "F.CrtYd") (tstamp 5672331e-c711-4dba-8d81-d4b87dc284a6))
  (fp_arc (start 10.55 0.76) (mid 12.078208 2.71) (end 10.55 4.66)
    (stroke (width 0.05) (type solid)) (layer "F.CrtYd") (tstamp 1a1256ff-2992-4292-8c9a-2b867d5ffe66))
  (fp_line (start -3.7 12.69) (end -3.7 12.99)
    (stroke (width 0.1) (type solid)) (layer "F.Fab") (tstamp e05af440-1d19-4451-a7e3-7bfab492d69d))
  (fp_line (start -3.7 12.99) (end 10.7 12.99)
    (stroke (width 0.1) (type solid)) (layer "F.Fab") (tstamp 91595f71-eaa9-4249-ac3c-9616376ef8b8))
  (fp_line (start -3.05 -1) (end 10.05 -1)
    (stroke (width 0.1) (type solid)) (layer "F.Fab") (tstamp 2158e127-80b5-41ed-898f-5f5793af97ee))
  (fp_line (start -3.05 9.27) (end 10.05 9.27)
    (stroke (width 0.1) (type solid)) (layer "F.Fab") (tstamp 418afbab-7c49-48e6-a26e-670ddb9c7172))
  (fp_line (start -3.05 12.69) (end -3.7 12.69)
    (stroke (width 0.1) (type solid)) (layer "F.Fab") (tstamp 233418df-14de-4c37-9804-62213238ffd1))
  (fp_line (start -3.05 12.69) (end -3.05 -1)
    (stroke (width 0.1) (type solid)) (layer "F.Fab") (tstamp 683006cc-c10a-4f2f-96b3-17a1dbf05fb1))
  (fp_line (start 10.05 -1) (end 10.05 12.69)
    (stroke (width 0.1) (type solid)) (layer "F.Fab") (tstamp fbd1eb56-1852-4953-845f-eeb4b7654736))
  (fp_line (start 10.7 12.69) (end 10.05 12.69)
    (stroke (width 0.1) (type solid)) (layer "F.Fab") (tstamp 89355d63-2879-45cc-a752-41af6bf2361f))
  (fp_line (start 10.7 12.99) (end 10.7 12.69)
    (stroke (width 0.1) (type solid)) (layer "F.Fab") (tstamp 3a59fa51-9572-4873-acae-a476be9229ba))
  (pad "1" thru_hole rect (at 0 0) (size 1.6 1.5) (drill 0.92) (layers "*.Cu" "*.Mask") (tstamp 0af9e690-0f3c-442d-836e-6c23fd854544))
  (pad "2" thru_hole circle (at 2.5 0) (size 1.6 1.6) (drill 0.92) (layers "*.Cu" "*.Mask") (tstamp c8b8f69a-6b13-4c24-91e5-4465cace9361))
  (pad "3" thru_hole circle (at 4.5 0) (size 1.6 1.6) (drill 0.92) (layers "*.Cu" "*.Mask") (tstamp c870e914-acc7-4ccd-9c93-e12e497ba9af))
  (pad "4" thru_hole circle (at 7 0) (size 1.6 1.6) (drill 0.92) (layers "*.Cu" "*.Mask") (tstamp 51fd8444-97fe-4395-8f1d-e32c7e3d2e77))
  (pad "5" thru_hole circle (at -3.07 2.71) (size 3 3) (drill 2.3) (layers "*.Cu" "*.Mask") (tstamp 054ef6f6-5c78-4175-9285-2d0dec3bb56a))
  (pad "5" thru_hole circle (at 10.07 2.71) (size 3 3) (drill 2.3) (layers "*.Cu" "*.Mask") (tstamp 3597dd0e-bc30-4cb1-95cb-af88932152cd))
  (model "${BL_LIB_ROOT}/3dmodels/Connector_USB/USB_A_Receptacle_Amphenol_UE27AC54100-REVT1.stp"
    (offset (xyz 3.5052 0.75 6.867))
    (scale (xyz 1 1 1))
    (rotate (xyz 0 0 0))
  )
)
