(footprint "USON-6-1EP_3X2mm_P0.5mm_EP0.20x1.60mm" (version 20221018) (generator pcbnew)
  (layer "F.Cu")
  (descr "Inductor, Wuerth Elektronik, Wuerth_LHMI-4020, 4.45mmx4.06mm")
  (tags "inductor Wuerth smd")
  (attr smd)
  (fp_text reference "REF**" (at 0.889 -2.032) (layer "F.SilkS")
      (effects (font (size 1 1) (thickness 0.15)))
    (tstamp a6782a5a-96cf-4349-a151-73d725f7bd39)
  )
  (fp_text value "USON_3X2_WIN" (at 2.032 2.286) (layer "F.Fab") hide
      (effects (font (size 1 1) (thickness 0.15)))
    (tstamp 57cc98b0-a5c2-411e-8537-ca761c8ddaa9)
  )
  (fp_line (start -0.889 1.1303) (end 0.889 1.1303)
    (stroke (width 0.1524) (type solid)) (layer "F.SilkS") (tstamp a1254d69-6001-4d01-b97d-56191c606321))
  (fp_line (start 0.889 -1.143) (end -0.889 -1.143)
    (stroke (width 0.1524) (type solid)) (layer "F.SilkS") (tstamp 71113c91-45d9-46a1-8db4-76492cb7f9e0))
  (fp_circle (center -1.433823 -1.16699) (end -1.306823 -1.29399)
    (stroke (width 0.12) (type solid)) (fill none) (layer "F.SilkS") (tstamp cd0dee52-5c80-4284-9fac-e6bffcb1dbda))
  (fp_line (start -2.1 -1.2) (end 2.1 -1.2)
    (stroke (width 0.1524) (type solid)) (layer "F.CrtYd") (tstamp 5fecbeba-3e0c-4753-b1fd-7616f0975ee1))
  (fp_line (start -2.1 1.2) (end -2.1 -1.2)
    (stroke (width 0.1524) (type solid)) (layer "F.CrtYd") (tstamp 1205c07a-9e4d-4dbe-902e-0cc27d156e7d))
  (fp_line (start 2.1 -1.2) (end 2.1 1.2)
    (stroke (width 0.1524) (type solid)) (layer "F.CrtYd") (tstamp 546b748d-992a-4f06-849b-bd3a0062ad19))
  (fp_line (start 2.1 1.2) (end -2.1 1.2)
    (stroke (width 0.1524) (type solid)) (layer "F.CrtYd") (tstamp 6a44144a-91e4-4448-b136-349b8e4c9252))
  (fp_line (start -1.4986 -1.0033) (end -1.4986 1.0033)
    (stroke (width 0.1524) (type solid)) (layer "F.Fab") (tstamp 0735675c-8e66-42ef-b9b9-bfd75f9df19f))
  (fp_line (start -1.4986 1.0033) (end 1.4986 1.0033)
    (stroke (width 0.1524) (type solid)) (layer "F.Fab") (tstamp 044629c0-24ed-4fe4-8b98-50831ee3c114))
  (fp_line (start 1.4986 -1.0033) (end -1.4986 -1.0033)
    (stroke (width 0.1524) (type solid)) (layer "F.Fab") (tstamp 6d076777-51d9-4f2d-a702-ae3e528b3682))
  (fp_line (start 1.4986 1.0033) (end 1.4986 -1.0033)
    (stroke (width 0.1524) (type solid)) (layer "F.Fab") (tstamp fd1c206c-29e2-4145-8768-ce2a29e69772))
  (fp_arc (start 0.3048 -1.0033) (mid 0 -0.6985) (end -0.3048 -1.0033)
    (stroke (width 0.1524) (type solid)) (layer "F.Fab") (tstamp 5612ed62-fa6d-4a4e-bc6c-5aa28bb2eabd))
  (fp_circle (center -1.0414 -0.750189) (end -1.0414 -0.750189)
    (stroke (width 0.1524) (type solid)) (fill none) (layer "F.Fab") (tstamp 62660979-6ac7-4999-b721-bf9e4f9d914f))
  (pad "1" smd rect (at -1.4478 -0.750189) (size 0.8128 0.2032) (layers "F.Cu" "F.Paste" "F.Mask") (tstamp e83dcde9-8a43-4bf7-b14b-95bc98c30af7))
  (pad "2" smd rect (at -1.4478 -0.250063) (size 0.8128 0.2032) (layers "F.Cu" "F.Paste" "F.Mask") (tstamp 495274e9-d711-42d2-8649-37e8ae4ae703))
  (pad "3" smd rect (at -1.4478 0.250063) (size 0.8128 0.2032) (layers "F.Cu" "F.Paste" "F.Mask") (tstamp cce6c210-b61c-4e72-8f82-51f17732d1aa))
  (pad "4" smd rect (at -1.4478 0.750189) (size 0.8128 0.2032) (layers "F.Cu" "F.Paste" "F.Mask") (tstamp 098d56be-5dd5-440a-acc4-921aa3f6c5c5))
  (pad "5" smd rect (at 1.4478 0.750189) (size 0.8128 0.2032) (layers "F.Cu" "F.Paste" "F.Mask") (tstamp 2b5ac49e-89f9-4c13-9dcc-18f700dcf38d))
  (pad "6" smd rect (at 1.4478 0.250063) (size 0.8128 0.2032) (layers "F.Cu" "F.Paste" "F.Mask") (tstamp e8fcc282-2a30-486d-bc4a-39427fe76430))
  (pad "7" smd rect (at 1.4478 -0.250063) (size 0.8128 0.2032) (layers "F.Cu" "F.Paste" "F.Mask") (tstamp 5044f1ab-aaf8-458d-a7fd-08c5915d7e4e))
  (pad "8" smd rect (at 1.4478 -0.750189) (size 0.8128 0.2032) (layers "F.Cu" "F.Paste" "F.Mask") (tstamp 8d83b168-82b1-4706-9350-a8fdf3c28ae0))
  (pad "9" smd rect (at 0 0) (size 0.2 1.6) (layers "F.Cu" "F.Paste" "F.Mask") (tstamp eeb7d722-5687-4b14-8446-bfa7b581ef37))
  (model "${BL_LIB_ROOT}/3dmodels/SON/USON-6-1EP_3X2mm_P0.5mm_EP0.20x1.60mm.stp"
    (offset (xyz 0 0 0))
    (scale (xyz 1 1 1))
    (rotate (xyz 0 0 0))
  )
)
