(footprint "WSON-10-1EP_2x3mm_P0.5mm_EP0.84x2.4mm_ThermalVias" (version 20221018) (generator pcbnew)
  (layer "F.Cu")
  (descr "WSON-10 package 2x3mm body, pitch 0.5mm, thermal vias and counter-pad, see http://www.ti.com/lit/ds/symlink/tps62177.pdf")
  (tags "WSON 0.5 thermal vias DQC")
  (attr smd)
  (fp_text reference "REF**" (at 0 -2.55) (layer "F.SilkS")
      (effects (font (size 1 1) (thickness 0.15)))
    (tstamp be1dce47-5420-4245-8350-1b15780937a1)
  )
  (fp_text value "WSON-10-1EP_2x3mm_P0.5mm_EP0.84x2.4mm_ThermalVias" (at 0 2.55) (layer "F.Fab")
      (effects (font (size 1 1) (thickness 0.15)))
    (tstamp 04403d48-6564-490c-9464-03a197cf8511)
  )
  (fp_text user "${REFERENCE}" (at 0 0) (layer "F.Fab")
      (effects (font (size 0.5 0.5) (thickness 0.075)))
    (tstamp 1590c381-cf1e-4692-bfad-4db74b302806)
  )
  (fp_line (start -0.575 1.625) (end 0.575 1.625)
    (stroke (width 0.15) (type solid)) (layer "F.SilkS") (tstamp 31bcb670-53e6-4e84-ab74-15381841c131))
  (fp_circle (center -1.15642 -1.524) (end -1.02942 -1.651)
    (stroke (width 0.12) (type solid)) (fill none) (layer "F.SilkS") (tstamp 5be434c5-b2a1-47c5-8184-6fa4981ec66b))
  (fp_line (start -1.55 -1.8) (end -1.55 1.8)
    (stroke (width 0.05) (type solid)) (layer "F.CrtYd") (tstamp cb248880-04da-43f4-adab-4e99c6724243))
  (fp_line (start -1.55 -1.8) (end 1.55 -1.8)
    (stroke (width 0.05) (type solid)) (layer "F.CrtYd") (tstamp 8ded2118-3861-46dc-971b-bf3912a22dcd))
  (fp_line (start -1.55 1.8) (end 1.55 1.8)
    (stroke (width 0.05) (type solid)) (layer "F.CrtYd") (tstamp 36fc3284-2aca-4695-bb9b-0597d91437de))
  (fp_line (start 1.55 -1.8) (end 1.55 1.8)
    (stroke (width 0.05) (type solid)) (layer "F.CrtYd") (tstamp 6ffdb351-d2e7-42b1-a430-c197bc1b4016))
  (fp_line (start -1 -0.5) (end 0 -1.5)
    (stroke (width 0.15) (type solid)) (layer "F.Fab") (tstamp 3c245b1a-b7d3-4f22-91e1-6dc55996db80))
  (fp_line (start -1 1.5) (end -1 -0.5)
    (stroke (width 0.15) (type solid)) (layer "F.Fab") (tstamp 84394855-7602-4af2-bbcb-2dd6a8e98dbb))
  (fp_line (start 0 -1.5) (end 1 -1.5)
    (stroke (width 0.15) (type solid)) (layer "F.Fab") (tstamp ce19cd24-c8ca-4565-bfa5-f1f9f9e57620))
  (fp_line (start 1 -1.5) (end 1 1.5)
    (stroke (width 0.15) (type solid)) (layer "F.Fab") (tstamp 6b6ef360-d654-4fa1-9d94-2df7dcfca037))
  (fp_line (start 1 1.5) (end -1 1.5)
    (stroke (width 0.15) (type solid)) (layer "F.Fab") (tstamp 192a93f1-3b9f-4d79-953d-803b1cb693ac))
  (pad "" smd rect (at 0 -0.475) (size 0.65 0.7) (layers "F.Paste") (tstamp 907321c5-f906-469b-af2b-2a90599753bd))
  (pad "" smd rect (at 0 0.475) (size 0.65 0.7) (layers "F.Paste") (tstamp 9f94844f-df97-4777-af5f-a3eaa2b9feb8))
  (pad "1" smd rect (at -0.95 -1) (size 0.5 0.25) (layers "F.Cu" "F.Paste" "F.Mask") (tstamp 12a32db9-1179-4db6-81ac-58edc0b21b45))
  (pad "2" smd rect (at -0.95 -0.5) (size 0.5 0.25) (layers "F.Cu" "F.Paste" "F.Mask") (tstamp 33b4a172-342b-40eb-8188-d23ad64de112))
  (pad "3" smd rect (at -0.95 0) (size 0.5 0.25) (layers "F.Cu" "F.Paste" "F.Mask") (tstamp c77c06bd-41ba-4c67-b925-30c037033370))
  (pad "4" smd rect (at -0.95 0.5) (size 0.5 0.25) (layers "F.Cu" "F.Paste" "F.Mask") (tstamp e83ffbbb-fd54-4218-9d81-ba93143f5797))
  (pad "5" smd rect (at -0.95 1) (size 0.5 0.25) (layers "F.Cu" "F.Paste" "F.Mask") (tstamp a958da81-1033-456e-b3f9-dec4057af951))
  (pad "6" smd rect (at 0.95 1) (size 0.5 0.25) (layers "F.Cu" "F.Paste" "F.Mask") (tstamp 8e170cb2-8540-4934-b740-d1ecd6e0ab4a))
  (pad "7" smd rect (at 0.95 0.5) (size 0.5 0.25) (layers "F.Cu" "F.Paste" "F.Mask") (tstamp 70132cd3-bd51-4e72-bb95-6ed4dd33165b))
  (pad "8" smd rect (at 0.95 0) (size 0.5 0.25) (layers "F.Cu" "F.Paste" "F.Mask") (tstamp a9147be5-9072-48e9-8bdb-5a0aaee3b81a))
  (pad "9" smd rect (at 0.95 -0.5) (size 0.5 0.25) (layers "F.Cu" "F.Paste" "F.Mask") (tstamp 6d6b8544-1d97-4c99-a5ad-7e9fc406ae7b))
  (pad "10" smd rect (at 0.95 -1) (size 0.5 0.25) (layers "F.Cu" "F.Paste" "F.Mask") (tstamp af86fe37-0135-4a78-90dc-0e1dcd0eac8a))
  (pad "11" thru_hole circle (at 0 -0.95) (size 0.5 0.5) (drill 0.2) (layers "*.Cu" "F.Mask") (tstamp c7a6defc-2786-44fb-9a6f-07e6367bc186))
  (pad "11" thru_hole circle (at 0 0) (size 0.5 0.5) (drill 0.2) (layers "*.Cu" "F.Mask") (tstamp 54e7f739-869a-472f-a04c-946f5bf7b33e))
  (pad "11" smd rect (at 0 0) (size 0.84 2.4) (layers "F.Cu" "F.Mask") (tstamp ef629263-1791-4d1d-9561-af7b8d9f3ec8))
  (pad "11" smd rect (at 0 0) (size 0.84 2.4) (layers "B.Cu") (tstamp 7f63a5bd-69f9-4d14-ad65-b3359a04fdc6))
  (pad "11" thru_hole circle (at 0 0.95) (size 0.5 0.5) (drill 0.2) (layers "*.Cu" "F.Mask") (tstamp e8a47a77-f273-47dd-8466-2576620ae1e5))
  (model "${BL_LIB_ROOT}/3dmodels/SON/WSON-10-1EP_2x3mm_Pitch0.5mm_EP0.84x2.4mm.stp"
    (offset (xyz 0 0 0))
    (scale (xyz 1 1 1))
    (rotate (xyz 0 0 0))
  )
)
