ISO-10303-21;
HEADER;
FILE_DESCRIPTION(('STEP AP214'),'1');
FILE_NAME('USON_3X2_WIN','2020-07-26T18:03:34',(''),(''),'','','');
FILE_SCHEMA(('AUTOMOTIVE_DESIGN'));
ENDSEC;
DATA;
#1=SHAPE_DEFINITION_REPRESENTATION(#2,#3);
#2=PRODUCT_DEFINITION_SHAPE('',$,#4);
#3=SHAPE_REPRESENTATION('',(#71,#127,#423,#720,#1154,#1588,#2022,#2456,#2890,#3324,#3758,#19),#11);
#4=PRODUCT_DEFINITION('design','example product_definition',#6,#5);
#5=PRODUCT_DEFINITION_CONTEXT('3D Mechanical Parts',#10,'design');
#6=PRODUCT_DEFINITION_FORMATION('1.0','first version',#8);
#7=APPLICATION_PROTOCOL_DEFINITION('international standard','automotive_design',2003,#10);
#8=PRODUCT('product','part','',(#9));
#9=PRODUCT_CONTEXT('3D Mechanical Parts',#10,'mechanical');
#10=APPLICATION_CONTEXT('Core Data for Automotive Mechanical Design Process');
#11=(GEOMETRIC_REPRESENTATION_CONTEXT(3) GLOBAL_UNCERTAINTY_ASSIGNED_CONTEXT((#12)) GLOBAL_UNIT_ASSIGNED_CONTEXT((#13,#14,#18)) REPRESENTATION_CONTEXT('ID1','3D'));
#12=UNCERTAINTY_MEASURE_WITH_UNIT(LENGTH_MEASURE(1.E-005),#13,'DISTANCE_ACCURACY_VALUE','Maximum model space distance between geometric entities at asserted connectivities');
#13=(LENGTH_UNIT() NAMED_UNIT(*) SI_UNIT(.MILLI.,.METRE.));
#14=(CONVERSION_BASED_UNIT('degree',#16) NAMED_UNIT(#15) PLANE_ANGLE_UNIT());
#15=DIMENSIONAL_EXPONENTS(0.,0.,0.,0.,0.,0.,0.);
#16=MEASURE_WITH_UNIT(PLANE_ANGLE_MEASURE(0.01745329252),#17);
#17=(NAMED_UNIT(*) PLANE_ANGLE_UNIT() SI_UNIT($,.RADIAN.));
#18=(NAMED_UNIT(*) SI_UNIT($,.STERADIAN.) SOLID_ANGLE_UNIT());
#19=AXIS2_PLACEMENT_3D('',#20,#21,#22);
#20=CARTESIAN_POINT('',(0.0,0.0,0.0));
#21=DIRECTION('',(0.0,0.0,1.0));
#22=DIRECTION('',(1.0,0.0,0.0));
#25=MECHANICAL_DESIGN_GEOMETRIC_PRESENTATION_REPRESENTATION($,(#123,#124,#125,#129,#178,#227,#276,#325,#374,#425,#474,#523,#572,#621,#670,#722,#791,#860,#909,#958,#1007,#1056,#1105,#1156,#1225,#1294,#1343,#1392,#1441,#1490,#1539,#1590,#1659,#1728,#1777,#1826,#1875,#1924,#1973,#2024,#2093,#2162,#2211,#2260,#2309,#2358,#2407,#2458,#2527,#2596,#2645,#2694,#2743,#2792,#2841,#2892,#2961,#3030,#3079,#3128,#3177,#3226,#3275,#3326,#3395,#3464,#3513,#3562,#3611,#3660,#3709,#3760,#3829,#3898,#3947,#3996,#4045,#4094,#4143),#11);
#26=PRODUCT_CATEGORY_RELATIONSHIP('','',#27,#28);
#27=PRODUCT_CATEGORY('part','');
#28=PRODUCT_RELATED_PRODUCT_CATEGORY('','',(#8));
#34=PRESENTATION_STYLE_ASSIGNMENT((#35,#40));
#35=SURFACE_STYLE_USAGE(.BOTH.,#36);
#36=SURFACE_SIDE_STYLE('',(#37));
#37=SURFACE_STYLE_FILL_AREA(#38);
#38=FILL_AREA_STYLE('',(#39));
#39=FILL_AREA_STYLE_COLOUR('',#41);
#40=CURVE_STYLE('',#42,POSITIVE_LENGTH_MEASURE(0.1),#41);
#41=COLOUR_RGB('Aluminum',0.725,0.725,0.725);
#42=DRAUGHTING_PRE_DEFINED_CURVE_FONT('continuous');
#43=PRESENTATION_STYLE_ASSIGNMENT((#44,#49));
#44=SURFACE_STYLE_USAGE(.BOTH.,#45);
#45=SURFACE_SIDE_STYLE('',(#46));
#46=SURFACE_STYLE_FILL_AREA(#47);
#47=FILL_AREA_STYLE('',(#48));
#48=FILL_AREA_STYLE_COLOUR('',#50);
#49=CURVE_STYLE('',#51,POSITIVE_LENGTH_MEASURE(0.1),#50);
#50=COLOUR_RGB('Black',0.196,0.196,0.196);
#51=DRAUGHTING_PRE_DEFINED_CURVE_FONT('continuous');
#52=PRESENTATION_STYLE_ASSIGNMENT((#53,#58));
#53=SURFACE_STYLE_USAGE(.BOTH.,#54);
#54=SURFACE_SIDE_STYLE('',(#55));
#55=SURFACE_STYLE_FILL_AREA(#56);
#56=FILL_AREA_STYLE('',(#57));
#57=FILL_AREA_STYLE_COLOUR('',#59);
#58=CURVE_STYLE('',#60,POSITIVE_LENGTH_MEASURE(0.1),#59);
#59=COLOUR_RGB('Pin1',0.588,0.588,0.588);
#60=DRAUGHTING_PRE_DEFINED_CURVE_FONT('continuous');
#61=PRESENTATION_STYLE_ASSIGNMENT((#62,#67));
#62=SURFACE_STYLE_USAGE(.BOTH.,#63);
#63=SURFACE_SIDE_STYLE('',(#64));
#64=SURFACE_STYLE_FILL_AREA(#65);
#65=FILL_AREA_STYLE('',(#66));
#66=FILL_AREA_STYLE_COLOUR('',#68);
#67=CURVE_STYLE('',#69,POSITIVE_LENGTH_MEASURE(0.1),#68);
#68=COLOUR_RGB('HeatTab',0.588,0.588,0.588);
#69=DRAUGHTING_PRE_DEFINED_CURVE_FONT('continuous');
#71=MANIFOLD_SOLID_BREP($,#72);
#72=CLOSED_SHELL('',(#73,#74,#75));
#73=ADVANCED_FACE($,(#79,#78),#96,.T.);
#74=ADVANCED_FACE($,(#80),#76,.F.);
#75=ADVANCED_FACE($,(#81),#77,.T.);
#76=PLANE($,#101);
#77=PLANE($,#102);
#78=FACE_BOUND($,#83,.T.);
#79=FACE_OUTER_BOUND($,#82,.T.);
#80=FACE_OUTER_BOUND($,#84,.T.);
#81=FACE_OUTER_BOUND($,#85,.T.);
#82=EDGE_LOOP($,(#92));
#83=EDGE_LOOP($,(#93));
#84=EDGE_LOOP($,(#94));
#85=EDGE_LOOP($,(#95));
#86=CIRCLE($,#99,0.07493);
#87=CIRCLE($,#100,0.07493);
#88=VERTEX_POINT('',#117);
#89=VERTEX_POINT('',#119);
#90=EDGE_CURVE($,#88,#88,#86,.T.);
#91=EDGE_CURVE($,#89,#89,#87,.T.);
#92=ORIENTED_EDGE($,*,*,#90,.F.);
#93=ORIENTED_EDGE($,*,*,#91,.F.);
#94=ORIENTED_EDGE($,*,*,#91,.T.);
#95=ORIENTED_EDGE($,*,*,#90,.T.);
#96=CYLINDRICAL_SURFACE($,#98,0.07493);
#97=AXIS2_PLACEMENT_3D('placement',#115,#103,#104);
#98=AXIS2_PLACEMENT_3D($,#116,#105,#106);
#99=AXIS2_PLACEMENT_3D($,#118,#107,#108);
#100=AXIS2_PLACEMENT_3D($,#120,#109,#110);
#101=AXIS2_PLACEMENT_3D($,#121,#111,#112);
#102=AXIS2_PLACEMENT_3D($,#122,#113,#114);
#103=DIRECTION('axis',(0.,1.,0.));
#104=DIRECTION('refdir',(1.,0.,0.));
#105=DIRECTION('',(0.,0.,1.));
#106=DIRECTION('',(1.,0.,0.));
#107=DIRECTION('',(0.,0.,1.));
#108=DIRECTION('',(1.,0.,0.));
#109=DIRECTION('',(0.,0.,-1.));
#110=DIRECTION('',(1.,0.,0.));
#111=DIRECTION('',(0.,0.,1.));
#112=DIRECTION('',(0.,1.,0.));
#113=DIRECTION('',(0.,0.,1.));
#114=DIRECTION('',(0.,1.,0.));
#115=CARTESIAN_POINT('',(0.,0.,0.));
#116=CARTESIAN_POINT('',(-1.199,0.75,0.61));
#117=CARTESIAN_POINT('',(-1.274,0.75,0.612));
#118=CARTESIAN_POINT('',(-1.199,0.75,0.612));
#119=CARTESIAN_POINT('',(-1.274,0.75,0.61));
#120=CARTESIAN_POINT('',(-1.199,0.75,0.61));
#121=CARTESIAN_POINT('',(-1.199,0.75,0.61));
#122=CARTESIAN_POINT('',(-1.199,0.75,0.612));
#123=STYLED_ITEM('color',(#52),#73);
#124=STYLED_ITEM('color',(#52),#74);
#125=STYLED_ITEM('color',(#52),#75);
#127=MANIFOLD_SOLID_BREP($,#128);
#128=CLOSED_SHELL('',(#130,#179,#228,#277,#326,#375));
#129=STYLED_ITEM('',(#43),#130);
#130=ADVANCED_FACE('',(#136),#131,.T.);
#131=PLANE('',#132);
#132=AXIS2_PLACEMENT_3D('',#133,#134,#135);
#133=CARTESIAN_POINT('',(-1.499,-1.003,0.051));
#134=DIRECTION('',(0.0,-1.0,0.0));
#135=DIRECTION('',(0.,0.,1.));
#136=FACE_OUTER_BOUND('',#137,.T.);
#137=EDGE_LOOP('',(#138,#148,#158,#168));
#141=CARTESIAN_POINT('',(1.499,-1.003,0.051));
#140=VERTEX_POINT('',#141);
#143=CARTESIAN_POINT('',(-1.499,-1.003,0.051));
#142=VERTEX_POINT('',#143);
#139=EDGE_CURVE('',#140,#142,#144,.T.);
#144=LINE('',#141,#146);
#146=VECTOR('',#147,2.9972);
#147=DIRECTION('',(-1.0,0.0,0.0));
#138=ORIENTED_EDGE('',*,*,#139,.F.);
#151=CARTESIAN_POINT('',(1.499,-1.003,0.61));
#150=VERTEX_POINT('',#151);
#149=EDGE_CURVE('',#150,#140,#154,.T.);
#154=LINE('',#151,#156);
#156=VECTOR('',#157,0.5587746);
#157=DIRECTION('',(0.0,0.0,-1.0));
#148=ORIENTED_EDGE('',*,*,#149,.F.);
#161=CARTESIAN_POINT('',(-1.499,-1.003,0.61));
#160=VERTEX_POINT('',#161);
#159=EDGE_CURVE('',#160,#150,#164,.T.);
#164=LINE('',#161,#166);
#166=VECTOR('',#167,2.9972);
#167=DIRECTION('',(1.0,0.0,0.0));
#158=ORIENTED_EDGE('',*,*,#159,.F.);
#169=EDGE_CURVE('',#142,#160,#174,.T.);
#174=LINE('',#143,#176);
#176=VECTOR('',#177,0.5587746);
#177=DIRECTION('',(0.0,0.0,1.0));
#168=ORIENTED_EDGE('',*,*,#169,.F.);
#178=STYLED_ITEM('',(#43),#179);
#179=ADVANCED_FACE('',(#185),#180,.T.);
#180=PLANE('',#181);
#181=AXIS2_PLACEMENT_3D('',#182,#183,#184);
#182=CARTESIAN_POINT('',(1.499,-1.003,0.051));
#183=DIRECTION('',(1.0,0.0,0.0));
#184=DIRECTION('',(0.,0.,1.));
#185=FACE_OUTER_BOUND('',#186,.T.);
#186=EDGE_LOOP('',(#187,#197,#207,#217));
#190=CARTESIAN_POINT('',(1.499,1.003,0.051));
#189=VERTEX_POINT('',#190);
#188=EDGE_CURVE('',#189,#140,#193,.T.);
#193=LINE('',#190,#195);
#195=VECTOR('',#196,2.0066);
#196=DIRECTION('',(0.0,-1.0,0.0));
#187=ORIENTED_EDGE('',*,*,#188,.F.);
#200=CARTESIAN_POINT('',(1.499,1.003,0.61));
#199=VERTEX_POINT('',#200);
#198=EDGE_CURVE('',#199,#189,#203,.T.);
#203=LINE('',#200,#205);
#205=VECTOR('',#206,0.5587746);
#206=DIRECTION('',(0.0,0.0,-1.0));
#197=ORIENTED_EDGE('',*,*,#198,.F.);
#208=EDGE_CURVE('',#150,#199,#213,.T.);
#213=LINE('',#151,#215);
#215=VECTOR('',#216,2.0066);
#216=DIRECTION('',(0.0,1.0,0.0));
#207=ORIENTED_EDGE('',*,*,#208,.F.);
#217=ORIENTED_EDGE('',*,*,#149,.T.);
#227=STYLED_ITEM('',(#43),#228);
#228=ADVANCED_FACE('',(#234),#229,.T.);
#229=PLANE('',#230);
#230=AXIS2_PLACEMENT_3D('',#231,#232,#233);
#231=CARTESIAN_POINT('',(1.499,1.003,0.051));
#232=DIRECTION('',(0.0,1.0,0.0));
#233=DIRECTION('',(0.,0.,1.));
#234=FACE_OUTER_BOUND('',#235,.T.);
#235=EDGE_LOOP('',(#236,#246,#256,#266));
#239=CARTESIAN_POINT('',(-1.499,1.003,0.051));
#238=VERTEX_POINT('',#239);
#237=EDGE_CURVE('',#238,#189,#242,.T.);
#242=LINE('',#239,#244);
#244=VECTOR('',#245,2.9972);
#245=DIRECTION('',(1.0,0.0,0.0));
#236=ORIENTED_EDGE('',*,*,#237,.F.);
#249=CARTESIAN_POINT('',(-1.499,1.003,0.61));
#248=VERTEX_POINT('',#249);
#247=EDGE_CURVE('',#248,#238,#252,.T.);
#252=LINE('',#249,#254);
#254=VECTOR('',#255,0.5587746);
#255=DIRECTION('',(0.0,0.0,-1.0));
#246=ORIENTED_EDGE('',*,*,#247,.F.);
#257=EDGE_CURVE('',#199,#248,#262,.T.);
#262=LINE('',#200,#264);
#264=VECTOR('',#265,2.9972);
#265=DIRECTION('',(-1.0,0.0,0.0));
#256=ORIENTED_EDGE('',*,*,#257,.F.);
#266=ORIENTED_EDGE('',*,*,#198,.T.);
#276=STYLED_ITEM('',(#43),#277);
#277=ADVANCED_FACE('',(#283),#278,.T.);
#278=PLANE('',#279);
#279=AXIS2_PLACEMENT_3D('',#280,#281,#282);
#280=CARTESIAN_POINT('',(-1.499,1.003,0.051));
#281=DIRECTION('',(-1.0,0.0,0.0));
#282=DIRECTION('',(0.,0.,1.));
#283=FACE_OUTER_BOUND('',#284,.T.);
#284=EDGE_LOOP('',(#285,#295,#305,#315));
#286=EDGE_CURVE('',#142,#238,#291,.T.);
#291=LINE('',#143,#293);
#293=VECTOR('',#294,2.0066);
#294=DIRECTION('',(0.0,1.0,0.0));
#285=ORIENTED_EDGE('',*,*,#286,.F.);
#295=ORIENTED_EDGE('',*,*,#169,.T.);
#306=EDGE_CURVE('',#248,#160,#311,.T.);
#311=LINE('',#249,#313);
#313=VECTOR('',#314,2.0066);
#314=DIRECTION('',(0.0,-1.0,0.0));
#305=ORIENTED_EDGE('',*,*,#306,.F.);
#315=ORIENTED_EDGE('',*,*,#247,.T.);
#325=STYLED_ITEM('',(#43),#326);
#326=ADVANCED_FACE('',(#332),#327,.T.);
#327=PLANE('',#328);
#328=AXIS2_PLACEMENT_3D('',#329,#330,#331);
#329=CARTESIAN_POINT('',(-1.499,1.003,0.051));
#330=DIRECTION('',(0.0,0.0,-1.0));
#331=DIRECTION('',(0.,1.,0.));
#332=FACE_OUTER_BOUND('',#333,.T.);
#333=EDGE_LOOP('',(#334,#344,#354,#364));
#334=ORIENTED_EDGE('',*,*,#237,.T.);
#344=ORIENTED_EDGE('',*,*,#188,.T.);
#354=ORIENTED_EDGE('',*,*,#139,.T.);
#364=ORIENTED_EDGE('',*,*,#286,.T.);
#374=STYLED_ITEM('',(#43),#375);
#375=ADVANCED_FACE('',(#381),#376,.T.);
#376=PLANE('',#377);
#377=AXIS2_PLACEMENT_3D('',#378,#379,#380);
#378=CARTESIAN_POINT('',(-1.499,-1.003,0.61));
#379=DIRECTION('',(0.0,0.0,1.0));
#380=DIRECTION('',(0.,1.,0.));
#381=FACE_OUTER_BOUND('',#382,.T.);
#382=EDGE_LOOP('',(#383,#393,#403,#413));
#383=ORIENTED_EDGE('',*,*,#159,.T.);
#393=ORIENTED_EDGE('',*,*,#208,.T.);
#403=ORIENTED_EDGE('',*,*,#257,.T.);
#413=ORIENTED_EDGE('',*,*,#306,.T.);
#423=MANIFOLD_SOLID_BREP($,#424);
#424=CLOSED_SHELL('',(#426,#475,#524,#573,#622,#671));
#425=STYLED_ITEM('',(#61),#426);
#426=ADVANCED_FACE('',(#432),#427,.T.);
#427=PLANE('',#428);
#428=AXIS2_PLACEMENT_3D('',#429,#430,#431);
#429=CARTESIAN_POINT('',(-0.102,-0.8,0.0));
#430=DIRECTION('',(0.0,-1.0,0.0));
#431=DIRECTION('',(0.,0.,1.));
#432=FACE_OUTER_BOUND('',#433,.T.);
#433=EDGE_LOOP('',(#434,#444,#454,#464));
#437=CARTESIAN_POINT('',(0.102,-0.8,0.0));
#436=VERTEX_POINT('',#437);
#439=CARTESIAN_POINT('',(-0.102,-0.8,0.0));
#438=VERTEX_POINT('',#439);
#435=EDGE_CURVE('',#436,#438,#440,.T.);
#440=LINE('',#437,#442);
#442=VECTOR('',#443,0.2032);
#443=DIRECTION('',(-1.0,0.0,0.0));
#434=ORIENTED_EDGE('',*,*,#435,.F.);
#447=CARTESIAN_POINT('',(0.102,-0.8,0.051));
#446=VERTEX_POINT('',#447);
#445=EDGE_CURVE('',#446,#436,#450,.T.);
#450=LINE('',#447,#452);
#452=VECTOR('',#453,0.0508);
#453=DIRECTION('',(0.0,0.0,-1.0));
#444=ORIENTED_EDGE('',*,*,#445,.F.);
#457=CARTESIAN_POINT('',(-0.102,-0.8,0.051));
#456=VERTEX_POINT('',#457);
#455=EDGE_CURVE('',#456,#446,#460,.T.);
#460=LINE('',#457,#462);
#462=VECTOR('',#463,0.2032);
#463=DIRECTION('',(1.0,0.0,0.0));
#454=ORIENTED_EDGE('',*,*,#455,.F.);
#465=EDGE_CURVE('',#438,#456,#470,.T.);
#470=LINE('',#439,#472);
#472=VECTOR('',#473,0.0508);
#473=DIRECTION('',(0.0,0.0,1.0));
#464=ORIENTED_EDGE('',*,*,#465,.F.);
#474=STYLED_ITEM('',(#61),#475);
#475=ADVANCED_FACE('',(#481),#476,.T.);
#476=PLANE('',#477);
#477=AXIS2_PLACEMENT_3D('',#478,#479,#480);
#478=CARTESIAN_POINT('',(0.102,-0.8,0.0));
#479=DIRECTION('',(1.0,0.0,0.0));
#480=DIRECTION('',(0.,0.,1.));
#481=FACE_OUTER_BOUND('',#482,.T.);
#482=EDGE_LOOP('',(#483,#493,#503,#513));
#486=CARTESIAN_POINT('',(0.102,0.8,0.0));
#485=VERTEX_POINT('',#486);
#484=EDGE_CURVE('',#485,#436,#489,.T.);
#489=LINE('',#486,#491);
#491=VECTOR('',#492,1.6002);
#492=DIRECTION('',(0.0,-1.0,0.0));
#483=ORIENTED_EDGE('',*,*,#484,.F.);
#496=CARTESIAN_POINT('',(0.102,0.8,0.051));
#495=VERTEX_POINT('',#496);
#494=EDGE_CURVE('',#495,#485,#499,.T.);
#499=LINE('',#496,#501);
#501=VECTOR('',#502,0.0508);
#502=DIRECTION('',(0.0,0.0,-1.0));
#493=ORIENTED_EDGE('',*,*,#494,.F.);
#504=EDGE_CURVE('',#446,#495,#509,.T.);
#509=LINE('',#447,#511);
#511=VECTOR('',#512,1.6002);
#512=DIRECTION('',(0.0,1.0,0.0));
#503=ORIENTED_EDGE('',*,*,#504,.F.);
#513=ORIENTED_EDGE('',*,*,#445,.T.);
#523=STYLED_ITEM('',(#61),#524);
#524=ADVANCED_FACE('',(#530),#525,.T.);
#525=PLANE('',#526);
#526=AXIS2_PLACEMENT_3D('',#527,#528,#529);
#527=CARTESIAN_POINT('',(0.102,0.8,0.0));
#528=DIRECTION('',(0.0,1.0,0.0));
#529=DIRECTION('',(0.,0.,1.));
#530=FACE_OUTER_BOUND('',#531,.T.);
#531=EDGE_LOOP('',(#532,#542,#552,#562));
#535=CARTESIAN_POINT('',(-0.102,0.8,0.0));
#534=VERTEX_POINT('',#535);
#533=EDGE_CURVE('',#534,#485,#538,.T.);
#538=LINE('',#535,#540);
#540=VECTOR('',#541,0.2032);
#541=DIRECTION('',(1.0,0.0,0.0));
#532=ORIENTED_EDGE('',*,*,#533,.F.);
#545=CARTESIAN_POINT('',(-0.102,0.8,0.051));
#544=VERTEX_POINT('',#545);
#543=EDGE_CURVE('',#544,#534,#548,.T.);
#548=LINE('',#545,#550);
#550=VECTOR('',#551,0.0508);
#551=DIRECTION('',(0.0,0.0,-1.0));
#542=ORIENTED_EDGE('',*,*,#543,.F.);
#553=EDGE_CURVE('',#495,#544,#558,.T.);
#558=LINE('',#496,#560);
#560=VECTOR('',#561,0.2032);
#561=DIRECTION('',(-1.0,0.0,0.0));
#552=ORIENTED_EDGE('',*,*,#553,.F.);
#562=ORIENTED_EDGE('',*,*,#494,.T.);
#572=STYLED_ITEM('',(#61),#573);
#573=ADVANCED_FACE('',(#579),#574,.T.);
#574=PLANE('',#575);
#575=AXIS2_PLACEMENT_3D('',#576,#577,#578);
#576=CARTESIAN_POINT('',(-0.102,0.8,0.0));
#577=DIRECTION('',(-1.0,0.0,0.0));
#578=DIRECTION('',(0.,0.,1.));
#579=FACE_OUTER_BOUND('',#580,.T.);
#580=EDGE_LOOP('',(#581,#591,#601,#611));
#582=EDGE_CURVE('',#438,#534,#587,.T.);
#587=LINE('',#439,#589);
#589=VECTOR('',#590,1.6002);
#590=DIRECTION('',(0.0,1.0,0.0));
#581=ORIENTED_EDGE('',*,*,#582,.F.);
#591=ORIENTED_EDGE('',*,*,#465,.T.);
#602=EDGE_CURVE('',#544,#456,#607,.T.);
#607=LINE('',#545,#609);
#609=VECTOR('',#610,1.6002);
#610=DIRECTION('',(0.0,-1.0,0.0));
#601=ORIENTED_EDGE('',*,*,#602,.F.);
#611=ORIENTED_EDGE('',*,*,#543,.T.);
#621=STYLED_ITEM('',(#61),#622);
#622=ADVANCED_FACE('',(#628),#623,.T.);
#623=PLANE('',#624);
#624=AXIS2_PLACEMENT_3D('',#625,#626,#627);
#625=CARTESIAN_POINT('',(-0.102,0.8,0.0));
#626=DIRECTION('',(0.0,0.0,-1.0));
#627=DIRECTION('',(0.,1.,0.));
#628=FACE_OUTER_BOUND('',#629,.T.);
#629=EDGE_LOOP('',(#630,#640,#650,#660));
#630=ORIENTED_EDGE('',*,*,#533,.T.);
#640=ORIENTED_EDGE('',*,*,#484,.T.);
#650=ORIENTED_EDGE('',*,*,#435,.T.);
#660=ORIENTED_EDGE('',*,*,#582,.T.);
#670=STYLED_ITEM('',(#61),#671);
#671=ADVANCED_FACE('',(#677),#672,.T.);
#672=PLANE('',#673);
#673=AXIS2_PLACEMENT_3D('',#674,#675,#676);
#674=CARTESIAN_POINT('',(-0.102,-0.8,0.051));
#675=DIRECTION('',(0.0,0.0,1.0));
#676=DIRECTION('',(0.,1.,0.));
#677=FACE_OUTER_BOUND('',#678,.T.);
#678=EDGE_LOOP('',(#679,#689,#699,#709));
#679=ORIENTED_EDGE('',*,*,#455,.T.);
#689=ORIENTED_EDGE('',*,*,#504,.T.);
#699=ORIENTED_EDGE('',*,*,#553,.T.);
#709=ORIENTED_EDGE('',*,*,#602,.T.);
#720=MANIFOLD_SOLID_BREP($,#721);
#721=CLOSED_SHELL('',(#723,#792,#861,#910,#959,#1008,#1057,#1106));
#722=STYLED_ITEM('',(#34),#723);
#723=ADVANCED_FACE('',(#729),#724,.T.);
#724=PLANE('',#725);
#725=AXIS2_PLACEMENT_3D('',#726,#727,#728);
#726=CARTESIAN_POINT('',(1.549,0.903,0.0));
#727=DIRECTION('',(0.0,1.0,0.0));
#728=DIRECTION('',(0.,0.,1.));
#729=FACE_OUTER_BOUND('',#730,.T.);
#730=EDGE_LOOP('',(#731,#741,#751,#761,#771,#781));
#734=CARTESIAN_POINT('',(1.041,0.903,0.0));
#733=VERTEX_POINT('',#734);
#736=CARTESIAN_POINT('',(1.549,0.903,0.0));
#735=VERTEX_POINT('',#736);
#732=EDGE_CURVE('',#733,#735,#737,.T.);
#737=LINE('',#734,#739);
#739=VECTOR('',#740,0.508);
#740=DIRECTION('',(1.0,0.0,0.0));
#731=ORIENTED_EDGE('',*,*,#732,.F.);
#744=CARTESIAN_POINT('',(1.041,0.903,0.051));
#743=VERTEX_POINT('',#744);
#742=EDGE_CURVE('',#743,#733,#747,.T.);
#747=LINE('',#744,#749);
#749=VECTOR('',#750,0.0508);
#750=DIRECTION('',(0.0,0.0,-1.0));
#741=ORIENTED_EDGE('',*,*,#742,.F.);
#754=CARTESIAN_POINT('',(1.499,0.903,0.051));
#753=VERTEX_POINT('',#754);
#752=EDGE_CURVE('',#753,#743,#757,.T.);
#757=LINE('',#754,#759);
#759=VECTOR('',#760,0.4572);
#760=DIRECTION('',(-1.0,0.0,0.0));
#751=ORIENTED_EDGE('',*,*,#752,.F.);
#764=CARTESIAN_POINT('',(1.499,0.903,0.305));
#763=VERTEX_POINT('',#764);
#762=EDGE_CURVE('',#763,#753,#767,.T.);
#767=LINE('',#764,#769);
#769=VECTOR('',#770,0.2539873);
#770=DIRECTION('',(0.0,0.0,-1.0));
#761=ORIENTED_EDGE('',*,*,#762,.F.);
#774=CARTESIAN_POINT('',(1.549,0.903,0.305));
#773=VERTEX_POINT('',#774);
#772=EDGE_CURVE('',#773,#763,#777,.T.);
#777=LINE('',#774,#779);
#779=VECTOR('',#780,0.0508);
#780=DIRECTION('',(-1.0,0.0,0.0));
#771=ORIENTED_EDGE('',*,*,#772,.F.);
#782=EDGE_CURVE('',#735,#773,#787,.T.);
#787=LINE('',#736,#789);
#789=VECTOR('',#790,0.3047873);
#790=DIRECTION('',(0.0,0.0,1.0));
#781=ORIENTED_EDGE('',*,*,#782,.F.);
#791=STYLED_ITEM('',(#34),#792);
#792=ADVANCED_FACE('',(#798),#793,.T.);
#793=PLANE('',#794);
#794=AXIS2_PLACEMENT_3D('',#795,#796,#797);
#795=CARTESIAN_POINT('',(1.041,0.598,0.0));
#796=DIRECTION('',(0.0,-1.0,0.0));
#797=DIRECTION('',(0.,0.,1.));
#798=FACE_OUTER_BOUND('',#799,.T.);
#799=EDGE_LOOP('',(#800,#810,#820,#830,#840,#850));
#803=CARTESIAN_POINT('',(1.549,0.598,0.0));
#802=VERTEX_POINT('',#803);
#805=CARTESIAN_POINT('',(1.041,0.598,0.0));
#804=VERTEX_POINT('',#805);
#801=EDGE_CURVE('',#802,#804,#806,.T.);
#806=LINE('',#803,#808);
#808=VECTOR('',#809,0.508);
#809=DIRECTION('',(-1.0,0.0,0.0));
#800=ORIENTED_EDGE('',*,*,#801,.F.);
#813=CARTESIAN_POINT('',(1.549,0.598,0.305));
#812=VERTEX_POINT('',#813);
#811=EDGE_CURVE('',#812,#802,#816,.T.);
#816=LINE('',#813,#818);
#818=VECTOR('',#819,0.3047873);
#819=DIRECTION('',(0.0,0.0,-1.0));
#810=ORIENTED_EDGE('',*,*,#811,.F.);
#823=CARTESIAN_POINT('',(1.499,0.598,0.305));
#822=VERTEX_POINT('',#823);
#821=EDGE_CURVE('',#822,#812,#826,.T.);
#826=LINE('',#823,#828);
#828=VECTOR('',#829,0.0508);
#829=DIRECTION('',(1.0,0.0,0.0));
#820=ORIENTED_EDGE('',*,*,#821,.F.);
#833=CARTESIAN_POINT('',(1.499,0.598,0.051));
#832=VERTEX_POINT('',#833);
#831=EDGE_CURVE('',#832,#822,#836,.T.);
#836=LINE('',#833,#838);
#838=VECTOR('',#839,0.2539873);
#839=DIRECTION('',(0.0,0.0,1.0));
#830=ORIENTED_EDGE('',*,*,#831,.F.);
#843=CARTESIAN_POINT('',(1.041,0.598,0.051));
#842=VERTEX_POINT('',#843);
#841=EDGE_CURVE('',#842,#832,#846,.T.);
#846=LINE('',#843,#848);
#848=VECTOR('',#849,0.4572);
#849=DIRECTION('',(1.0,0.0,0.0));
#840=ORIENTED_EDGE('',*,*,#841,.F.);
#851=EDGE_CURVE('',#804,#842,#856,.T.);
#856=LINE('',#805,#858);
#858=VECTOR('',#859,0.0508);
#859=DIRECTION('',(0.0,0.0,1.0));
#850=ORIENTED_EDGE('',*,*,#851,.F.);
#860=STYLED_ITEM('',(#34),#861);
#861=ADVANCED_FACE('',(#867),#862,.T.);
#862=PLANE('',#863);
#863=AXIS2_PLACEMENT_3D('',#864,#865,#866);
#864=CARTESIAN_POINT('',(1.549,0.903,0.305));
#865=DIRECTION('',(0.0,0.0,1.0));
#866=DIRECTION('',(0.,1.,0.));
#867=FACE_OUTER_BOUND('',#868,.T.);
#868=EDGE_LOOP('',(#869,#879,#889,#899));
#869=ORIENTED_EDGE('',*,*,#772,.T.);
#880=EDGE_CURVE('',#822,#763,#885,.T.);
#885=LINE('',#823,#887);
#887=VECTOR('',#888,0.3048);
#888=DIRECTION('',(0.0,1.0,0.0));
#879=ORIENTED_EDGE('',*,*,#880,.F.);
#889=ORIENTED_EDGE('',*,*,#821,.T.);
#900=EDGE_CURVE('',#773,#812,#905,.T.);
#905=LINE('',#774,#907);
#907=VECTOR('',#908,0.3048);
#908=DIRECTION('',(0.0,-1.0,0.0));
#899=ORIENTED_EDGE('',*,*,#900,.F.);
#909=STYLED_ITEM('',(#34),#910);
#910=ADVANCED_FACE('',(#916),#911,.T.);
#911=PLANE('',#912);
#912=AXIS2_PLACEMENT_3D('',#913,#914,#915);
#913=CARTESIAN_POINT('',(1.499,0.903,0.051));
#914=DIRECTION('',(0.0,0.0,1.0));
#915=DIRECTION('',(0.,1.,0.));
#916=FACE_OUTER_BOUND('',#917,.T.);
#917=EDGE_LOOP('',(#918,#928,#938,#948));
#918=ORIENTED_EDGE('',*,*,#752,.T.);
#929=EDGE_CURVE('',#842,#743,#934,.T.);
#934=LINE('',#843,#936);
#936=VECTOR('',#937,0.3048);
#937=DIRECTION('',(0.0,1.0,0.0));
#928=ORIENTED_EDGE('',*,*,#929,.F.);
#938=ORIENTED_EDGE('',*,*,#841,.T.);
#949=EDGE_CURVE('',#753,#832,#954,.T.);
#954=LINE('',#754,#956);
#956=VECTOR('',#957,0.3048);
#957=DIRECTION('',(0.0,-1.0,0.0));
#948=ORIENTED_EDGE('',*,*,#949,.F.);
#958=STYLED_ITEM('',(#34),#959);
#959=ADVANCED_FACE('',(#965),#960,.T.);
#960=PLANE('',#961);
#961=AXIS2_PLACEMENT_3D('',#962,#963,#964);
#962=CARTESIAN_POINT('',(1.549,0.598,0.0));
#963=DIRECTION('',(1.0,0.0,0.0));
#964=DIRECTION('',(0.,0.,1.));
#965=FACE_OUTER_BOUND('',#966,.T.);
#966=EDGE_LOOP('',(#967,#977,#987,#997));
#968=EDGE_CURVE('',#735,#802,#973,.T.);
#973=LINE('',#736,#975);
#975=VECTOR('',#976,0.3048);
#976=DIRECTION('',(0.0,-1.0,0.0));
#967=ORIENTED_EDGE('',*,*,#968,.F.);
#977=ORIENTED_EDGE('',*,*,#782,.T.);
#987=ORIENTED_EDGE('',*,*,#900,.T.);
#997=ORIENTED_EDGE('',*,*,#811,.T.);
#1007=STYLED_ITEM('',(#34),#1008);
#1008=ADVANCED_FACE('',(#1014),#1009,.T.);
#1009=PLANE('',#1010);
#1010=AXIS2_PLACEMENT_3D('',#1011,#1012,#1013);
#1011=CARTESIAN_POINT('',(1.041,0.903,0.0));
#1012=DIRECTION('',(-1.0,0.0,0.0));
#1013=DIRECTION('',(0.,0.,1.));
#1014=FACE_OUTER_BOUND('',#1015,.T.);
#1015=EDGE_LOOP('',(#1016,#1026,#1036,#1046));
#1017=EDGE_CURVE('',#804,#733,#1022,.T.);
#1022=LINE('',#805,#1024);
#1024=VECTOR('',#1025,0.3048);
#1025=DIRECTION('',(0.0,1.0,0.0));
#1016=ORIENTED_EDGE('',*,*,#1017,.F.);
#1026=ORIENTED_EDGE('',*,*,#851,.T.);
#1036=ORIENTED_EDGE('',*,*,#929,.T.);
#1046=ORIENTED_EDGE('',*,*,#742,.T.);
#1056=STYLED_ITEM('',(#34),#1057);
#1057=ADVANCED_FACE('',(#1063),#1058,.T.);
#1058=PLANE('',#1059);
#1059=AXIS2_PLACEMENT_3D('',#1060,#1061,#1062);
#1060=CARTESIAN_POINT('',(1.499,0.903,0.051));
#1061=DIRECTION('',(-1.0,0.0,0.0));
#1062=DIRECTION('',(0.,0.,1.));
#1063=FACE_OUTER_BOUND('',#1064,.T.);
#1064=EDGE_LOOP('',(#1065,#1075,#1085,#1095));
#1065=ORIENTED_EDGE('',*,*,#949,.T.);
#1075=ORIENTED_EDGE('',*,*,#831,.T.);
#1085=ORIENTED_EDGE('',*,*,#880,.T.);
#1095=ORIENTED_EDGE('',*,*,#762,.T.);
#1105=STYLED_ITEM('',(#34),#1106);
#1106=ADVANCED_FACE('',(#1112),#1107,.T.);
#1107=PLANE('',#1108);
#1108=AXIS2_PLACEMENT_3D('',#1109,#1110,#1111);
#1109=CARTESIAN_POINT('',(1.549,0.598,0.0));
#1110=DIRECTION('',(0.0,0.0,-1.0));
#1111=DIRECTION('',(0.,1.,0.));
#1112=FACE_OUTER_BOUND('',#1113,.T.);
#1113=EDGE_LOOP('',(#1114,#1124,#1134,#1144));
#1114=ORIENTED_EDGE('',*,*,#801,.T.);
#1124=ORIENTED_EDGE('',*,*,#1017,.T.);
#1134=ORIENTED_EDGE('',*,*,#732,.T.);
#1144=ORIENTED_EDGE('',*,*,#968,.T.);
#1154=MANIFOLD_SOLID_BREP($,#1155);
#1155=CLOSED_SHELL('',(#1157,#1226,#1295,#1344,#1393,#1442,#1491,#1540));
#1156=STYLED_ITEM('',(#34),#1157);
#1157=ADVANCED_FACE('',(#1163),#1158,.T.);
#1158=PLANE('',#1159);
#1159=AXIS2_PLACEMENT_3D('',#1160,#1161,#1162);
#1160=CARTESIAN_POINT('',(1.549,0.402,0.0));
#1161=DIRECTION('',(0.0,1.0,0.0));
#1162=DIRECTION('',(0.,0.,1.));
#1163=FACE_OUTER_BOUND('',#1164,.T.);
#1164=EDGE_LOOP('',(#1165,#1175,#1185,#1195,#1205,#1215));
#1168=CARTESIAN_POINT('',(1.041,0.402,0.0));
#1167=VERTEX_POINT('',#1168);
#1170=CARTESIAN_POINT('',(1.549,0.402,0.0));
#1169=VERTEX_POINT('',#1170);
#1166=EDGE_CURVE('',#1167,#1169,#1171,.T.);
#1171=LINE('',#1168,#1173);
#1173=VECTOR('',#1174,0.508);
#1174=DIRECTION('',(1.0,0.0,0.0));
#1165=ORIENTED_EDGE('',*,*,#1166,.F.);
#1178=CARTESIAN_POINT('',(1.041,0.402,0.051));
#1177=VERTEX_POINT('',#1178);
#1176=EDGE_CURVE('',#1177,#1167,#1181,.T.);
#1181=LINE('',#1178,#1183);
#1183=VECTOR('',#1184,0.0508);
#1184=DIRECTION('',(0.0,0.0,-1.0));
#1175=ORIENTED_EDGE('',*,*,#1176,.F.);
#1188=CARTESIAN_POINT('',(1.499,0.402,0.051));
#1187=VERTEX_POINT('',#1188);
#1186=EDGE_CURVE('',#1187,#1177,#1191,.T.);
#1191=LINE('',#1188,#1193);
#1193=VECTOR('',#1194,0.4572);
#1194=DIRECTION('',(-1.0,0.0,0.0));
#1185=ORIENTED_EDGE('',*,*,#1186,.F.);
#1198=CARTESIAN_POINT('',(1.499,0.402,0.305));
#1197=VERTEX_POINT('',#1198);
#1196=EDGE_CURVE('',#1197,#1187,#1201,.T.);
#1201=LINE('',#1198,#1203);
#1203=VECTOR('',#1204,0.2539873);
#1204=DIRECTION('',(0.0,0.0,-1.0));
#1195=ORIENTED_EDGE('',*,*,#1196,.F.);
#1208=CARTESIAN_POINT('',(1.549,0.402,0.305));
#1207=VERTEX_POINT('',#1208);
#1206=EDGE_CURVE('',#1207,#1197,#1211,.T.);
#1211=LINE('',#1208,#1213);
#1213=VECTOR('',#1214,0.0508);
#1214=DIRECTION('',(-1.0,0.0,0.0));
#1205=ORIENTED_EDGE('',*,*,#1206,.F.);
#1216=EDGE_CURVE('',#1169,#1207,#1221,.T.);
#1221=LINE('',#1170,#1223);
#1223=VECTOR('',#1224,0.3047873);
#1224=DIRECTION('',(0.0,0.0,1.0));
#1215=ORIENTED_EDGE('',*,*,#1216,.F.);
#1225=STYLED_ITEM('',(#34),#1226);
#1226=ADVANCED_FACE('',(#1232),#1227,.T.);
#1227=PLANE('',#1228);
#1228=AXIS2_PLACEMENT_3D('',#1229,#1230,#1231);
#1229=CARTESIAN_POINT('',(1.041,0.098,0.0));
#1230=DIRECTION('',(0.0,-1.0,0.0));
#1231=DIRECTION('',(0.,0.,1.));
#1232=FACE_OUTER_BOUND('',#1233,.T.);
#1233=EDGE_LOOP('',(#1234,#1244,#1254,#1264,#1274,#1284));
#1237=CARTESIAN_POINT('',(1.549,0.098,0.0));
#1236=VERTEX_POINT('',#1237);
#1239=CARTESIAN_POINT('',(1.041,0.098,0.0));
#1238=VERTEX_POINT('',#1239);
#1235=EDGE_CURVE('',#1236,#1238,#1240,.T.);
#1240=LINE('',#1237,#1242);
#1242=VECTOR('',#1243,0.508);
#1243=DIRECTION('',(-1.0,0.0,0.0));
#1234=ORIENTED_EDGE('',*,*,#1235,.F.);
#1247=CARTESIAN_POINT('',(1.549,0.098,0.305));
#1246=VERTEX_POINT('',#1247);
#1245=EDGE_CURVE('',#1246,#1236,#1250,.T.);
#1250=LINE('',#1247,#1252);
#1252=VECTOR('',#1253,0.3047873);
#1253=DIRECTION('',(0.0,0.0,-1.0));
#1244=ORIENTED_EDGE('',*,*,#1245,.F.);
#1257=CARTESIAN_POINT('',(1.499,0.098,0.305));
#1256=VERTEX_POINT('',#1257);
#1255=EDGE_CURVE('',#1256,#1246,#1260,.T.);
#1260=LINE('',#1257,#1262);
#1262=VECTOR('',#1263,0.0508);
#1263=DIRECTION('',(1.0,0.0,0.0));
#1254=ORIENTED_EDGE('',*,*,#1255,.F.);
#1267=CARTESIAN_POINT('',(1.499,0.098,0.051));
#1266=VERTEX_POINT('',#1267);
#1265=EDGE_CURVE('',#1266,#1256,#1270,.T.);
#1270=LINE('',#1267,#1272);
#1272=VECTOR('',#1273,0.2539873);
#1273=DIRECTION('',(0.0,0.0,1.0));
#1264=ORIENTED_EDGE('',*,*,#1265,.F.);
#1277=CARTESIAN_POINT('',(1.041,0.098,0.051));
#1276=VERTEX_POINT('',#1277);
#1275=EDGE_CURVE('',#1276,#1266,#1280,.T.);
#1280=LINE('',#1277,#1282);
#1282=VECTOR('',#1283,0.4572);
#1283=DIRECTION('',(1.0,0.0,0.0));
#1274=ORIENTED_EDGE('',*,*,#1275,.F.);
#1285=EDGE_CURVE('',#1238,#1276,#1290,.T.);
#1290=LINE('',#1239,#1292);
#1292=VECTOR('',#1293,0.0508);
#1293=DIRECTION('',(0.0,0.0,1.0));
#1284=ORIENTED_EDGE('',*,*,#1285,.F.);
#1294=STYLED_ITEM('',(#34),#1295);
#1295=ADVANCED_FACE('',(#1301),#1296,.T.);
#1296=PLANE('',#1297);
#1297=AXIS2_PLACEMENT_3D('',#1298,#1299,#1300);
#1298=CARTESIAN_POINT('',(1.549,0.402,0.305));
#1299=DIRECTION('',(0.0,0.0,1.0));
#1300=DIRECTION('',(0.,1.,0.));
#1301=FACE_OUTER_BOUND('',#1302,.T.);
#1302=EDGE_LOOP('',(#1303,#1313,#1323,#1333));
#1303=ORIENTED_EDGE('',*,*,#1206,.T.);
#1314=EDGE_CURVE('',#1256,#1197,#1319,.T.);
#1319=LINE('',#1257,#1321);
#1321=VECTOR('',#1322,0.3048);
#1322=DIRECTION('',(0.0,1.0,0.0));
#1313=ORIENTED_EDGE('',*,*,#1314,.F.);
#1323=ORIENTED_EDGE('',*,*,#1255,.T.);
#1334=EDGE_CURVE('',#1207,#1246,#1339,.T.);
#1339=LINE('',#1208,#1341);
#1341=VECTOR('',#1342,0.3048);
#1342=DIRECTION('',(0.0,-1.0,0.0));
#1333=ORIENTED_EDGE('',*,*,#1334,.F.);
#1343=STYLED_ITEM('',(#34),#1344);
#1344=ADVANCED_FACE('',(#1350),#1345,.T.);
#1345=PLANE('',#1346);
#1346=AXIS2_PLACEMENT_3D('',#1347,#1348,#1349);
#1347=CARTESIAN_POINT('',(1.499,0.402,0.051));
#1348=DIRECTION('',(0.0,0.0,1.0));
#1349=DIRECTION('',(0.,1.,0.));
#1350=FACE_OUTER_BOUND('',#1351,.T.);
#1351=EDGE_LOOP('',(#1352,#1362,#1372,#1382));
#1352=ORIENTED_EDGE('',*,*,#1186,.T.);
#1363=EDGE_CURVE('',#1276,#1177,#1368,.T.);
#1368=LINE('',#1277,#1370);
#1370=VECTOR('',#1371,0.3048);
#1371=DIRECTION('',(0.0,1.0,0.0));
#1362=ORIENTED_EDGE('',*,*,#1363,.F.);
#1372=ORIENTED_EDGE('',*,*,#1275,.T.);
#1383=EDGE_CURVE('',#1187,#1266,#1388,.T.);
#1388=LINE('',#1188,#1390);
#1390=VECTOR('',#1391,0.3048);
#1391=DIRECTION('',(0.0,-1.0,0.0));
#1382=ORIENTED_EDGE('',*,*,#1383,.F.);
#1392=STYLED_ITEM('',(#34),#1393);
#1393=ADVANCED_FACE('',(#1399),#1394,.T.);
#1394=PLANE('',#1395);
#1395=AXIS2_PLACEMENT_3D('',#1396,#1397,#1398);
#1396=CARTESIAN_POINT('',(1.549,0.098,0.0));
#1397=DIRECTION('',(1.0,0.0,0.0));
#1398=DIRECTION('',(0.,0.,1.));
#1399=FACE_OUTER_BOUND('',#1400,.T.);
#1400=EDGE_LOOP('',(#1401,#1411,#1421,#1431));
#1402=EDGE_CURVE('',#1169,#1236,#1407,.T.);
#1407=LINE('',#1170,#1409);
#1409=VECTOR('',#1410,0.3048);
#1410=DIRECTION('',(0.0,-1.0,0.0));
#1401=ORIENTED_EDGE('',*,*,#1402,.F.);
#1411=ORIENTED_EDGE('',*,*,#1216,.T.);
#1421=ORIENTED_EDGE('',*,*,#1334,.T.);
#1431=ORIENTED_EDGE('',*,*,#1245,.T.);
#1441=STYLED_ITEM('',(#34),#1442);
#1442=ADVANCED_FACE('',(#1448),#1443,.T.);
#1443=PLANE('',#1444);
#1444=AXIS2_PLACEMENT_3D('',#1445,#1446,#1447);
#1445=CARTESIAN_POINT('',(1.041,0.402,0.0));
#1446=DIRECTION('',(-1.0,0.0,0.0));
#1447=DIRECTION('',(0.,0.,1.));
#1448=FACE_OUTER_BOUND('',#1449,.T.);
#1449=EDGE_LOOP('',(#1450,#1460,#1470,#1480));
#1451=EDGE_CURVE('',#1238,#1167,#1456,.T.);
#1456=LINE('',#1239,#1458);
#1458=VECTOR('',#1459,0.3048);
#1459=DIRECTION('',(0.0,1.0,0.0));
#1450=ORIENTED_EDGE('',*,*,#1451,.F.);
#1460=ORIENTED_EDGE('',*,*,#1285,.T.);
#1470=ORIENTED_EDGE('',*,*,#1363,.T.);
#1480=ORIENTED_EDGE('',*,*,#1176,.T.);
#1490=STYLED_ITEM('',(#34),#1491);
#1491=ADVANCED_FACE('',(#1497),#1492,.T.);
#1492=PLANE('',#1493);
#1493=AXIS2_PLACEMENT_3D('',#1494,#1495,#1496);
#1494=CARTESIAN_POINT('',(1.499,0.402,0.051));
#1495=DIRECTION('',(-1.0,0.0,0.0));
#1496=DIRECTION('',(0.,0.,1.));
#1497=FACE_OUTER_BOUND('',#1498,.T.);
#1498=EDGE_LOOP('',(#1499,#1509,#1519,#1529));
#1499=ORIENTED_EDGE('',*,*,#1383,.T.);
#1509=ORIENTED_EDGE('',*,*,#1265,.T.);
#1519=ORIENTED_EDGE('',*,*,#1314,.T.);
#1529=ORIENTED_EDGE('',*,*,#1196,.T.);
#1539=STYLED_ITEM('',(#34),#1540);
#1540=ADVANCED_FACE('',(#1546),#1541,.T.);
#1541=PLANE('',#1542);
#1542=AXIS2_PLACEMENT_3D('',#1543,#1544,#1545);
#1543=CARTESIAN_POINT('',(1.549,0.098,0.0));
#1544=DIRECTION('',(0.0,0.0,-1.0));
#1545=DIRECTION('',(0.,1.,0.));
#1546=FACE_OUTER_BOUND('',#1547,.T.);
#1547=EDGE_LOOP('',(#1548,#1558,#1568,#1578));
#1548=ORIENTED_EDGE('',*,*,#1235,.T.);
#1558=ORIENTED_EDGE('',*,*,#1451,.T.);
#1568=ORIENTED_EDGE('',*,*,#1166,.T.);
#1578=ORIENTED_EDGE('',*,*,#1402,.T.);
#1588=MANIFOLD_SOLID_BREP($,#1589);
#1589=CLOSED_SHELL('',(#1591,#1660,#1729,#1778,#1827,#1876,#1925,#1974));
#1590=STYLED_ITEM('',(#34),#1591);
#1591=ADVANCED_FACE('',(#1597),#1592,.T.);
#1592=PLANE('',#1593);
#1593=AXIS2_PLACEMENT_3D('',#1594,#1595,#1596);
#1594=CARTESIAN_POINT('',(1.549,-0.098,0.0));
#1595=DIRECTION('',(0.0,1.0,0.0));
#1596=DIRECTION('',(0.,0.,1.));
#1597=FACE_OUTER_BOUND('',#1598,.T.);
#1598=EDGE_LOOP('',(#1599,#1609,#1619,#1629,#1639,#1649));
#1602=CARTESIAN_POINT('',(1.041,-0.098,0.0));
#1601=VERTEX_POINT('',#1602);
#1604=CARTESIAN_POINT('',(1.549,-0.098,0.0));
#1603=VERTEX_POINT('',#1604);
#1600=EDGE_CURVE('',#1601,#1603,#1605,.T.);
#1605=LINE('',#1602,#1607);
#1607=VECTOR('',#1608,0.508);
#1608=DIRECTION('',(1.0,0.0,0.0));
#1599=ORIENTED_EDGE('',*,*,#1600,.F.);
#1612=CARTESIAN_POINT('',(1.041,-0.098,0.051));
#1611=VERTEX_POINT('',#1612);
#1610=EDGE_CURVE('',#1611,#1601,#1615,.T.);
#1615=LINE('',#1612,#1617);
#1617=VECTOR('',#1618,0.0508);
#1618=DIRECTION('',(0.0,0.0,-1.0));
#1609=ORIENTED_EDGE('',*,*,#1610,.F.);
#1622=CARTESIAN_POINT('',(1.499,-0.098,0.051));
#1621=VERTEX_POINT('',#1622);
#1620=EDGE_CURVE('',#1621,#1611,#1625,.T.);
#1625=LINE('',#1622,#1627);
#1627=VECTOR('',#1628,0.4572);
#1628=DIRECTION('',(-1.0,0.0,0.0));
#1619=ORIENTED_EDGE('',*,*,#1620,.F.);
#1632=CARTESIAN_POINT('',(1.499,-0.098,0.305));
#1631=VERTEX_POINT('',#1632);
#1630=EDGE_CURVE('',#1631,#1621,#1635,.T.);
#1635=LINE('',#1632,#1637);
#1637=VECTOR('',#1638,0.2539873);
#1638=DIRECTION('',(0.0,0.0,-1.0));
#1629=ORIENTED_EDGE('',*,*,#1630,.F.);
#1642=CARTESIAN_POINT('',(1.549,-0.098,0.305));
#1641=VERTEX_POINT('',#1642);
#1640=EDGE_CURVE('',#1641,#1631,#1645,.T.);
#1645=LINE('',#1642,#1647);
#1647=VECTOR('',#1648,0.0508);
#1648=DIRECTION('',(-1.0,0.0,0.0));
#1639=ORIENTED_EDGE('',*,*,#1640,.F.);
#1650=EDGE_CURVE('',#1603,#1641,#1655,.T.);
#1655=LINE('',#1604,#1657);
#1657=VECTOR('',#1658,0.3047873);
#1658=DIRECTION('',(0.0,0.0,1.0));
#1649=ORIENTED_EDGE('',*,*,#1650,.F.);
#1659=STYLED_ITEM('',(#34),#1660);
#1660=ADVANCED_FACE('',(#1666),#1661,.T.);
#1661=PLANE('',#1662);
#1662=AXIS2_PLACEMENT_3D('',#1663,#1664,#1665);
#1663=CARTESIAN_POINT('',(1.041,-0.402,0.0));
#1664=DIRECTION('',(0.0,-1.0,0.0));
#1665=DIRECTION('',(0.,0.,1.));
#1666=FACE_OUTER_BOUND('',#1667,.T.);
#1667=EDGE_LOOP('',(#1668,#1678,#1688,#1698,#1708,#1718));
#1671=CARTESIAN_POINT('',(1.549,-0.402,0.0));
#1670=VERTEX_POINT('',#1671);
#1673=CARTESIAN_POINT('',(1.041,-0.402,0.0));
#1672=VERTEX_POINT('',#1673);
#1669=EDGE_CURVE('',#1670,#1672,#1674,.T.);
#1674=LINE('',#1671,#1676);
#1676=VECTOR('',#1677,0.508);
#1677=DIRECTION('',(-1.0,0.0,0.0));
#1668=ORIENTED_EDGE('',*,*,#1669,.F.);
#1681=CARTESIAN_POINT('',(1.549,-0.402,0.305));
#1680=VERTEX_POINT('',#1681);
#1679=EDGE_CURVE('',#1680,#1670,#1684,.T.);
#1684=LINE('',#1681,#1686);
#1686=VECTOR('',#1687,0.3047873);
#1687=DIRECTION('',(0.0,0.0,-1.0));
#1678=ORIENTED_EDGE('',*,*,#1679,.F.);
#1691=CARTESIAN_POINT('',(1.499,-0.402,0.305));
#1690=VERTEX_POINT('',#1691);
#1689=EDGE_CURVE('',#1690,#1680,#1694,.T.);
#1694=LINE('',#1691,#1696);
#1696=VECTOR('',#1697,0.0508);
#1697=DIRECTION('',(1.0,0.0,0.0));
#1688=ORIENTED_EDGE('',*,*,#1689,.F.);
#1701=CARTESIAN_POINT('',(1.499,-0.402,0.051));
#1700=VERTEX_POINT('',#1701);
#1699=EDGE_CURVE('',#1700,#1690,#1704,.T.);
#1704=LINE('',#1701,#1706);
#1706=VECTOR('',#1707,0.2539873);
#1707=DIRECTION('',(0.0,0.0,1.0));
#1698=ORIENTED_EDGE('',*,*,#1699,.F.);
#1711=CARTESIAN_POINT('',(1.041,-0.402,0.051));
#1710=VERTEX_POINT('',#1711);
#1709=EDGE_CURVE('',#1710,#1700,#1714,.T.);
#1714=LINE('',#1711,#1716);
#1716=VECTOR('',#1717,0.4572);
#1717=DIRECTION('',(1.0,0.0,0.0));
#1708=ORIENTED_EDGE('',*,*,#1709,.F.);
#1719=EDGE_CURVE('',#1672,#1710,#1724,.T.);
#1724=LINE('',#1673,#1726);
#1726=VECTOR('',#1727,0.0508);
#1727=DIRECTION('',(0.0,0.0,1.0));
#1718=ORIENTED_EDGE('',*,*,#1719,.F.);
#1728=STYLED_ITEM('',(#34),#1729);
#1729=ADVANCED_FACE('',(#1735),#1730,.T.);
#1730=PLANE('',#1731);
#1731=AXIS2_PLACEMENT_3D('',#1732,#1733,#1734);
#1732=CARTESIAN_POINT('',(1.549,-0.098,0.305));
#1733=DIRECTION('',(0.0,0.0,1.0));
#1734=DIRECTION('',(0.,1.,0.));
#1735=FACE_OUTER_BOUND('',#1736,.T.);
#1736=EDGE_LOOP('',(#1737,#1747,#1757,#1767));
#1737=ORIENTED_EDGE('',*,*,#1640,.T.);
#1748=EDGE_CURVE('',#1690,#1631,#1753,.T.);
#1753=LINE('',#1691,#1755);
#1755=VECTOR('',#1756,0.3048);
#1756=DIRECTION('',(0.0,1.0,0.0));
#1747=ORIENTED_EDGE('',*,*,#1748,.F.);
#1757=ORIENTED_EDGE('',*,*,#1689,.T.);
#1768=EDGE_CURVE('',#1641,#1680,#1773,.T.);
#1773=LINE('',#1642,#1775);
#1775=VECTOR('',#1776,0.3048);
#1776=DIRECTION('',(0.0,-1.0,0.0));
#1767=ORIENTED_EDGE('',*,*,#1768,.F.);
#1777=STYLED_ITEM('',(#34),#1778);
#1778=ADVANCED_FACE('',(#1784),#1779,.T.);
#1779=PLANE('',#1780);
#1780=AXIS2_PLACEMENT_3D('',#1781,#1782,#1783);
#1781=CARTESIAN_POINT('',(1.499,-0.098,0.051));
#1782=DIRECTION('',(0.0,0.0,1.0));
#1783=DIRECTION('',(0.,1.,0.));
#1784=FACE_OUTER_BOUND('',#1785,.T.);
#1785=EDGE_LOOP('',(#1786,#1796,#1806,#1816));
#1786=ORIENTED_EDGE('',*,*,#1620,.T.);
#1797=EDGE_CURVE('',#1710,#1611,#1802,.T.);
#1802=LINE('',#1711,#1804);
#1804=VECTOR('',#1805,0.3048);
#1805=DIRECTION('',(0.0,1.0,0.0));
#1796=ORIENTED_EDGE('',*,*,#1797,.F.);
#1806=ORIENTED_EDGE('',*,*,#1709,.T.);
#1817=EDGE_CURVE('',#1621,#1700,#1822,.T.);
#1822=LINE('',#1622,#1824);
#1824=VECTOR('',#1825,0.3048);
#1825=DIRECTION('',(0.0,-1.0,0.0));
#1816=ORIENTED_EDGE('',*,*,#1817,.F.);
#1826=STYLED_ITEM('',(#34),#1827);
#1827=ADVANCED_FACE('',(#1833),#1828,.T.);
#1828=PLANE('',#1829);
#1829=AXIS2_PLACEMENT_3D('',#1830,#1831,#1832);
#1830=CARTESIAN_POINT('',(1.549,-0.402,0.0));
#1831=DIRECTION('',(1.0,0.0,0.0));
#1832=DIRECTION('',(0.,0.,1.));
#1833=FACE_OUTER_BOUND('',#1834,.T.);
#1834=EDGE_LOOP('',(#1835,#1845,#1855,#1865));
#1836=EDGE_CURVE('',#1603,#1670,#1841,.T.);
#1841=LINE('',#1604,#1843);
#1843=VECTOR('',#1844,0.3048);
#1844=DIRECTION('',(0.0,-1.0,0.0));
#1835=ORIENTED_EDGE('',*,*,#1836,.F.);
#1845=ORIENTED_EDGE('',*,*,#1650,.T.);
#1855=ORIENTED_EDGE('',*,*,#1768,.T.);
#1865=ORIENTED_EDGE('',*,*,#1679,.T.);
#1875=STYLED_ITEM('',(#34),#1876);
#1876=ADVANCED_FACE('',(#1882),#1877,.T.);
#1877=PLANE('',#1878);
#1878=AXIS2_PLACEMENT_3D('',#1879,#1880,#1881);
#1879=CARTESIAN_POINT('',(1.041,-0.098,0.0));
#1880=DIRECTION('',(-1.0,0.0,0.0));
#1881=DIRECTION('',(0.,0.,1.));
#1882=FACE_OUTER_BOUND('',#1883,.T.);
#1883=EDGE_LOOP('',(#1884,#1894,#1904,#1914));
#1885=EDGE_CURVE('',#1672,#1601,#1890,.T.);
#1890=LINE('',#1673,#1892);
#1892=VECTOR('',#1893,0.3048);
#1893=DIRECTION('',(0.0,1.0,0.0));
#1884=ORIENTED_EDGE('',*,*,#1885,.F.);
#1894=ORIENTED_EDGE('',*,*,#1719,.T.);
#1904=ORIENTED_EDGE('',*,*,#1797,.T.);
#1914=ORIENTED_EDGE('',*,*,#1610,.T.);
#1924=STYLED_ITEM('',(#34),#1925);
#1925=ADVANCED_FACE('',(#1931),#1926,.T.);
#1926=PLANE('',#1927);
#1927=AXIS2_PLACEMENT_3D('',#1928,#1929,#1930);
#1928=CARTESIAN_POINT('',(1.499,-0.098,0.051));
#1929=DIRECTION('',(-1.0,0.0,0.0));
#1930=DIRECTION('',(0.,0.,1.));
#1931=FACE_OUTER_BOUND('',#1932,.T.);
#1932=EDGE_LOOP('',(#1933,#1943,#1953,#1963));
#1933=ORIENTED_EDGE('',*,*,#1817,.T.);
#1943=ORIENTED_EDGE('',*,*,#1699,.T.);
#1953=ORIENTED_EDGE('',*,*,#1748,.T.);
#1963=ORIENTED_EDGE('',*,*,#1630,.T.);
#1973=STYLED_ITEM('',(#34),#1974);
#1974=ADVANCED_FACE('',(#1980),#1975,.T.);
#1975=PLANE('',#1976);
#1976=AXIS2_PLACEMENT_3D('',#1977,#1978,#1979);
#1977=CARTESIAN_POINT('',(1.549,-0.402,0.0));
#1978=DIRECTION('',(0.0,0.0,-1.0));
#1979=DIRECTION('',(0.,1.,0.));
#1980=FACE_OUTER_BOUND('',#1981,.T.);
#1981=EDGE_LOOP('',(#1982,#1992,#2002,#2012));
#1982=ORIENTED_EDGE('',*,*,#1669,.T.);
#1992=ORIENTED_EDGE('',*,*,#1885,.T.);
#2002=ORIENTED_EDGE('',*,*,#1600,.T.);
#2012=ORIENTED_EDGE('',*,*,#1836,.T.);
#2022=MANIFOLD_SOLID_BREP($,#2023);
#2023=CLOSED_SHELL('',(#2025,#2094,#2163,#2212,#2261,#2310,#2359,#2408));
#2024=STYLED_ITEM('',(#34),#2025);
#2025=ADVANCED_FACE('',(#2031),#2026,.T.);
#2026=PLANE('',#2027);
#2027=AXIS2_PLACEMENT_3D('',#2028,#2029,#2030);
#2028=CARTESIAN_POINT('',(1.549,-0.598,0.0));
#2029=DIRECTION('',(0.0,1.0,0.0));
#2030=DIRECTION('',(0.,0.,1.));
#2031=FACE_OUTER_BOUND('',#2032,.T.);
#2032=EDGE_LOOP('',(#2033,#2043,#2053,#2063,#2073,#2083));
#2036=CARTESIAN_POINT('',(1.041,-0.598,0.0));
#2035=VERTEX_POINT('',#2036);
#2038=CARTESIAN_POINT('',(1.549,-0.598,0.0));
#2037=VERTEX_POINT('',#2038);
#2034=EDGE_CURVE('',#2035,#2037,#2039,.T.);
#2039=LINE('',#2036,#2041);
#2041=VECTOR('',#2042,0.508);
#2042=DIRECTION('',(1.0,0.0,0.0));
#2033=ORIENTED_EDGE('',*,*,#2034,.F.);
#2046=CARTESIAN_POINT('',(1.041,-0.598,0.051));
#2045=VERTEX_POINT('',#2046);
#2044=EDGE_CURVE('',#2045,#2035,#2049,.T.);
#2049=LINE('',#2046,#2051);
#2051=VECTOR('',#2052,0.0508);
#2052=DIRECTION('',(0.0,0.0,-1.0));
#2043=ORIENTED_EDGE('',*,*,#2044,.F.);
#2056=CARTESIAN_POINT('',(1.499,-0.598,0.051));
#2055=VERTEX_POINT('',#2056);
#2054=EDGE_CURVE('',#2055,#2045,#2059,.T.);
#2059=LINE('',#2056,#2061);
#2061=VECTOR('',#2062,0.4572);
#2062=DIRECTION('',(-1.0,0.0,0.0));
#2053=ORIENTED_EDGE('',*,*,#2054,.F.);
#2066=CARTESIAN_POINT('',(1.499,-0.598,0.305));
#2065=VERTEX_POINT('',#2066);
#2064=EDGE_CURVE('',#2065,#2055,#2069,.T.);
#2069=LINE('',#2066,#2071);
#2071=VECTOR('',#2072,0.2539873);
#2072=DIRECTION('',(0.0,0.0,-1.0));
#2063=ORIENTED_EDGE('',*,*,#2064,.F.);
#2076=CARTESIAN_POINT('',(1.549,-0.598,0.305));
#2075=VERTEX_POINT('',#2076);
#2074=EDGE_CURVE('',#2075,#2065,#2079,.T.);
#2079=LINE('',#2076,#2081);
#2081=VECTOR('',#2082,0.0508);
#2082=DIRECTION('',(-1.0,0.0,0.0));
#2073=ORIENTED_EDGE('',*,*,#2074,.F.);
#2084=EDGE_CURVE('',#2037,#2075,#2089,.T.);
#2089=LINE('',#2038,#2091);
#2091=VECTOR('',#2092,0.3047873);
#2092=DIRECTION('',(0.0,0.0,1.0));
#2083=ORIENTED_EDGE('',*,*,#2084,.F.);
#2093=STYLED_ITEM('',(#34),#2094);
#2094=ADVANCED_FACE('',(#2100),#2095,.T.);
#2095=PLANE('',#2096);
#2096=AXIS2_PLACEMENT_3D('',#2097,#2098,#2099);
#2097=CARTESIAN_POINT('',(1.041,-0.903,0.0));
#2098=DIRECTION('',(0.0,-1.0,0.0));
#2099=DIRECTION('',(0.,0.,1.));
#2100=FACE_OUTER_BOUND('',#2101,.T.);
#2101=EDGE_LOOP('',(#2102,#2112,#2122,#2132,#2142,#2152));
#2105=CARTESIAN_POINT('',(1.549,-0.903,0.0));
#2104=VERTEX_POINT('',#2105);
#2107=CARTESIAN_POINT('',(1.041,-0.903,0.0));
#2106=VERTEX_POINT('',#2107);
#2103=EDGE_CURVE('',#2104,#2106,#2108,.T.);
#2108=LINE('',#2105,#2110);
#2110=VECTOR('',#2111,0.508);
#2111=DIRECTION('',(-1.0,0.0,0.0));
#2102=ORIENTED_EDGE('',*,*,#2103,.F.);
#2115=CARTESIAN_POINT('',(1.549,-0.903,0.305));
#2114=VERTEX_POINT('',#2115);
#2113=EDGE_CURVE('',#2114,#2104,#2118,.T.);
#2118=LINE('',#2115,#2120);
#2120=VECTOR('',#2121,0.3047873);
#2121=DIRECTION('',(0.0,0.0,-1.0));
#2112=ORIENTED_EDGE('',*,*,#2113,.F.);
#2125=CARTESIAN_POINT('',(1.499,-0.903,0.305));
#2124=VERTEX_POINT('',#2125);
#2123=EDGE_CURVE('',#2124,#2114,#2128,.T.);
#2128=LINE('',#2125,#2130);
#2130=VECTOR('',#2131,0.0508);
#2131=DIRECTION('',(1.0,0.0,0.0));
#2122=ORIENTED_EDGE('',*,*,#2123,.F.);
#2135=CARTESIAN_POINT('',(1.499,-0.903,0.051));
#2134=VERTEX_POINT('',#2135);
#2133=EDGE_CURVE('',#2134,#2124,#2138,.T.);
#2138=LINE('',#2135,#2140);
#2140=VECTOR('',#2141,0.2539873);
#2141=DIRECTION('',(0.0,0.0,1.0));
#2132=ORIENTED_EDGE('',*,*,#2133,.F.);
#2145=CARTESIAN_POINT('',(1.041,-0.903,0.051));
#2144=VERTEX_POINT('',#2145);
#2143=EDGE_CURVE('',#2144,#2134,#2148,.T.);
#2148=LINE('',#2145,#2150);
#2150=VECTOR('',#2151,0.4572);
#2151=DIRECTION('',(1.0,0.0,0.0));
#2142=ORIENTED_EDGE('',*,*,#2143,.F.);
#2153=EDGE_CURVE('',#2106,#2144,#2158,.T.);
#2158=LINE('',#2107,#2160);
#2160=VECTOR('',#2161,0.0508);
#2161=DIRECTION('',(0.0,0.0,1.0));
#2152=ORIENTED_EDGE('',*,*,#2153,.F.);
#2162=STYLED_ITEM('',(#34),#2163);
#2163=ADVANCED_FACE('',(#2169),#2164,.T.);
#2164=PLANE('',#2165);
#2165=AXIS2_PLACEMENT_3D('',#2166,#2167,#2168);
#2166=CARTESIAN_POINT('',(1.549,-0.598,0.305));
#2167=DIRECTION('',(0.0,0.0,1.0));
#2168=DIRECTION('',(0.,1.,0.));
#2169=FACE_OUTER_BOUND('',#2170,.T.);
#2170=EDGE_LOOP('',(#2171,#2181,#2191,#2201));
#2171=ORIENTED_EDGE('',*,*,#2074,.T.);
#2182=EDGE_CURVE('',#2124,#2065,#2187,.T.);
#2187=LINE('',#2125,#2189);
#2189=VECTOR('',#2190,0.3048);
#2190=DIRECTION('',(0.0,1.0,0.0));
#2181=ORIENTED_EDGE('',*,*,#2182,.F.);
#2191=ORIENTED_EDGE('',*,*,#2123,.T.);
#2202=EDGE_CURVE('',#2075,#2114,#2207,.T.);
#2207=LINE('',#2076,#2209);
#2209=VECTOR('',#2210,0.3048);
#2210=DIRECTION('',(0.0,-1.0,0.0));
#2201=ORIENTED_EDGE('',*,*,#2202,.F.);
#2211=STYLED_ITEM('',(#34),#2212);
#2212=ADVANCED_FACE('',(#2218),#2213,.T.);
#2213=PLANE('',#2214);
#2214=AXIS2_PLACEMENT_3D('',#2215,#2216,#2217);
#2215=CARTESIAN_POINT('',(1.499,-0.598,0.051));
#2216=DIRECTION('',(0.0,0.0,1.0));
#2217=DIRECTION('',(0.,1.,0.));
#2218=FACE_OUTER_BOUND('',#2219,.T.);
#2219=EDGE_LOOP('',(#2220,#2230,#2240,#2250));
#2220=ORIENTED_EDGE('',*,*,#2054,.T.);
#2231=EDGE_CURVE('',#2144,#2045,#2236,.T.);
#2236=LINE('',#2145,#2238);
#2238=VECTOR('',#2239,0.3048);
#2239=DIRECTION('',(0.0,1.0,0.0));
#2230=ORIENTED_EDGE('',*,*,#2231,.F.);
#2240=ORIENTED_EDGE('',*,*,#2143,.T.);
#2251=EDGE_CURVE('',#2055,#2134,#2256,.T.);
#2256=LINE('',#2056,#2258);
#2258=VECTOR('',#2259,0.3048);
#2259=DIRECTION('',(0.0,-1.0,0.0));
#2250=ORIENTED_EDGE('',*,*,#2251,.F.);
#2260=STYLED_ITEM('',(#34),#2261);
#2261=ADVANCED_FACE('',(#2267),#2262,.T.);
#2262=PLANE('',#2263);
#2263=AXIS2_PLACEMENT_3D('',#2264,#2265,#2266);
#2264=CARTESIAN_POINT('',(1.549,-0.903,0.0));
#2265=DIRECTION('',(1.0,0.0,0.0));
#2266=DIRECTION('',(0.,0.,1.));
#2267=FACE_OUTER_BOUND('',#2268,.T.);
#2268=EDGE_LOOP('',(#2269,#2279,#2289,#2299));
#2270=EDGE_CURVE('',#2037,#2104,#2275,.T.);
#2275=LINE('',#2038,#2277);
#2277=VECTOR('',#2278,0.3048);
#2278=DIRECTION('',(0.0,-1.0,0.0));
#2269=ORIENTED_EDGE('',*,*,#2270,.F.);
#2279=ORIENTED_EDGE('',*,*,#2084,.T.);
#2289=ORIENTED_EDGE('',*,*,#2202,.T.);
#2299=ORIENTED_EDGE('',*,*,#2113,.T.);
#2309=STYLED_ITEM('',(#34),#2310);
#2310=ADVANCED_FACE('',(#2316),#2311,.T.);
#2311=PLANE('',#2312);
#2312=AXIS2_PLACEMENT_3D('',#2313,#2314,#2315);
#2313=CARTESIAN_POINT('',(1.041,-0.598,0.0));
#2314=DIRECTION('',(-1.0,0.0,0.0));
#2315=DIRECTION('',(0.,0.,1.));
#2316=FACE_OUTER_BOUND('',#2317,.T.);
#2317=EDGE_LOOP('',(#2318,#2328,#2338,#2348));
#2319=EDGE_CURVE('',#2106,#2035,#2324,.T.);
#2324=LINE('',#2107,#2326);
#2326=VECTOR('',#2327,0.3048);
#2327=DIRECTION('',(0.0,1.0,0.0));
#2318=ORIENTED_EDGE('',*,*,#2319,.F.);
#2328=ORIENTED_EDGE('',*,*,#2153,.T.);
#2338=ORIENTED_EDGE('',*,*,#2231,.T.);
#2348=ORIENTED_EDGE('',*,*,#2044,.T.);
#2358=STYLED_ITEM('',(#34),#2359);
#2359=ADVANCED_FACE('',(#2365),#2360,.T.);
#2360=PLANE('',#2361);
#2361=AXIS2_PLACEMENT_3D('',#2362,#2363,#2364);
#2362=CARTESIAN_POINT('',(1.499,-0.598,0.051));
#2363=DIRECTION('',(-1.0,0.0,0.0));
#2364=DIRECTION('',(0.,0.,1.));
#2365=FACE_OUTER_BOUND('',#2366,.T.);
#2366=EDGE_LOOP('',(#2367,#2377,#2387,#2397));
#2367=ORIENTED_EDGE('',*,*,#2251,.T.);
#2377=ORIENTED_EDGE('',*,*,#2133,.T.);
#2387=ORIENTED_EDGE('',*,*,#2182,.T.);
#2397=ORIENTED_EDGE('',*,*,#2064,.T.);
#2407=STYLED_ITEM('',(#34),#2408);
#2408=ADVANCED_FACE('',(#2414),#2409,.T.);
#2409=PLANE('',#2410);
#2410=AXIS2_PLACEMENT_3D('',#2411,#2412,#2413);
#2411=CARTESIAN_POINT('',(1.549,-0.903,0.0));
#2412=DIRECTION('',(0.0,0.0,-1.0));
#2413=DIRECTION('',(0.,1.,0.));
#2414=FACE_OUTER_BOUND('',#2415,.T.);
#2415=EDGE_LOOP('',(#2416,#2426,#2436,#2446));
#2416=ORIENTED_EDGE('',*,*,#2103,.T.);
#2426=ORIENTED_EDGE('',*,*,#2319,.T.);
#2436=ORIENTED_EDGE('',*,*,#2034,.T.);
#2446=ORIENTED_EDGE('',*,*,#2270,.T.);
#2456=MANIFOLD_SOLID_BREP($,#2457);
#2457=CLOSED_SHELL('',(#2459,#2528,#2597,#2646,#2695,#2744,#2793,#2842));
#2458=STYLED_ITEM('',(#34),#2459);
#2459=ADVANCED_FACE('',(#2465),#2460,.T.);
#2460=PLANE('',#2461);
#2461=AXIS2_PLACEMENT_3D('',#2462,#2463,#2464);
#2462=CARTESIAN_POINT('',(-1.549,-0.903,0.0));
#2463=DIRECTION('',(0.0,-1.0,0.0));
#2464=DIRECTION('',(0.,0.,1.));
#2465=FACE_OUTER_BOUND('',#2466,.T.);
#2466=EDGE_LOOP('',(#2467,#2477,#2487,#2497,#2507,#2517));
#2470=CARTESIAN_POINT('',(-1.041,-0.903,0.0));
#2469=VERTEX_POINT('',#2470);
#2472=CARTESIAN_POINT('',(-1.549,-0.903,0.0));
#2471=VERTEX_POINT('',#2472);
#2468=EDGE_CURVE('',#2469,#2471,#2473,.T.);
#2473=LINE('',#2470,#2475);
#2475=VECTOR('',#2476,0.508);
#2476=DIRECTION('',(-1.0,0.0,0.0));
#2467=ORIENTED_EDGE('',*,*,#2468,.F.);
#2480=CARTESIAN_POINT('',(-1.041,-0.903,0.051));
#2479=VERTEX_POINT('',#2480);
#2478=EDGE_CURVE('',#2479,#2469,#2483,.T.);
#2483=LINE('',#2480,#2485);
#2485=VECTOR('',#2486,0.0508);
#2486=DIRECTION('',(0.0,0.0,-1.0));
#2477=ORIENTED_EDGE('',*,*,#2478,.F.);
#2490=CARTESIAN_POINT('',(-1.499,-0.903,0.051));
#2489=VERTEX_POINT('',#2490);
#2488=EDGE_CURVE('',#2489,#2479,#2493,.T.);
#2493=LINE('',#2490,#2495);
#2495=VECTOR('',#2496,0.4572);
#2496=DIRECTION('',(1.0,0.0,0.0));
#2487=ORIENTED_EDGE('',*,*,#2488,.F.);
#2500=CARTESIAN_POINT('',(-1.499,-0.903,0.305));
#2499=VERTEX_POINT('',#2500);
#2498=EDGE_CURVE('',#2499,#2489,#2503,.T.);
#2503=LINE('',#2500,#2505);
#2505=VECTOR('',#2506,0.2539873);
#2506=DIRECTION('',(0.0,0.0,-1.0));
#2497=ORIENTED_EDGE('',*,*,#2498,.F.);
#2510=CARTESIAN_POINT('',(-1.549,-0.903,0.305));
#2509=VERTEX_POINT('',#2510);
#2508=EDGE_CURVE('',#2509,#2499,#2513,.T.);
#2513=LINE('',#2510,#2515);
#2515=VECTOR('',#2516,0.0508);
#2516=DIRECTION('',(1.0,0.0,0.0));
#2507=ORIENTED_EDGE('',*,*,#2508,.F.);
#2518=EDGE_CURVE('',#2471,#2509,#2523,.T.);
#2523=LINE('',#2472,#2525);
#2525=VECTOR('',#2526,0.3047873);
#2526=DIRECTION('',(0.0,0.0,1.0));
#2517=ORIENTED_EDGE('',*,*,#2518,.F.);
#2527=STYLED_ITEM('',(#34),#2528);
#2528=ADVANCED_FACE('',(#2534),#2529,.T.);
#2529=PLANE('',#2530);
#2530=AXIS2_PLACEMENT_3D('',#2531,#2532,#2533);
#2531=CARTESIAN_POINT('',(-1.041,-0.598,0.0));
#2532=DIRECTION('',(0.0,1.0,0.0));
#2533=DIRECTION('',(0.,0.,1.));
#2534=FACE_OUTER_BOUND('',#2535,.T.);
#2535=EDGE_LOOP('',(#2536,#2546,#2556,#2566,#2576,#2586));
#2539=CARTESIAN_POINT('',(-1.549,-0.598,0.0));
#2538=VERTEX_POINT('',#2539);
#2541=CARTESIAN_POINT('',(-1.041,-0.598,0.0));
#2540=VERTEX_POINT('',#2541);
#2537=EDGE_CURVE('',#2538,#2540,#2542,.T.);
#2542=LINE('',#2539,#2544);
#2544=VECTOR('',#2545,0.508);
#2545=DIRECTION('',(1.0,0.0,0.0));
#2536=ORIENTED_EDGE('',*,*,#2537,.F.);
#2549=CARTESIAN_POINT('',(-1.549,-0.598,0.305));
#2548=VERTEX_POINT('',#2549);
#2547=EDGE_CURVE('',#2548,#2538,#2552,.T.);
#2552=LINE('',#2549,#2554);
#2554=VECTOR('',#2555,0.3047873);
#2555=DIRECTION('',(0.0,0.0,-1.0));
#2546=ORIENTED_EDGE('',*,*,#2547,.F.);
#2559=CARTESIAN_POINT('',(-1.499,-0.598,0.305));
#2558=VERTEX_POINT('',#2559);
#2557=EDGE_CURVE('',#2558,#2548,#2562,.T.);
#2562=LINE('',#2559,#2564);
#2564=VECTOR('',#2565,0.0508);
#2565=DIRECTION('',(-1.0,0.0,0.0));
#2556=ORIENTED_EDGE('',*,*,#2557,.F.);
#2569=CARTESIAN_POINT('',(-1.499,-0.598,0.051));
#2568=VERTEX_POINT('',#2569);
#2567=EDGE_CURVE('',#2568,#2558,#2572,.T.);
#2572=LINE('',#2569,#2574);
#2574=VECTOR('',#2575,0.2539873);
#2575=DIRECTION('',(0.0,0.0,1.0));
#2566=ORIENTED_EDGE('',*,*,#2567,.F.);
#2579=CARTESIAN_POINT('',(-1.041,-0.598,0.051));
#2578=VERTEX_POINT('',#2579);
#2577=EDGE_CURVE('',#2578,#2568,#2582,.T.);
#2582=LINE('',#2579,#2584);
#2584=VECTOR('',#2585,0.4572);
#2585=DIRECTION('',(-1.0,0.0,0.0));
#2576=ORIENTED_EDGE('',*,*,#2577,.F.);
#2587=EDGE_CURVE('',#2540,#2578,#2592,.T.);
#2592=LINE('',#2541,#2594);
#2594=VECTOR('',#2595,0.0508);
#2595=DIRECTION('',(0.0,0.0,1.0));
#2586=ORIENTED_EDGE('',*,*,#2587,.F.);
#2596=STYLED_ITEM('',(#34),#2597);
#2597=ADVANCED_FACE('',(#2603),#2598,.T.);
#2598=PLANE('',#2599);
#2599=AXIS2_PLACEMENT_3D('',#2600,#2601,#2602);
#2600=CARTESIAN_POINT('',(-1.549,-0.903,0.305));
#2601=DIRECTION('',(0.0,0.0,1.0));
#2602=DIRECTION('',(0.,1.,0.));
#2603=FACE_OUTER_BOUND('',#2604,.T.);
#2604=EDGE_LOOP('',(#2605,#2615,#2625,#2635));
#2605=ORIENTED_EDGE('',*,*,#2508,.T.);
#2616=EDGE_CURVE('',#2558,#2499,#2621,.T.);
#2621=LINE('',#2559,#2623);
#2623=VECTOR('',#2624,0.3048);
#2624=DIRECTION('',(0.0,-1.0,0.0));
#2615=ORIENTED_EDGE('',*,*,#2616,.F.);
#2625=ORIENTED_EDGE('',*,*,#2557,.T.);
#2636=EDGE_CURVE('',#2509,#2548,#2641,.T.);
#2641=LINE('',#2510,#2643);
#2643=VECTOR('',#2644,0.3048);
#2644=DIRECTION('',(0.0,1.0,0.0));
#2635=ORIENTED_EDGE('',*,*,#2636,.F.);
#2645=STYLED_ITEM('',(#34),#2646);
#2646=ADVANCED_FACE('',(#2652),#2647,.T.);
#2647=PLANE('',#2648);
#2648=AXIS2_PLACEMENT_3D('',#2649,#2650,#2651);
#2649=CARTESIAN_POINT('',(-1.499,-0.903,0.051));
#2650=DIRECTION('',(0.0,0.0,1.0));
#2651=DIRECTION('',(0.,1.,0.));
#2652=FACE_OUTER_BOUND('',#2653,.T.);
#2653=EDGE_LOOP('',(#2654,#2664,#2674,#2684));
#2654=ORIENTED_EDGE('',*,*,#2488,.T.);
#2665=EDGE_CURVE('',#2578,#2479,#2670,.T.);
#2670=LINE('',#2579,#2672);
#2672=VECTOR('',#2673,0.3048);
#2673=DIRECTION('',(0.0,-1.0,0.0));
#2664=ORIENTED_EDGE('',*,*,#2665,.F.);
#2674=ORIENTED_EDGE('',*,*,#2577,.T.);
#2685=EDGE_CURVE('',#2489,#2568,#2690,.T.);
#2690=LINE('',#2490,#2692);
#2692=VECTOR('',#2693,0.3048);
#2693=DIRECTION('',(0.0,1.0,0.0));
#2684=ORIENTED_EDGE('',*,*,#2685,.F.);
#2694=STYLED_ITEM('',(#34),#2695);
#2695=ADVANCED_FACE('',(#2701),#2696,.T.);
#2696=PLANE('',#2697);
#2697=AXIS2_PLACEMENT_3D('',#2698,#2699,#2700);
#2698=CARTESIAN_POINT('',(-1.549,-0.598,0.0));
#2699=DIRECTION('',(-1.0,0.0,0.0));
#2700=DIRECTION('',(0.,0.,1.));
#2701=FACE_OUTER_BOUND('',#2702,.T.);
#2702=EDGE_LOOP('',(#2703,#2713,#2723,#2733));
#2704=EDGE_CURVE('',#2471,#2538,#2709,.T.);
#2709=LINE('',#2472,#2711);
#2711=VECTOR('',#2712,0.3048);
#2712=DIRECTION('',(0.0,1.0,0.0));
#2703=ORIENTED_EDGE('',*,*,#2704,.F.);
#2713=ORIENTED_EDGE('',*,*,#2518,.T.);
#2723=ORIENTED_EDGE('',*,*,#2636,.T.);
#2733=ORIENTED_EDGE('',*,*,#2547,.T.);
#2743=STYLED_ITEM('',(#34),#2744);
#2744=ADVANCED_FACE('',(#2750),#2745,.T.);
#2745=PLANE('',#2746);
#2746=AXIS2_PLACEMENT_3D('',#2747,#2748,#2749);
#2747=CARTESIAN_POINT('',(-1.041,-0.903,0.0));
#2748=DIRECTION('',(1.0,0.0,0.0));
#2749=DIRECTION('',(0.,0.,1.));
#2750=FACE_OUTER_BOUND('',#2751,.T.);
#2751=EDGE_LOOP('',(#2752,#2762,#2772,#2782));
#2753=EDGE_CURVE('',#2540,#2469,#2758,.T.);
#2758=LINE('',#2541,#2760);
#2760=VECTOR('',#2761,0.3048);
#2761=DIRECTION('',(0.0,-1.0,0.0));
#2752=ORIENTED_EDGE('',*,*,#2753,.F.);
#2762=ORIENTED_EDGE('',*,*,#2587,.T.);
#2772=ORIENTED_EDGE('',*,*,#2665,.T.);
#2782=ORIENTED_EDGE('',*,*,#2478,.T.);
#2792=STYLED_ITEM('',(#34),#2793);
#2793=ADVANCED_FACE('',(#2799),#2794,.T.);
#2794=PLANE('',#2795);
#2795=AXIS2_PLACEMENT_3D('',#2796,#2797,#2798);
#2796=CARTESIAN_POINT('',(-1.499,-0.903,0.051));
#2797=DIRECTION('',(1.0,0.0,0.0));
#2798=DIRECTION('',(0.,0.,1.));
#2799=FACE_OUTER_BOUND('',#2800,.T.);
#2800=EDGE_LOOP('',(#2801,#2811,#2821,#2831));
#2801=ORIENTED_EDGE('',*,*,#2685,.T.);
#2811=ORIENTED_EDGE('',*,*,#2567,.T.);
#2821=ORIENTED_EDGE('',*,*,#2616,.T.);
#2831=ORIENTED_EDGE('',*,*,#2498,.T.);
#2841=STYLED_ITEM('',(#34),#2842);
#2842=ADVANCED_FACE('',(#2848),#2843,.T.);
#2843=PLANE('',#2844);
#2844=AXIS2_PLACEMENT_3D('',#2845,#2846,#2847);
#2845=CARTESIAN_POINT('',(-1.549,-0.598,0.0));
#2846=DIRECTION('',(0.0,0.0,-1.0));
#2847=DIRECTION('',(0.,1.,0.));
#2848=FACE_OUTER_BOUND('',#2849,.T.);
#2849=EDGE_LOOP('',(#2850,#2860,#2870,#2880));
#2850=ORIENTED_EDGE('',*,*,#2537,.T.);
#2860=ORIENTED_EDGE('',*,*,#2753,.T.);
#2870=ORIENTED_EDGE('',*,*,#2468,.T.);
#2880=ORIENTED_EDGE('',*,*,#2704,.T.);
#2890=MANIFOLD_SOLID_BREP($,#2891);
#2891=CLOSED_SHELL('',(#2893,#2962,#3031,#3080,#3129,#3178,#3227,#3276));
#2892=STYLED_ITEM('',(#34),#2893);
#2893=ADVANCED_FACE('',(#2899),#2894,.T.);
#2894=PLANE('',#2895);
#2895=AXIS2_PLACEMENT_3D('',#2896,#2897,#2898);
#2896=CARTESIAN_POINT('',(-1.549,-0.402,0.0));
#2897=DIRECTION('',(0.0,-1.0,0.0));
#2898=DIRECTION('',(0.,0.,1.));
#2899=FACE_OUTER_BOUND('',#2900,.T.);
#2900=EDGE_LOOP('',(#2901,#2911,#2921,#2931,#2941,#2951));
#2904=CARTESIAN_POINT('',(-1.041,-0.402,0.0));
#2903=VERTEX_POINT('',#2904);
#2906=CARTESIAN_POINT('',(-1.549,-0.402,0.0));
#2905=VERTEX_POINT('',#2906);
#2902=EDGE_CURVE('',#2903,#2905,#2907,.T.);
#2907=LINE('',#2904,#2909);
#2909=VECTOR('',#2910,0.508);
#2910=DIRECTION('',(-1.0,0.0,0.0));
#2901=ORIENTED_EDGE('',*,*,#2902,.F.);
#2914=CARTESIAN_POINT('',(-1.041,-0.402,0.051));
#2913=VERTEX_POINT('',#2914);
#2912=EDGE_CURVE('',#2913,#2903,#2917,.T.);
#2917=LINE('',#2914,#2919);
#2919=VECTOR('',#2920,0.0508);
#2920=DIRECTION('',(0.0,0.0,-1.0));
#2911=ORIENTED_EDGE('',*,*,#2912,.F.);
#2924=CARTESIAN_POINT('',(-1.499,-0.402,0.051));
#2923=VERTEX_POINT('',#2924);
#2922=EDGE_CURVE('',#2923,#2913,#2927,.T.);
#2927=LINE('',#2924,#2929);
#2929=VECTOR('',#2930,0.4572);
#2930=DIRECTION('',(1.0,0.0,0.0));
#2921=ORIENTED_EDGE('',*,*,#2922,.F.);
#2934=CARTESIAN_POINT('',(-1.499,-0.402,0.305));
#2933=VERTEX_POINT('',#2934);
#2932=EDGE_CURVE('',#2933,#2923,#2937,.T.);
#2937=LINE('',#2934,#2939);
#2939=VECTOR('',#2940,0.2539873);
#2940=DIRECTION('',(0.0,0.0,-1.0));
#2931=ORIENTED_EDGE('',*,*,#2932,.F.);
#2944=CARTESIAN_POINT('',(-1.549,-0.402,0.305));
#2943=VERTEX_POINT('',#2944);
#2942=EDGE_CURVE('',#2943,#2933,#2947,.T.);
#2947=LINE('',#2944,#2949);
#2949=VECTOR('',#2950,0.0508);
#2950=DIRECTION('',(1.0,0.0,0.0));
#2941=ORIENTED_EDGE('',*,*,#2942,.F.);
#2952=EDGE_CURVE('',#2905,#2943,#2957,.T.);
#2957=LINE('',#2906,#2959);
#2959=VECTOR('',#2960,0.3047873);
#2960=DIRECTION('',(0.0,0.0,1.0));
#2951=ORIENTED_EDGE('',*,*,#2952,.F.);
#2961=STYLED_ITEM('',(#34),#2962);
#2962=ADVANCED_FACE('',(#2968),#2963,.T.);
#2963=PLANE('',#2964);
#2964=AXIS2_PLACEMENT_3D('',#2965,#2966,#2967);
#2965=CARTESIAN_POINT('',(-1.041,-0.098,0.0));
#2966=DIRECTION('',(0.0,1.0,0.0));
#2967=DIRECTION('',(0.,0.,1.));
#2968=FACE_OUTER_BOUND('',#2969,.T.);
#2969=EDGE_LOOP('',(#2970,#2980,#2990,#3000,#3010,#3020));
#2973=CARTESIAN_POINT('',(-1.549,-0.098,0.0));
#2972=VERTEX_POINT('',#2973);
#2975=CARTESIAN_POINT('',(-1.041,-0.098,0.0));
#2974=VERTEX_POINT('',#2975);
#2971=EDGE_CURVE('',#2972,#2974,#2976,.T.);
#2976=LINE('',#2973,#2978);
#2978=VECTOR('',#2979,0.508);
#2979=DIRECTION('',(1.0,0.0,0.0));
#2970=ORIENTED_EDGE('',*,*,#2971,.F.);
#2983=CARTESIAN_POINT('',(-1.549,-0.098,0.305));
#2982=VERTEX_POINT('',#2983);
#2981=EDGE_CURVE('',#2982,#2972,#2986,.T.);
#2986=LINE('',#2983,#2988);
#2988=VECTOR('',#2989,0.3047873);
#2989=DIRECTION('',(0.0,0.0,-1.0));
#2980=ORIENTED_EDGE('',*,*,#2981,.F.);
#2993=CARTESIAN_POINT('',(-1.499,-0.098,0.305));
#2992=VERTEX_POINT('',#2993);
#2991=EDGE_CURVE('',#2992,#2982,#2996,.T.);
#2996=LINE('',#2993,#2998);
#2998=VECTOR('',#2999,0.0508);
#2999=DIRECTION('',(-1.0,0.0,0.0));
#2990=ORIENTED_EDGE('',*,*,#2991,.F.);
#3003=CARTESIAN_POINT('',(-1.499,-0.098,0.051));
#3002=VERTEX_POINT('',#3003);
#3001=EDGE_CURVE('',#3002,#2992,#3006,.T.);
#3006=LINE('',#3003,#3008);
#3008=VECTOR('',#3009,0.2539873);
#3009=DIRECTION('',(0.0,0.0,1.0));
#3000=ORIENTED_EDGE('',*,*,#3001,.F.);
#3013=CARTESIAN_POINT('',(-1.041,-0.098,0.051));
#3012=VERTEX_POINT('',#3013);
#3011=EDGE_CURVE('',#3012,#3002,#3016,.T.);
#3016=LINE('',#3013,#3018);
#3018=VECTOR('',#3019,0.4572);
#3019=DIRECTION('',(-1.0,0.0,0.0));
#3010=ORIENTED_EDGE('',*,*,#3011,.F.);
#3021=EDGE_CURVE('',#2974,#3012,#3026,.T.);
#3026=LINE('',#2975,#3028);
#3028=VECTOR('',#3029,0.0508);
#3029=DIRECTION('',(0.0,0.0,1.0));
#3020=ORIENTED_EDGE('',*,*,#3021,.F.);
#3030=STYLED_ITEM('',(#34),#3031);
#3031=ADVANCED_FACE('',(#3037),#3032,.T.);
#3032=PLANE('',#3033);
#3033=AXIS2_PLACEMENT_3D('',#3034,#3035,#3036);
#3034=CARTESIAN_POINT('',(-1.549,-0.402,0.305));
#3035=DIRECTION('',(0.0,0.0,1.0));
#3036=DIRECTION('',(0.,1.,0.));
#3037=FACE_OUTER_BOUND('',#3038,.T.);
#3038=EDGE_LOOP('',(#3039,#3049,#3059,#3069));
#3039=ORIENTED_EDGE('',*,*,#2942,.T.);
#3050=EDGE_CURVE('',#2992,#2933,#3055,.T.);
#3055=LINE('',#2993,#3057);
#3057=VECTOR('',#3058,0.3048);
#3058=DIRECTION('',(0.0,-1.0,0.0));
#3049=ORIENTED_EDGE('',*,*,#3050,.F.);
#3059=ORIENTED_EDGE('',*,*,#2991,.T.);
#3070=EDGE_CURVE('',#2943,#2982,#3075,.T.);
#3075=LINE('',#2944,#3077);
#3077=VECTOR('',#3078,0.3048);
#3078=DIRECTION('',(0.0,1.0,0.0));
#3069=ORIENTED_EDGE('',*,*,#3070,.F.);
#3079=STYLED_ITEM('',(#34),#3080);
#3080=ADVANCED_FACE('',(#3086),#3081,.T.);
#3081=PLANE('',#3082);
#3082=AXIS2_PLACEMENT_3D('',#3083,#3084,#3085);
#3083=CARTESIAN_POINT('',(-1.499,-0.402,0.051));
#3084=DIRECTION('',(0.0,0.0,1.0));
#3085=DIRECTION('',(0.,1.,0.));
#3086=FACE_OUTER_BOUND('',#3087,.T.);
#3087=EDGE_LOOP('',(#3088,#3098,#3108,#3118));
#3088=ORIENTED_EDGE('',*,*,#2922,.T.);
#3099=EDGE_CURVE('',#3012,#2913,#3104,.T.);
#3104=LINE('',#3013,#3106);
#3106=VECTOR('',#3107,0.3048);
#3107=DIRECTION('',(0.0,-1.0,0.0));
#3098=ORIENTED_EDGE('',*,*,#3099,.F.);
#3108=ORIENTED_EDGE('',*,*,#3011,.T.);
#3119=EDGE_CURVE('',#2923,#3002,#3124,.T.);
#3124=LINE('',#2924,#3126);
#3126=VECTOR('',#3127,0.3048);
#3127=DIRECTION('',(0.0,1.0,0.0));
#3118=ORIENTED_EDGE('',*,*,#3119,.F.);
#3128=STYLED_ITEM('',(#34),#3129);
#3129=ADVANCED_FACE('',(#3135),#3130,.T.);
#3130=PLANE('',#3131);
#3131=AXIS2_PLACEMENT_3D('',#3132,#3133,#3134);
#3132=CARTESIAN_POINT('',(-1.549,-0.098,0.0));
#3133=DIRECTION('',(-1.0,0.0,0.0));
#3134=DIRECTION('',(0.,0.,1.));
#3135=FACE_OUTER_BOUND('',#3136,.T.);
#3136=EDGE_LOOP('',(#3137,#3147,#3157,#3167));
#3138=EDGE_CURVE('',#2905,#2972,#3143,.T.);
#3143=LINE('',#2906,#3145);
#3145=VECTOR('',#3146,0.3048);
#3146=DIRECTION('',(0.0,1.0,0.0));
#3137=ORIENTED_EDGE('',*,*,#3138,.F.);
#3147=ORIENTED_EDGE('',*,*,#2952,.T.);
#3157=ORIENTED_EDGE('',*,*,#3070,.T.);
#3167=ORIENTED_EDGE('',*,*,#2981,.T.);
#3177=STYLED_ITEM('',(#34),#3178);
#3178=ADVANCED_FACE('',(#3184),#3179,.T.);
#3179=PLANE('',#3180);
#3180=AXIS2_PLACEMENT_3D('',#3181,#3182,#3183);
#3181=CARTESIAN_POINT('',(-1.041,-0.402,0.0));
#3182=DIRECTION('',(1.0,0.0,0.0));
#3183=DIRECTION('',(0.,0.,1.));
#3184=FACE_OUTER_BOUND('',#3185,.T.);
#3185=EDGE_LOOP('',(#3186,#3196,#3206,#3216));
#3187=EDGE_CURVE('',#2974,#2903,#3192,.T.);
#3192=LINE('',#2975,#3194);
#3194=VECTOR('',#3195,0.3048);
#3195=DIRECTION('',(0.0,-1.0,0.0));
#3186=ORIENTED_EDGE('',*,*,#3187,.F.);
#3196=ORIENTED_EDGE('',*,*,#3021,.T.);
#3206=ORIENTED_EDGE('',*,*,#3099,.T.);
#3216=ORIENTED_EDGE('',*,*,#2912,.T.);
#3226=STYLED_ITEM('',(#34),#3227);
#3227=ADVANCED_FACE('',(#3233),#3228,.T.);
#3228=PLANE('',#3229);
#3229=AXIS2_PLACEMENT_3D('',#3230,#3231,#3232);
#3230=CARTESIAN_POINT('',(-1.499,-0.402,0.051));
#3231=DIRECTION('',(1.0,0.0,0.0));
#3232=DIRECTION('',(0.,0.,1.));
#3233=FACE_OUTER_BOUND('',#3234,.T.);
#3234=EDGE_LOOP('',(#3235,#3245,#3255,#3265));
#3235=ORIENTED_EDGE('',*,*,#3119,.T.);
#3245=ORIENTED_EDGE('',*,*,#3001,.T.);
#3255=ORIENTED_EDGE('',*,*,#3050,.T.);
#3265=ORIENTED_EDGE('',*,*,#2932,.T.);
#3275=STYLED_ITEM('',(#34),#3276);
#3276=ADVANCED_FACE('',(#3282),#3277,.T.);
#3277=PLANE('',#3278);
#3278=AXIS2_PLACEMENT_3D('',#3279,#3280,#3281);
#3279=CARTESIAN_POINT('',(-1.549,-0.098,0.0));
#3280=DIRECTION('',(0.0,0.0,-1.0));
#3281=DIRECTION('',(0.,1.,0.));
#3282=FACE_OUTER_BOUND('',#3283,.T.);
#3283=EDGE_LOOP('',(#3284,#3294,#3304,#3314));
#3284=ORIENTED_EDGE('',*,*,#2971,.T.);
#3294=ORIENTED_EDGE('',*,*,#3187,.T.);
#3304=ORIENTED_EDGE('',*,*,#2902,.T.);
#3314=ORIENTED_EDGE('',*,*,#3138,.T.);
#3324=MANIFOLD_SOLID_BREP($,#3325);
#3325=CLOSED_SHELL('',(#3327,#3396,#3465,#3514,#3563,#3612,#3661,#3710));
#3326=STYLED_ITEM('',(#34),#3327);
#3327=ADVANCED_FACE('',(#3333),#3328,.T.);
#3328=PLANE('',#3329);
#3329=AXIS2_PLACEMENT_3D('',#3330,#3331,#3332);
#3330=CARTESIAN_POINT('',(-1.549,0.098,0.0));
#3331=DIRECTION('',(0.0,-1.0,0.0));
#3332=DIRECTION('',(0.,0.,1.));
#3333=FACE_OUTER_BOUND('',#3334,.T.);
#3334=EDGE_LOOP('',(#3335,#3345,#3355,#3365,#3375,#3385));
#3338=CARTESIAN_POINT('',(-1.041,0.098,0.0));
#3337=VERTEX_POINT('',#3338);
#3340=CARTESIAN_POINT('',(-1.549,0.098,0.0));
#3339=VERTEX_POINT('',#3340);
#3336=EDGE_CURVE('',#3337,#3339,#3341,.T.);
#3341=LINE('',#3338,#3343);
#3343=VECTOR('',#3344,0.508);
#3344=DIRECTION('',(-1.0,0.0,0.0));
#3335=ORIENTED_EDGE('',*,*,#3336,.F.);
#3348=CARTESIAN_POINT('',(-1.041,0.098,0.051));
#3347=VERTEX_POINT('',#3348);
#3346=EDGE_CURVE('',#3347,#3337,#3351,.T.);
#3351=LINE('',#3348,#3353);
#3353=VECTOR('',#3354,0.0508);
#3354=DIRECTION('',(0.0,0.0,-1.0));
#3345=ORIENTED_EDGE('',*,*,#3346,.F.);
#3358=CARTESIAN_POINT('',(-1.499,0.098,0.051));
#3357=VERTEX_POINT('',#3358);
#3356=EDGE_CURVE('',#3357,#3347,#3361,.T.);
#3361=LINE('',#3358,#3363);
#3363=VECTOR('',#3364,0.4572);
#3364=DIRECTION('',(1.0,0.0,0.0));
#3355=ORIENTED_EDGE('',*,*,#3356,.F.);
#3368=CARTESIAN_POINT('',(-1.499,0.098,0.305));
#3367=VERTEX_POINT('',#3368);
#3366=EDGE_CURVE('',#3367,#3357,#3371,.T.);
#3371=LINE('',#3368,#3373);
#3373=VECTOR('',#3374,0.2539873);
#3374=DIRECTION('',(0.0,0.0,-1.0));
#3365=ORIENTED_EDGE('',*,*,#3366,.F.);
#3378=CARTESIAN_POINT('',(-1.549,0.098,0.305));
#3377=VERTEX_POINT('',#3378);
#3376=EDGE_CURVE('',#3377,#3367,#3381,.T.);
#3381=LINE('',#3378,#3383);
#3383=VECTOR('',#3384,0.0508);
#3384=DIRECTION('',(1.0,0.0,0.0));
#3375=ORIENTED_EDGE('',*,*,#3376,.F.);
#3386=EDGE_CURVE('',#3339,#3377,#3391,.T.);
#3391=LINE('',#3340,#3393);
#3393=VECTOR('',#3394,0.3047873);
#3394=DIRECTION('',(0.0,0.0,1.0));
#3385=ORIENTED_EDGE('',*,*,#3386,.F.);
#3395=STYLED_ITEM('',(#34),#3396);
#3396=ADVANCED_FACE('',(#3402),#3397,.T.);
#3397=PLANE('',#3398);
#3398=AXIS2_PLACEMENT_3D('',#3399,#3400,#3401);
#3399=CARTESIAN_POINT('',(-1.041,0.402,0.0));
#3400=DIRECTION('',(0.0,1.0,0.0));
#3401=DIRECTION('',(0.,0.,1.));
#3402=FACE_OUTER_BOUND('',#3403,.T.);
#3403=EDGE_LOOP('',(#3404,#3414,#3424,#3434,#3444,#3454));
#3407=CARTESIAN_POINT('',(-1.549,0.402,0.0));
#3406=VERTEX_POINT('',#3407);
#3409=CARTESIAN_POINT('',(-1.041,0.402,0.0));
#3408=VERTEX_POINT('',#3409);
#3405=EDGE_CURVE('',#3406,#3408,#3410,.T.);
#3410=LINE('',#3407,#3412);
#3412=VECTOR('',#3413,0.508);
#3413=DIRECTION('',(1.0,0.0,0.0));
#3404=ORIENTED_EDGE('',*,*,#3405,.F.);
#3417=CARTESIAN_POINT('',(-1.549,0.402,0.305));
#3416=VERTEX_POINT('',#3417);
#3415=EDGE_CURVE('',#3416,#3406,#3420,.T.);
#3420=LINE('',#3417,#3422);
#3422=VECTOR('',#3423,0.3047873);
#3423=DIRECTION('',(0.0,0.0,-1.0));
#3414=ORIENTED_EDGE('',*,*,#3415,.F.);
#3427=CARTESIAN_POINT('',(-1.499,0.402,0.305));
#3426=VERTEX_POINT('',#3427);
#3425=EDGE_CURVE('',#3426,#3416,#3430,.T.);
#3430=LINE('',#3427,#3432);
#3432=VECTOR('',#3433,0.0508);
#3433=DIRECTION('',(-1.0,0.0,0.0));
#3424=ORIENTED_EDGE('',*,*,#3425,.F.);
#3437=CARTESIAN_POINT('',(-1.499,0.402,0.051));
#3436=VERTEX_POINT('',#3437);
#3435=EDGE_CURVE('',#3436,#3426,#3440,.T.);
#3440=LINE('',#3437,#3442);
#3442=VECTOR('',#3443,0.2539873);
#3443=DIRECTION('',(0.0,0.0,1.0));
#3434=ORIENTED_EDGE('',*,*,#3435,.F.);
#3447=CARTESIAN_POINT('',(-1.041,0.402,0.051));
#3446=VERTEX_POINT('',#3447);
#3445=EDGE_CURVE('',#3446,#3436,#3450,.T.);
#3450=LINE('',#3447,#3452);
#3452=VECTOR('',#3453,0.4572);
#3453=DIRECTION('',(-1.0,0.0,0.0));
#3444=ORIENTED_EDGE('',*,*,#3445,.F.);
#3455=EDGE_CURVE('',#3408,#3446,#3460,.T.);
#3460=LINE('',#3409,#3462);
#3462=VECTOR('',#3463,0.0508);
#3463=DIRECTION('',(0.0,0.0,1.0));
#3454=ORIENTED_EDGE('',*,*,#3455,.F.);
#3464=STYLED_ITEM('',(#34),#3465);
#3465=ADVANCED_FACE('',(#3471),#3466,.T.);
#3466=PLANE('',#3467);
#3467=AXIS2_PLACEMENT_3D('',#3468,#3469,#3470);
#3468=CARTESIAN_POINT('',(-1.549,0.098,0.305));
#3469=DIRECTION('',(0.0,0.0,1.0));
#3470=DIRECTION('',(0.,1.,0.));
#3471=FACE_OUTER_BOUND('',#3472,.T.);
#3472=EDGE_LOOP('',(#3473,#3483,#3493,#3503));
#3473=ORIENTED_EDGE('',*,*,#3376,.T.);
#3484=EDGE_CURVE('',#3426,#3367,#3489,.T.);
#3489=LINE('',#3427,#3491);
#3491=VECTOR('',#3492,0.3048);
#3492=DIRECTION('',(0.0,-1.0,0.0));
#3483=ORIENTED_EDGE('',*,*,#3484,.F.);
#3493=ORIENTED_EDGE('',*,*,#3425,.T.);
#3504=EDGE_CURVE('',#3377,#3416,#3509,.T.);
#3509=LINE('',#3378,#3511);
#3511=VECTOR('',#3512,0.3048);
#3512=DIRECTION('',(0.0,1.0,0.0));
#3503=ORIENTED_EDGE('',*,*,#3504,.F.);
#3513=STYLED_ITEM('',(#34),#3514);
#3514=ADVANCED_FACE('',(#3520),#3515,.T.);
#3515=PLANE('',#3516);
#3516=AXIS2_PLACEMENT_3D('',#3517,#3518,#3519);
#3517=CARTESIAN_POINT('',(-1.499,0.098,0.051));
#3518=DIRECTION('',(0.0,0.0,1.0));
#3519=DIRECTION('',(0.,1.,0.));
#3520=FACE_OUTER_BOUND('',#3521,.T.);
#3521=EDGE_LOOP('',(#3522,#3532,#3542,#3552));
#3522=ORIENTED_EDGE('',*,*,#3356,.T.);
#3533=EDGE_CURVE('',#3446,#3347,#3538,.T.);
#3538=LINE('',#3447,#3540);
#3540=VECTOR('',#3541,0.3048);
#3541=DIRECTION('',(0.0,-1.0,0.0));
#3532=ORIENTED_EDGE('',*,*,#3533,.F.);
#3542=ORIENTED_EDGE('',*,*,#3445,.T.);
#3553=EDGE_CURVE('',#3357,#3436,#3558,.T.);
#3558=LINE('',#3358,#3560);
#3560=VECTOR('',#3561,0.3048);
#3561=DIRECTION('',(0.0,1.0,0.0));
#3552=ORIENTED_EDGE('',*,*,#3553,.F.);
#3562=STYLED_ITEM('',(#34),#3563);
#3563=ADVANCED_FACE('',(#3569),#3564,.T.);
#3564=PLANE('',#3565);
#3565=AXIS2_PLACEMENT_3D('',#3566,#3567,#3568);
#3566=CARTESIAN_POINT('',(-1.549,0.402,0.0));
#3567=DIRECTION('',(-1.0,0.0,0.0));
#3568=DIRECTION('',(0.,0.,1.));
#3569=FACE_OUTER_BOUND('',#3570,.T.);
#3570=EDGE_LOOP('',(#3571,#3581,#3591,#3601));
#3572=EDGE_CURVE('',#3339,#3406,#3577,.T.);
#3577=LINE('',#3340,#3579);
#3579=VECTOR('',#3580,0.3048);
#3580=DIRECTION('',(0.0,1.0,0.0));
#3571=ORIENTED_EDGE('',*,*,#3572,.F.);
#3581=ORIENTED_EDGE('',*,*,#3386,.T.);
#3591=ORIENTED_EDGE('',*,*,#3504,.T.);
#3601=ORIENTED_EDGE('',*,*,#3415,.T.);
#3611=STYLED_ITEM('',(#34),#3612);
#3612=ADVANCED_FACE('',(#3618),#3613,.T.);
#3613=PLANE('',#3614);
#3614=AXIS2_PLACEMENT_3D('',#3615,#3616,#3617);
#3615=CARTESIAN_POINT('',(-1.041,0.098,0.0));
#3616=DIRECTION('',(1.0,0.0,0.0));
#3617=DIRECTION('',(0.,0.,1.));
#3618=FACE_OUTER_BOUND('',#3619,.T.);
#3619=EDGE_LOOP('',(#3620,#3630,#3640,#3650));
#3621=EDGE_CURVE('',#3408,#3337,#3626,.T.);
#3626=LINE('',#3409,#3628);
#3628=VECTOR('',#3629,0.3048);
#3629=DIRECTION('',(0.0,-1.0,0.0));
#3620=ORIENTED_EDGE('',*,*,#3621,.F.);
#3630=ORIENTED_EDGE('',*,*,#3455,.T.);
#3640=ORIENTED_EDGE('',*,*,#3533,.T.);
#3650=ORIENTED_EDGE('',*,*,#3346,.T.);
#3660=STYLED_ITEM('',(#34),#3661);
#3661=ADVANCED_FACE('',(#3667),#3662,.T.);
#3662=PLANE('',#3663);
#3663=AXIS2_PLACEMENT_3D('',#3664,#3665,#3666);
#3664=CARTESIAN_POINT('',(-1.499,0.098,0.051));
#3665=DIRECTION('',(1.0,0.0,0.0));
#3666=DIRECTION('',(0.,0.,1.));
#3667=FACE_OUTER_BOUND('',#3668,.T.);
#3668=EDGE_LOOP('',(#3669,#3679,#3689,#3699));
#3669=ORIENTED_EDGE('',*,*,#3553,.T.);
#3679=ORIENTED_EDGE('',*,*,#3435,.T.);
#3689=ORIENTED_EDGE('',*,*,#3484,.T.);
#3699=ORIENTED_EDGE('',*,*,#3366,.T.);
#3709=STYLED_ITEM('',(#34),#3710);
#3710=ADVANCED_FACE('',(#3716),#3711,.T.);
#3711=PLANE('',#3712);
#3712=AXIS2_PLACEMENT_3D('',#3713,#3714,#3715);
#3713=CARTESIAN_POINT('',(-1.549,0.402,0.0));
#3714=DIRECTION('',(0.0,0.0,-1.0));
#3715=DIRECTION('',(0.,1.,0.));
#3716=FACE_OUTER_BOUND('',#3717,.T.);
#3717=EDGE_LOOP('',(#3718,#3728,#3738,#3748));
#3718=ORIENTED_EDGE('',*,*,#3405,.T.);
#3728=ORIENTED_EDGE('',*,*,#3621,.T.);
#3738=ORIENTED_EDGE('',*,*,#3336,.T.);
#3748=ORIENTED_EDGE('',*,*,#3572,.T.);
#3758=MANIFOLD_SOLID_BREP($,#3759);
#3759=CLOSED_SHELL('',(#3761,#3830,#3899,#3948,#3997,#4046,#4095,#4144));
#3760=STYLED_ITEM('',(#34),#3761);
#3761=ADVANCED_FACE('',(#3767),#3762,.T.);
#3762=PLANE('',#3763);
#3763=AXIS2_PLACEMENT_3D('',#3764,#3765,#3766);
#3764=CARTESIAN_POINT('',(-1.549,0.598,0.0));
#3765=DIRECTION('',(0.0,-1.0,0.0));
#3766=DIRECTION('',(0.,0.,1.));
#3767=FACE_OUTER_BOUND('',#3768,.T.);
#3768=EDGE_LOOP('',(#3769,#3779,#3789,#3799,#3809,#3819));
#3772=CARTESIAN_POINT('',(-1.041,0.598,0.0));
#3771=VERTEX_POINT('',#3772);
#3774=CARTESIAN_POINT('',(-1.549,0.598,0.0));
#3773=VERTEX_POINT('',#3774);
#3770=EDGE_CURVE('',#3771,#3773,#3775,.T.);
#3775=LINE('',#3772,#3777);
#3777=VECTOR('',#3778,0.508);
#3778=DIRECTION('',(-1.0,0.0,0.0));
#3769=ORIENTED_EDGE('',*,*,#3770,.F.);
#3782=CARTESIAN_POINT('',(-1.041,0.598,0.051));
#3781=VERTEX_POINT('',#3782);
#3780=EDGE_CURVE('',#3781,#3771,#3785,.T.);
#3785=LINE('',#3782,#3787);
#3787=VECTOR('',#3788,0.0508);
#3788=DIRECTION('',(0.0,0.0,-1.0));
#3779=ORIENTED_EDGE('',*,*,#3780,.F.);
#3792=CARTESIAN_POINT('',(-1.499,0.598,0.051));
#3791=VERTEX_POINT('',#3792);
#3790=EDGE_CURVE('',#3791,#3781,#3795,.T.);
#3795=LINE('',#3792,#3797);
#3797=VECTOR('',#3798,0.4572);
#3798=DIRECTION('',(1.0,0.0,0.0));
#3789=ORIENTED_EDGE('',*,*,#3790,.F.);
#3802=CARTESIAN_POINT('',(-1.499,0.598,0.305));
#3801=VERTEX_POINT('',#3802);
#3800=EDGE_CURVE('',#3801,#3791,#3805,.T.);
#3805=LINE('',#3802,#3807);
#3807=VECTOR('',#3808,0.2539873);
#3808=DIRECTION('',(0.0,0.0,-1.0));
#3799=ORIENTED_EDGE('',*,*,#3800,.F.);
#3812=CARTESIAN_POINT('',(-1.549,0.598,0.305));
#3811=VERTEX_POINT('',#3812);
#3810=EDGE_CURVE('',#3811,#3801,#3815,.T.);
#3815=LINE('',#3812,#3817);
#3817=VECTOR('',#3818,0.0508);
#3818=DIRECTION('',(1.0,0.0,0.0));
#3809=ORIENTED_EDGE('',*,*,#3810,.F.);
#3820=EDGE_CURVE('',#3773,#3811,#3825,.T.);
#3825=LINE('',#3774,#3827);
#3827=VECTOR('',#3828,0.3047873);
#3828=DIRECTION('',(0.0,0.0,1.0));
#3819=ORIENTED_EDGE('',*,*,#3820,.F.);
#3829=STYLED_ITEM('',(#34),#3830);
#3830=ADVANCED_FACE('',(#3836),#3831,.T.);
#3831=PLANE('',#3832);
#3832=AXIS2_PLACEMENT_3D('',#3833,#3834,#3835);
#3833=CARTESIAN_POINT('',(-1.041,0.903,0.0));
#3834=DIRECTION('',(0.0,1.0,0.0));
#3835=DIRECTION('',(0.,0.,1.));
#3836=FACE_OUTER_BOUND('',#3837,.T.);
#3837=EDGE_LOOP('',(#3838,#3848,#3858,#3868,#3878,#3888));
#3841=CARTESIAN_POINT('',(-1.549,0.903,0.0));
#3840=VERTEX_POINT('',#3841);
#3843=CARTESIAN_POINT('',(-1.041,0.903,0.0));
#3842=VERTEX_POINT('',#3843);
#3839=EDGE_CURVE('',#3840,#3842,#3844,.T.);
#3844=LINE('',#3841,#3846);
#3846=VECTOR('',#3847,0.508);
#3847=DIRECTION('',(1.0,0.0,0.0));
#3838=ORIENTED_EDGE('',*,*,#3839,.F.);
#3851=CARTESIAN_POINT('',(-1.549,0.903,0.305));
#3850=VERTEX_POINT('',#3851);
#3849=EDGE_CURVE('',#3850,#3840,#3854,.T.);
#3854=LINE('',#3851,#3856);
#3856=VECTOR('',#3857,0.3047873);
#3857=DIRECTION('',(0.0,0.0,-1.0));
#3848=ORIENTED_EDGE('',*,*,#3849,.F.);
#3861=CARTESIAN_POINT('',(-1.499,0.903,0.305));
#3860=VERTEX_POINT('',#3861);
#3859=EDGE_CURVE('',#3860,#3850,#3864,.T.);
#3864=LINE('',#3861,#3866);
#3866=VECTOR('',#3867,0.0508);
#3867=DIRECTION('',(-1.0,0.0,0.0));
#3858=ORIENTED_EDGE('',*,*,#3859,.F.);
#3871=CARTESIAN_POINT('',(-1.499,0.903,0.051));
#3870=VERTEX_POINT('',#3871);
#3869=EDGE_CURVE('',#3870,#3860,#3874,.T.);
#3874=LINE('',#3871,#3876);
#3876=VECTOR('',#3877,0.2539873);
#3877=DIRECTION('',(0.0,0.0,1.0));
#3868=ORIENTED_EDGE('',*,*,#3869,.F.);
#3881=CARTESIAN_POINT('',(-1.041,0.903,0.051));
#3880=VERTEX_POINT('',#3881);
#3879=EDGE_CURVE('',#3880,#3870,#3884,.T.);
#3884=LINE('',#3881,#3886);
#3886=VECTOR('',#3887,0.4572);
#3887=DIRECTION('',(-1.0,0.0,0.0));
#3878=ORIENTED_EDGE('',*,*,#3879,.F.);
#3889=EDGE_CURVE('',#3842,#3880,#3894,.T.);
#3894=LINE('',#3843,#3896);
#3896=VECTOR('',#3897,0.0508);
#3897=DIRECTION('',(0.0,0.0,1.0));
#3888=ORIENTED_EDGE('',*,*,#3889,.F.);
#3898=STYLED_ITEM('',(#34),#3899);
#3899=ADVANCED_FACE('',(#3905),#3900,.T.);
#3900=PLANE('',#3901);
#3901=AXIS2_PLACEMENT_3D('',#3902,#3903,#3904);
#3902=CARTESIAN_POINT('',(-1.549,0.598,0.305));
#3903=DIRECTION('',(0.0,0.0,1.0));
#3904=DIRECTION('',(0.,1.,0.));
#3905=FACE_OUTER_BOUND('',#3906,.T.);
#3906=EDGE_LOOP('',(#3907,#3917,#3927,#3937));
#3907=ORIENTED_EDGE('',*,*,#3810,.T.);
#3918=EDGE_CURVE('',#3860,#3801,#3923,.T.);
#3923=LINE('',#3861,#3925);
#3925=VECTOR('',#3926,0.3048);
#3926=DIRECTION('',(0.0,-1.0,0.0));
#3917=ORIENTED_EDGE('',*,*,#3918,.F.);
#3927=ORIENTED_EDGE('',*,*,#3859,.T.);
#3938=EDGE_CURVE('',#3811,#3850,#3943,.T.);
#3943=LINE('',#3812,#3945);
#3945=VECTOR('',#3946,0.3048);
#3946=DIRECTION('',(0.0,1.0,0.0));
#3937=ORIENTED_EDGE('',*,*,#3938,.F.);
#3947=STYLED_ITEM('',(#34),#3948);
#3948=ADVANCED_FACE('',(#3954),#3949,.T.);
#3949=PLANE('',#3950);
#3950=AXIS2_PLACEMENT_3D('',#3951,#3952,#3953);
#3951=CARTESIAN_POINT('',(-1.499,0.598,0.051));
#3952=DIRECTION('',(0.0,0.0,1.0));
#3953=DIRECTION('',(0.,1.,0.));
#3954=FACE_OUTER_BOUND('',#3955,.T.);
#3955=EDGE_LOOP('',(#3956,#3966,#3976,#3986));
#3956=ORIENTED_EDGE('',*,*,#3790,.T.);
#3967=EDGE_CURVE('',#3880,#3781,#3972,.T.);
#3972=LINE('',#3881,#3974);
#3974=VECTOR('',#3975,0.3048);
#3975=DIRECTION('',(0.0,-1.0,0.0));
#3966=ORIENTED_EDGE('',*,*,#3967,.F.);
#3976=ORIENTED_EDGE('',*,*,#3879,.T.);
#3987=EDGE_CURVE('',#3791,#3870,#3992,.T.);
#3992=LINE('',#3792,#3994);
#3994=VECTOR('',#3995,0.3048);
#3995=DIRECTION('',(0.0,1.0,0.0));
#3986=ORIENTED_EDGE('',*,*,#3987,.F.);
#3996=STYLED_ITEM('',(#34),#3997);
#3997=ADVANCED_FACE('',(#4003),#3998,.T.);
#3998=PLANE('',#3999);
#3999=AXIS2_PLACEMENT_3D('',#4000,#4001,#4002);
#4000=CARTESIAN_POINT('',(-1.549,0.903,0.0));
#4001=DIRECTION('',(-1.0,0.0,0.0));
#4002=DIRECTION('',(0.,0.,1.));
#4003=FACE_OUTER_BOUND('',#4004,.T.);
#4004=EDGE_LOOP('',(#4005,#4015,#4025,#4035));
#4006=EDGE_CURVE('',#3773,#3840,#4011,.T.);
#4011=LINE('',#3774,#4013);
#4013=VECTOR('',#4014,0.3048);
#4014=DIRECTION('',(0.0,1.0,0.0));
#4005=ORIENTED_EDGE('',*,*,#4006,.F.);
#4015=ORIENTED_EDGE('',*,*,#3820,.T.);
#4025=ORIENTED_EDGE('',*,*,#3938,.T.);
#4035=ORIENTED_EDGE('',*,*,#3849,.T.);
#4045=STYLED_ITEM('',(#34),#4046);
#4046=ADVANCED_FACE('',(#4052),#4047,.T.);
#4047=PLANE('',#4048);
#4048=AXIS2_PLACEMENT_3D('',#4049,#4050,#4051);
#4049=CARTESIAN_POINT('',(-1.041,0.598,0.0));
#4050=DIRECTION('',(1.0,0.0,0.0));
#4051=DIRECTION('',(0.,0.,1.));
#4052=FACE_OUTER_BOUND('',#4053,.T.);
#4053=EDGE_LOOP('',(#4054,#4064,#4074,#4084));
#4055=EDGE_CURVE('',#3842,#3771,#4060,.T.);
#4060=LINE('',#3843,#4062);
#4062=VECTOR('',#4063,0.3048);
#4063=DIRECTION('',(0.0,-1.0,0.0));
#4054=ORIENTED_EDGE('',*,*,#4055,.F.);
#4064=ORIENTED_EDGE('',*,*,#3889,.T.);
#4074=ORIENTED_EDGE('',*,*,#3967,.T.);
#4084=ORIENTED_EDGE('',*,*,#3780,.T.);
#4094=STYLED_ITEM('',(#34),#4095);
#4095=ADVANCED_FACE('',(#4101),#4096,.T.);
#4096=PLANE('',#4097);
#4097=AXIS2_PLACEMENT_3D('',#4098,#4099,#4100);
#4098=CARTESIAN_POINT('',(-1.499,0.598,0.051));
#4099=DIRECTION('',(1.0,0.0,0.0));
#4100=DIRECTION('',(0.,0.,1.));
#4101=FACE_OUTER_BOUND('',#4102,.T.);
#4102=EDGE_LOOP('',(#4103,#4113,#4123,#4133));
#4103=ORIENTED_EDGE('',*,*,#3987,.T.);
#4113=ORIENTED_EDGE('',*,*,#3869,.T.);
#4123=ORIENTED_EDGE('',*,*,#3918,.T.);
#4133=ORIENTED_EDGE('',*,*,#3800,.T.);
#4143=STYLED_ITEM('',(#34),#4144);
#4144=ADVANCED_FACE('',(#4150),#4145,.T.);
#4145=PLANE('',#4146);
#4146=AXIS2_PLACEMENT_3D('',#4147,#4148,#4149);
#4147=CARTESIAN_POINT('',(-1.549,0.903,0.0));
#4148=DIRECTION('',(0.0,0.0,-1.0));
#4149=DIRECTION('',(0.,1.,0.));
#4150=FACE_OUTER_BOUND('',#4151,.T.);
#4151=EDGE_LOOP('',(#4152,#4162,#4172,#4182));
#4152=ORIENTED_EDGE('',*,*,#3839,.T.);
#4162=ORIENTED_EDGE('',*,*,#4055,.T.);
#4172=ORIENTED_EDGE('',*,*,#3770,.T.);
#4182=ORIENTED_EDGE('',*,*,#4006,.T.);
ENDSEC;
END-ISO-10303-21;
