(kicad_symbol_lib (version 20220914) (generator kicad_symbol_editor)
  (symbol "KSZ9896CTXC" (pin_names (offset 0.254)) (in_bom yes) (on_board yes)
    (property "Reference" "U" (at -5.08 -7.62 0)
      (effects (font (size 1.524 1.524)) (justify left))
    )
    (property "Value" "KSZ9896CTXC" (at -5.08 -10.16 0)
      (effects (font (size 1.524 1.524)) (justify left))
    )
    (property "Footprint" "Package_QFP:TQFP-128_14x14mm_P0.4mm" (at -5.08 -11.684 0)
      (effects (font (size 0.635 0.635)) (justify left))
    )
    (property "Datasheet" "" (at -38.1 38.1 0)
      (effects (font (size 1.524 1.524)))
    )
    (property "ki_locked" "" (at 0 0 0)
      (effects (font (size 1.27 1.27)))
    )
    (property "ki_fp_filters" "TQFP128_EP_TX_MCH TQFP128_EP_TX_MCH-M TQFP128_EP_TX_MCH-L" (at 0 0 0)
      (effects (font (size 1.27 1.27)) hide)
    )
    (symbol "KSZ9896CTXC_1_1"
      (rectangle (start -30.48 43.18) (end 30.48 -48.26)
        (stroke (width 0.0005) (type default))
        (fill (type background))
      )
      (pin bidirectional line (at -38.1 38.1 0) (length 7.62)
        (name "TXRX1P_A" (effects (font (size 1.4986 1.4986))))
        (number "1" (effects (font (size 1.4986 1.4986))))
      )
      (pin power_in line (at -38.1 15.24 0) (length 7.62)
        (name "AVDDH" (effects (font (size 1.4986 1.4986))))
        (number "10" (effects (font (size 1.4986 1.4986))))
      )
      (pin power_in line (at -38.1 12.7 0) (length 7.62)
        (name "DVDDL" (effects (font (size 1.4986 1.4986))))
        (number "11" (effects (font (size 1.4986 1.4986))))
      )
      (pin bidirectional line (at -38.1 10.16 0) (length 7.62)
        (name "TXRX2P_A" (effects (font (size 1.4986 1.4986))))
        (number "12" (effects (font (size 1.4986 1.4986))))
      )
      (pin bidirectional line (at -38.1 7.62 0) (length 7.62)
        (name "TXRX2M_A" (effects (font (size 1.4986 1.4986))))
        (number "13" (effects (font (size 1.4986 1.4986))))
      )
      (pin power_in line (at -38.1 5.08 0) (length 7.62)
        (name "AVDDL" (effects (font (size 1.4986 1.4986))))
        (number "14" (effects (font (size 1.4986 1.4986))))
      )
      (pin bidirectional line (at -38.1 2.54 0) (length 7.62)
        (name "TXRX2P_B" (effects (font (size 1.4986 1.4986))))
        (number "15" (effects (font (size 1.4986 1.4986))))
      )
      (pin bidirectional line (at -38.1 0 0) (length 7.62)
        (name "TXRX2M_B" (effects (font (size 1.4986 1.4986))))
        (number "16" (effects (font (size 1.4986 1.4986))))
      )
      (pin bidirectional line (at -38.1 -2.54 0) (length 7.62)
        (name "TXRX2P_C" (effects (font (size 1.4986 1.4986))))
        (number "17" (effects (font (size 1.4986 1.4986))))
      )
      (pin bidirectional line (at -38.1 -5.08 0) (length 7.62)
        (name "TXRX2M_C" (effects (font (size 1.4986 1.4986))))
        (number "18" (effects (font (size 1.4986 1.4986))))
      )
      (pin power_in line (at -38.1 -7.62 0) (length 7.62)
        (name "AVDDL" (effects (font (size 1.4986 1.4986))))
        (number "19" (effects (font (size 1.4986 1.4986))))
      )
      (pin bidirectional line (at -38.1 35.56 0) (length 7.62)
        (name "TXRX1M_A" (effects (font (size 1.4986 1.4986))))
        (number "2" (effects (font (size 1.4986 1.4986))))
      )
      (pin bidirectional line (at -38.1 -10.16 0) (length 7.62)
        (name "TXRX2P_D" (effects (font (size 1.4986 1.4986))))
        (number "20" (effects (font (size 1.4986 1.4986))))
      )
      (pin bidirectional line (at -38.1 -12.7 0) (length 7.62)
        (name "TXRX2M_D" (effects (font (size 1.4986 1.4986))))
        (number "21" (effects (font (size 1.4986 1.4986))))
      )
      (pin power_in line (at -38.1 -15.24 0) (length 7.62)
        (name "AVDDH" (effects (font (size 1.4986 1.4986))))
        (number "22" (effects (font (size 1.4986 1.4986))))
      )
      (pin power_in line (at -38.1 -17.78 0) (length 7.62)
        (name "DVDDL" (effects (font (size 1.4986 1.4986))))
        (number "23" (effects (font (size 1.4986 1.4986))))
      )
      (pin bidirectional line (at -38.1 -20.32 0) (length 7.62)
        (name "TXRX3P_A" (effects (font (size 1.4986 1.4986))))
        (number "24" (effects (font (size 1.4986 1.4986))))
      )
      (pin bidirectional line (at -38.1 -22.86 0) (length 7.62)
        (name "TXRX3M_A" (effects (font (size 1.4986 1.4986))))
        (number "25" (effects (font (size 1.4986 1.4986))))
      )
      (pin bidirectional line (at -38.1 -25.4 0) (length 7.62)
        (name "TXRX3P_B" (effects (font (size 1.4986 1.4986))))
        (number "26" (effects (font (size 1.4986 1.4986))))
      )
      (pin bidirectional line (at -38.1 -27.94 0) (length 7.62)
        (name "TXRX3M_B" (effects (font (size 1.4986 1.4986))))
        (number "27" (effects (font (size 1.4986 1.4986))))
      )
      (pin bidirectional line (at -38.1 -30.48 0) (length 7.62)
        (name "TXRX3P_C" (effects (font (size 1.4986 1.4986))))
        (number "28" (effects (font (size 1.4986 1.4986))))
      )
      (pin bidirectional line (at -38.1 -33.02 0) (length 7.62)
        (name "TXRX3M_C" (effects (font (size 1.4986 1.4986))))
        (number "29" (effects (font (size 1.4986 1.4986))))
      )
      (pin power_in line (at -38.1 33.02 0) (length 7.62)
        (name "AVDDL" (effects (font (size 1.4986 1.4986))))
        (number "3" (effects (font (size 1.4986 1.4986))))
      )
      (pin power_in line (at -38.1 -35.56 0) (length 7.62)
        (name "AVDDL" (effects (font (size 1.4986 1.4986))))
        (number "30" (effects (font (size 1.4986 1.4986))))
      )
      (pin bidirectional line (at -38.1 -38.1 0) (length 7.62)
        (name "TXRX3P_D" (effects (font (size 1.4986 1.4986))))
        (number "31" (effects (font (size 1.4986 1.4986))))
      )
      (pin bidirectional line (at -38.1 -40.64 0) (length 7.62)
        (name "TXRX3M_D" (effects (font (size 1.4986 1.4986))))
        (number "32" (effects (font (size 1.4986 1.4986))))
      )
      (pin power_in line (at 38.1 -43.18 180) (length 7.62)
        (name "AVDDH" (effects (font (size 1.4986 1.4986))))
        (number "33" (effects (font (size 1.4986 1.4986))))
      )
      (pin bidirectional line (at 38.1 -40.64 180) (length 7.62)
        (name "TXRX4P_A" (effects (font (size 1.4986 1.4986))))
        (number "34" (effects (font (size 1.4986 1.4986))))
      )
      (pin bidirectional line (at 38.1 -38.1 180) (length 7.62)
        (name "TXRX4M_A" (effects (font (size 1.4986 1.4986))))
        (number "35" (effects (font (size 1.4986 1.4986))))
      )
      (pin power_in line (at 38.1 -35.56 180) (length 7.62)
        (name "AVDDL" (effects (font (size 1.4986 1.4986))))
        (number "36" (effects (font (size 1.4986 1.4986))))
      )
      (pin bidirectional line (at 38.1 -33.02 180) (length 7.62)
        (name "TXRX4P_B" (effects (font (size 1.4986 1.4986))))
        (number "37" (effects (font (size 1.4986 1.4986))))
      )
      (pin bidirectional line (at 38.1 -30.48 180) (length 7.62)
        (name "TXRX4M_B" (effects (font (size 1.4986 1.4986))))
        (number "38" (effects (font (size 1.4986 1.4986))))
      )
      (pin bidirectional line (at 38.1 -27.94 180) (length 7.62)
        (name "TXRX4P_C" (effects (font (size 1.4986 1.4986))))
        (number "39" (effects (font (size 1.4986 1.4986))))
      )
      (pin bidirectional line (at -38.1 30.48 0) (length 7.62)
        (name "TXRX1P_B" (effects (font (size 1.4986 1.4986))))
        (number "4" (effects (font (size 1.4986 1.4986))))
      )
      (pin bidirectional line (at 38.1 -25.4 180) (length 7.62)
        (name "TXRX4M_C" (effects (font (size 1.4986 1.4986))))
        (number "40" (effects (font (size 1.4986 1.4986))))
      )
      (pin power_in line (at 38.1 -22.86 180) (length 7.62)
        (name "AVDDL" (effects (font (size 1.4986 1.4986))))
        (number "41" (effects (font (size 1.4986 1.4986))))
      )
      (pin bidirectional line (at 38.1 -20.32 180) (length 7.62)
        (name "TXRX4P_D" (effects (font (size 1.4986 1.4986))))
        (number "42" (effects (font (size 1.4986 1.4986))))
      )
      (pin bidirectional line (at 38.1 -17.78 180) (length 7.62)
        (name "TXRX4M_D" (effects (font (size 1.4986 1.4986))))
        (number "43" (effects (font (size 1.4986 1.4986))))
      )
      (pin power_in line (at 38.1 -15.24 180) (length 7.62)
        (name "AVDDH" (effects (font (size 1.4986 1.4986))))
        (number "44" (effects (font (size 1.4986 1.4986))))
      )
      (pin power_in line (at 38.1 -12.7 180) (length 7.62)
        (name "DVDDL" (effects (font (size 1.4986 1.4986))))
        (number "45" (effects (font (size 1.4986 1.4986))))
      )
      (pin no_connect line (at 38.1 -10.16 180) (length 7.62)
        (name "NC" (effects (font (size 1.4986 1.4986))))
        (number "46" (effects (font (size 1.4986 1.4986))))
      )
      (pin power_in line (at 38.1 -7.62 180) (length 7.62)
        (name "GND" (effects (font (size 1.4986 1.4986))))
        (number "47" (effects (font (size 1.4986 1.4986))))
      )
      (pin power_in line (at 38.1 -5.08 180) (length 7.62)
        (name "DVDDL" (effects (font (size 1.4986 1.4986))))
        (number "48" (effects (font (size 1.4986 1.4986))))
      )
      (pin power_in line (at 38.1 -2.54 180) (length 7.62)
        (name "VDDIO" (effects (font (size 1.4986 1.4986))))
        (number "49" (effects (font (size 1.4986 1.4986))))
      )
      (pin bidirectional line (at -38.1 27.94 0) (length 7.62)
        (name "TXRX1M_B" (effects (font (size 1.4986 1.4986))))
        (number "5" (effects (font (size 1.4986 1.4986))))
      )
      (pin power_in line (at 38.1 0 180) (length 7.62)
        (name "GND" (effects (font (size 1.4986 1.4986))))
        (number "50" (effects (font (size 1.4986 1.4986))))
      )
      (pin power_in line (at 38.1 2.54 180) (length 7.62)
        (name "GND" (effects (font (size 1.4986 1.4986))))
        (number "51" (effects (font (size 1.4986 1.4986))))
      )
      (pin input line (at 38.1 5.08 180) (length 7.62)
        (name "TXD6_7" (effects (font (size 1.4986 1.4986))))
        (number "52" (effects (font (size 1.4986 1.4986))))
      )
      (pin input line (at 38.1 7.62 180) (length 7.62)
        (name "TXD6_6" (effects (font (size 1.4986 1.4986))))
        (number "53" (effects (font (size 1.4986 1.4986))))
      )
      (pin input line (at 38.1 10.16 180) (length 7.62)
        (name "TXD6_5" (effects (font (size 1.4986 1.4986))))
        (number "54" (effects (font (size 1.4986 1.4986))))
      )
      (pin input line (at 38.1 12.7 180) (length 7.62)
        (name "TXD6_4" (effects (font (size 1.4986 1.4986))))
        (number "55" (effects (font (size 1.4986 1.4986))))
      )
      (pin power_in line (at 38.1 15.24 180) (length 7.62)
        (name "DVDDL" (effects (font (size 1.4986 1.4986))))
        (number "56" (effects (font (size 1.4986 1.4986))))
      )
      (pin power_in line (at 38.1 17.78 180) (length 7.62)
        (name "VDDIO" (effects (font (size 1.4986 1.4986))))
        (number "57" (effects (font (size 1.4986 1.4986))))
      )
      (pin bidirectional line (at 38.1 20.32 180) (length 7.62)
        (name "RXD6_7" (effects (font (size 1.4986 1.4986))))
        (number "58" (effects (font (size 1.4986 1.4986))))
      )
      (pin bidirectional line (at 38.1 22.86 180) (length 7.62)
        (name "RXD6_6" (effects (font (size 1.4986 1.4986))))
        (number "59" (effects (font (size 1.4986 1.4986))))
      )
      (pin bidirectional line (at -38.1 25.4 0) (length 7.62)
        (name "TXRX1P_C" (effects (font (size 1.4986 1.4986))))
        (number "6" (effects (font (size 1.4986 1.4986))))
      )
      (pin bidirectional line (at 38.1 25.4 180) (length 7.62)
        (name "RXD6_5" (effects (font (size 1.4986 1.4986))))
        (number "60" (effects (font (size 1.4986 1.4986))))
      )
      (pin no_connect line (at 38.1 27.94 180) (length 7.62)
        (name "NC" (effects (font (size 1.4986 1.4986))))
        (number "61" (effects (font (size 1.4986 1.4986))))
      )
      (pin bidirectional line (at 38.1 30.48 180) (length 7.62)
        (name "RXD6_4" (effects (font (size 1.4986 1.4986))))
        (number "62" (effects (font (size 1.4986 1.4986))))
      )
      (pin bidirectional line (at 38.1 33.02 180) (length 7.62)
        (name "TX_CLK6/REFCLKI6" (effects (font (size 1.4986 1.4986))))
        (number "63" (effects (font (size 1.4986 1.4986))))
      )
      (pin input line (at 38.1 35.56 180) (length 7.62)
        (name "TX_EN6/TX_CTL6" (effects (font (size 1.4986 1.4986))))
        (number "64" (effects (font (size 1.4986 1.4986))))
      )
      (pin input line (at 38.1 38.1 180) (length 7.62)
        (name "TX_ER6" (effects (font (size 1.4986 1.4986))))
        (number "65" (effects (font (size 1.4986 1.4986))))
      )
      (pin bidirectional line (at -38.1 22.86 0) (length 7.62)
        (name "TXRX1M_C" (effects (font (size 1.4986 1.4986))))
        (number "7" (effects (font (size 1.4986 1.4986))))
      )
      (pin bidirectional line (at -38.1 20.32 0) (length 7.62)
        (name "TXRX1P_D" (effects (font (size 1.4986 1.4986))))
        (number "8" (effects (font (size 1.4986 1.4986))))
      )
      (pin bidirectional line (at -38.1 17.78 0) (length 7.62)
        (name "TXRX1M_D" (effects (font (size 1.4986 1.4986))))
        (number "9" (effects (font (size 1.4986 1.4986))))
      )
    )
    (symbol "KSZ9896CTXC_2_1"
      (rectangle (start -36.83 40.64) (end 39.37 -48.26)
        (stroke (width 0.001) (type default))
        (fill (type background))
      )
      (pin input line (at 46.99 -38.1 180) (length 7.62)
        (name "SCL/MDC" (effects (font (size 1.4986 1.4986))))
        (number "100" (effects (font (size 1.4986 1.4986))))
      )
      (pin power_in line (at 46.99 -35.56 180) (length 7.62)
        (name "GND" (effects (font (size 1.4986 1.4986))))
        (number "101" (effects (font (size 1.4986 1.4986))))
      )
      (pin bidirectional line (at 46.99 -33.02 180) (length 7.62)
        (name "LED5_0" (effects (font (size 1.4986 1.4986))))
        (number "102" (effects (font (size 1.4986 1.4986))))
      )
      (pin bidirectional line (at 46.99 -30.48 180) (length 7.62)
        (name "LED5_1" (effects (font (size 1.4986 1.4986))))
        (number "103" (effects (font (size 1.4986 1.4986))))
      )
      (pin power_in line (at 46.99 -27.94 180) (length 7.62)
        (name "DVDDL" (effects (font (size 1.4986 1.4986))))
        (number "104" (effects (font (size 1.4986 1.4986))))
      )
      (pin bidirectional line (at 46.99 -25.4 180) (length 7.62)
        (name "LED1_0" (effects (font (size 1.4986 1.4986))))
        (number "105" (effects (font (size 1.4986 1.4986))))
      )
      (pin bidirectional line (at 46.99 -22.86 180) (length 7.62)
        (name "LED1_1" (effects (font (size 1.4986 1.4986))))
        (number "106" (effects (font (size 1.4986 1.4986))))
      )
      (pin power_in line (at 46.99 -20.32 180) (length 7.62)
        (name "GND" (effects (font (size 1.4986 1.4986))))
        (number "107" (effects (font (size 1.4986 1.4986))))
      )
      (pin no_connect line (at 46.99 -17.78 180) (length 7.62)
        (name "NC" (effects (font (size 1.4986 1.4986))))
        (number "108" (effects (font (size 1.4986 1.4986))))
      )
      (pin power_in line (at 46.99 -15.24 180) (length 7.62)
        (name "GND" (effects (font (size 1.4986 1.4986))))
        (number "109" (effects (font (size 1.4986 1.4986))))
      )
      (pin power_in line (at 46.99 -12.7 180) (length 7.62)
        (name "DVDDL" (effects (font (size 1.4986 1.4986))))
        (number "110" (effects (font (size 1.4986 1.4986))))
      )
      (pin power_in line (at 46.99 -10.16 180) (length 7.62)
        (name "AVDDH" (effects (font (size 1.4986 1.4986))))
        (number "111" (effects (font (size 1.4986 1.4986))))
      )
      (pin bidirectional line (at 46.99 -7.62 180) (length 7.62)
        (name "TXRX5P_A" (effects (font (size 1.4986 1.4986))))
        (number "112" (effects (font (size 1.4986 1.4986))))
      )
      (pin bidirectional line (at 46.99 -5.08 180) (length 7.62)
        (name "TXRX5M_A" (effects (font (size 1.4986 1.4986))))
        (number "113" (effects (font (size 1.4986 1.4986))))
      )
      (pin power_in line (at 46.99 -2.54 180) (length 7.62)
        (name "AVDDL" (effects (font (size 1.4986 1.4986))))
        (number "114" (effects (font (size 1.4986 1.4986))))
      )
      (pin bidirectional line (at 46.99 0 180) (length 7.62)
        (name "TXRX5P_B" (effects (font (size 1.4986 1.4986))))
        (number "115" (effects (font (size 1.4986 1.4986))))
      )
      (pin bidirectional line (at 46.99 2.54 180) (length 7.62)
        (name "TXRX5M_B" (effects (font (size 1.4986 1.4986))))
        (number "116" (effects (font (size 1.4986 1.4986))))
      )
      (pin bidirectional line (at 46.99 5.08 180) (length 7.62)
        (name "TXRX5P_C" (effects (font (size 1.4986 1.4986))))
        (number "117" (effects (font (size 1.4986 1.4986))))
      )
      (pin bidirectional line (at 46.99 7.62 180) (length 7.62)
        (name "TXRX5M_C" (effects (font (size 1.4986 1.4986))))
        (number "118" (effects (font (size 1.4986 1.4986))))
      )
      (pin power_in line (at 46.99 10.16 180) (length 7.62)
        (name "AVDDL" (effects (font (size 1.4986 1.4986))))
        (number "119" (effects (font (size 1.4986 1.4986))))
      )
      (pin bidirectional line (at 46.99 12.7 180) (length 7.62)
        (name "TXRX5P_D" (effects (font (size 1.4986 1.4986))))
        (number "120" (effects (font (size 1.4986 1.4986))))
      )
      (pin bidirectional line (at 46.99 15.24 180) (length 7.62)
        (name "TXRX5M_D" (effects (font (size 1.4986 1.4986))))
        (number "121" (effects (font (size 1.4986 1.4986))))
      )
      (pin power_in line (at 46.99 17.78 180) (length 7.62)
        (name "AVDDH" (effects (font (size 1.4986 1.4986))))
        (number "122" (effects (font (size 1.4986 1.4986))))
      )
      (pin power_in line (at 46.99 20.32 180) (length 7.62)
        (name "GND" (effects (font (size 1.4986 1.4986))))
        (number "123" (effects (font (size 1.4986 1.4986))))
      )
      (pin power_in line (at 46.99 22.86 180) (length 7.62)
        (name "AVDDL" (effects (font (size 1.4986 1.4986))))
        (number "124" (effects (font (size 1.4986 1.4986))))
      )
      (pin output line (at 46.99 25.4 180) (length 7.62)
        (name "XO" (effects (font (size 1.4986 1.4986))))
        (number "125" (effects (font (size 1.4986 1.4986))))
      )
      (pin input line (at 46.99 27.94 180) (length 7.62)
        (name "XI" (effects (font (size 1.4986 1.4986))))
        (number "126" (effects (font (size 1.4986 1.4986))))
      )
      (pin unspecified line (at 46.99 30.48 180) (length 7.62)
        (name "ISET" (effects (font (size 1.4986 1.4986))))
        (number "127" (effects (font (size 1.4986 1.4986))))
      )
      (pin power_in line (at 46.99 33.02 180) (length 7.62)
        (name "AVDDH" (effects (font (size 1.4986 1.4986))))
        (number "128" (effects (font (size 1.4986 1.4986))))
      )
      (pin bidirectional line (at -44.45 35.56 0) (length 7.62)
        (name "COL6" (effects (font (size 1.4986 1.4986))))
        (number "66" (effects (font (size 1.4986 1.4986))))
      )
      (pin input line (at -44.45 33.02 0) (length 7.62)
        (name "TXD6_3" (effects (font (size 1.4986 1.4986))))
        (number "67" (effects (font (size 1.4986 1.4986))))
      )
      (pin input line (at -44.45 30.48 0) (length 7.62)
        (name "TXD6_2" (effects (font (size 1.4986 1.4986))))
        (number "68" (effects (font (size 1.4986 1.4986))))
      )
      (pin input line (at -44.45 27.94 0) (length 7.62)
        (name "TXD6_1" (effects (font (size 1.4986 1.4986))))
        (number "69" (effects (font (size 1.4986 1.4986))))
      )
      (pin input line (at -44.45 25.4 0) (length 7.62)
        (name "TXD6_0" (effects (font (size 1.4986 1.4986))))
        (number "70" (effects (font (size 1.4986 1.4986))))
      )
      (pin power_in line (at -44.45 22.86 0) (length 7.62)
        (name "DVDDL" (effects (font (size 1.4986 1.4986))))
        (number "71" (effects (font (size 1.4986 1.4986))))
      )
      (pin bidirectional line (at -44.45 20.32 0) (length 7.62)
        (name "RX_CLK6/REFCLKO6" (effects (font (size 1.4986 1.4986))))
        (number "72" (effects (font (size 1.4986 1.4986))))
      )
      (pin bidirectional line (at -44.45 17.78 0) (length 7.62)
        (name "RX_DV6/CRS_DV6/_RX_CTL6" (effects (font (size 1.4986 1.4986))))
        (number "73" (effects (font (size 1.4986 1.4986))))
      )
      (pin power_in line (at -44.45 15.24 0) (length 7.62)
        (name "VDDIO" (effects (font (size 1.4986 1.4986))))
        (number "74" (effects (font (size 1.4986 1.4986))))
      )
      (pin bidirectional line (at -44.45 12.7 0) (length 7.62)
        (name "RX_ER6/RX_CLK6" (effects (font (size 1.4986 1.4986))))
        (number "75" (effects (font (size 1.4986 1.4986))))
      )
      (pin bidirectional line (at -44.45 10.16 0) (length 7.62)
        (name "CRS6" (effects (font (size 1.4986 1.4986))))
        (number "76" (effects (font (size 1.4986 1.4986))))
      )
      (pin bidirectional line (at -44.45 7.62 0) (length 7.62)
        (name "RXD6_3" (effects (font (size 1.4986 1.4986))))
        (number "77" (effects (font (size 1.4986 1.4986))))
      )
      (pin bidirectional line (at -44.45 5.08 0) (length 7.62)
        (name "RXD6_2" (effects (font (size 1.4986 1.4986))))
        (number "78" (effects (font (size 1.4986 1.4986))))
      )
      (pin bidirectional line (at -44.45 2.54 0) (length 7.62)
        (name "RXD6_1" (effects (font (size 1.4986 1.4986))))
        (number "79" (effects (font (size 1.4986 1.4986))))
      )
      (pin bidirectional line (at -44.45 0 0) (length 7.62)
        (name "RXD6_0" (effects (font (size 1.4986 1.4986))))
        (number "80" (effects (font (size 1.4986 1.4986))))
      )
      (pin power_in line (at -44.45 -2.54 0) (length 7.62)
        (name "GND" (effects (font (size 1.4986 1.4986))))
        (number "81" (effects (font (size 1.4986 1.4986))))
      )
      (pin bidirectional line (at -44.45 -5.08 0) (length 7.62)
        (name "LED4_0" (effects (font (size 1.4986 1.4986))))
        (number "82" (effects (font (size 1.4986 1.4986))))
      )
      (pin bidirectional line (at -44.45 -7.62 0) (length 7.62)
        (name "LED4_1" (effects (font (size 1.4986 1.4986))))
        (number "83" (effects (font (size 1.4986 1.4986))))
      )
      (pin power_in line (at -44.45 -10.16 0) (length 7.62)
        (name "DVDDL" (effects (font (size 1.4986 1.4986))))
        (number "84" (effects (font (size 1.4986 1.4986))))
      )
      (pin bidirectional line (at -44.45 -12.7 0) (length 7.62)
        (name "LED3_0" (effects (font (size 1.4986 1.4986))))
        (number "85" (effects (font (size 1.4986 1.4986))))
      )
      (pin bidirectional line (at -44.45 -15.24 0) (length 7.62)
        (name "LED3_1" (effects (font (size 1.4986 1.4986))))
        (number "86" (effects (font (size 1.4986 1.4986))))
      )
      (pin no_connect line (at -44.45 -17.78 0) (length 7.62)
        (name "NC" (effects (font (size 1.4986 1.4986))))
        (number "87" (effects (font (size 1.4986 1.4986))))
      )
      (pin no_connect line (at -44.45 -20.32 0) (length 7.62)
        (name "NC" (effects (font (size 1.4986 1.4986))))
        (number "88" (effects (font (size 1.4986 1.4986))))
      )
      (pin bidirectional line (at -44.45 -22.86 0) (length 7.62)
        (name "LED2_0" (effects (font (size 1.4986 1.4986))))
        (number "89" (effects (font (size 1.4986 1.4986))))
      )
      (pin bidirectional line (at -44.45 -25.4 0) (length 7.62)
        (name "LED2_1" (effects (font (size 1.4986 1.4986))))
        (number "90" (effects (font (size 1.4986 1.4986))))
      )
      (pin output line (at -44.45 -27.94 0) (length 7.62)
        (name "PME_N" (effects (font (size 1.4986 1.4986))))
        (number "91" (effects (font (size 1.4986 1.4986))))
      )
      (pin output line (at -44.45 -30.48 0) (length 7.62)
        (name "INTRP_N" (effects (font (size 1.4986 1.4986))))
        (number "92" (effects (font (size 1.4986 1.4986))))
      )
      (pin no_connect line (at -44.45 -33.02 0) (length 7.62)
        (name "NC" (effects (font (size 1.4986 1.4986))))
        (number "93" (effects (font (size 1.4986 1.4986))))
      )
      (pin bidirectional line (at -44.45 -35.56 0) (length 7.62)
        (name "CLKO_25_125" (effects (font (size 1.4986 1.4986))))
        (number "94" (effects (font (size 1.4986 1.4986))))
      )
      (pin input line (at -44.45 -38.1 0) (length 7.62)
        (name "RESET_N" (effects (font (size 1.4986 1.4986))))
        (number "95" (effects (font (size 1.4986 1.4986))))
      )
      (pin output line (at -44.45 -40.64 0) (length 7.62)
        (name "SDO" (effects (font (size 1.4986 1.4986))))
        (number "96" (effects (font (size 1.4986 1.4986))))
      )
      (pin bidirectional line (at -44.45 -43.18 0) (length 7.62)
        (name "SDI/SDA/MDIO" (effects (font (size 1.4986 1.4986))))
        (number "97" (effects (font (size 1.4986 1.4986))))
      )
      (pin power_in line (at 46.99 -43.18 180) (length 7.62)
        (name "VDDIO" (effects (font (size 1.4986 1.4986))))
        (number "98" (effects (font (size 1.4986 1.4986))))
      )
      (pin input line (at 46.99 -40.64 180) (length 7.62)
        (name "SCS_N" (effects (font (size 1.4986 1.4986))))
        (number "99" (effects (font (size 1.4986 1.4986))))
      )
      (pin power_in line (at 46.99 35.56 180) (length 7.62)
        (name "GND" (effects (font (size 1.4986 1.4986))))
        (number "EPAD" (effects (font (size 1.4986 1.4986))))
      )
    )
  )
  (symbol "USB2517" (in_bom yes) (on_board yes)
    (property "Reference" "U" (at -24.13 34.29 0)
      (effects (font (size 1.27 1.27)))
    )
    (property "Value" "USB2517" (at -21.59 -67.31 0)
      (effects (font (size 1.27 1.27)))
    )
    (property "Footprint" "Package_DFN_QFN:QFN-64-1EP_9x9mm_P0.5mm_EP4.7x4.7mm_ThermalVias" (at 21.59 -67.31 0)
      (effects (font (size 0.635 0.635)))
    )
    (property "Datasheet" "" (at 1.27 0 0)
      (effects (font (size 1.27 1.27)) hide)
    )
    (symbol "USB2517_0_1"
      (rectangle (start -25.4 33.02) (end 27.94 -66.04)
        (stroke (width 0.254) (type default))
        (fill (type background))
      )
    )
    (symbol "USB2517_1_1"
      (pin bidirectional line (at 30.48 24.13 180) (length 2.54)
        (name "USBDM_DN1/PRT_DIS_M1" (effects (font (size 1.27 1.27))))
        (number "1" (effects (font (size 1.27 1.27))))
      )
      (pin power_in line (at -5.08 35.56 270) (length 2.54)
        (name "VDDA33" (effects (font (size 1.27 1.27))))
        (number "10" (effects (font (size 1.27 1.27))))
      )
      (pin bidirectional line (at 30.48 -26.67 180) (length 2.54)
        (name "USBDM_DN5/PRT_DIS_M5" (effects (font (size 1.27 1.27))))
        (number "11" (effects (font (size 1.27 1.27))))
      )
      (pin bidirectional line (at 30.48 -29.21 180) (length 2.54)
        (name "USBDP_DN5/PRT_DIS_P5" (effects (font (size 1.27 1.27))))
        (number "12" (effects (font (size 1.27 1.27))))
      )
      (pin passive line (at -27.94 -63.5 0) (length 2.54)
        (name "CFG_SEL2" (effects (font (size 1.27 1.27))))
        (number "13" (effects (font (size 1.27 1.27))))
      )
      (pin passive line (at -27.94 -45.72 0) (length 2.54)
        (name "LEDB7_N" (effects (font (size 1.27 1.27))))
        (number "14" (effects (font (size 1.27 1.27))))
      )
      (pin passive line (at -27.94 -26.67 0) (length 2.54)
        (name "LED_A7_N/PRT_SWP7" (effects (font (size 1.27 1.27))))
        (number "15" (effects (font (size 1.27 1.27))))
      )
      (pin passive line (at -27.94 -48.26 0) (length 2.54)
        (name "LEDB6_N" (effects (font (size 1.27 1.27))))
        (number "16" (effects (font (size 1.27 1.27))))
      )
      (pin passive line (at -27.94 -29.21 0) (length 2.54)
        (name "LED_A6_N/PRT_SWP6" (effects (font (size 1.27 1.27))))
        (number "17" (effects (font (size 1.27 1.27))))
      )
      (pin passive line (at -27.94 -50.8 0) (length 2.54)
        (name "LEDB5_N" (effects (font (size 1.27 1.27))))
        (number "18" (effects (font (size 1.27 1.27))))
      )
      (pin input line (at -27.94 5.08 0) (length 2.54)
        (name "TEST" (effects (font (size 1.27 1.27))))
        (number "19" (effects (font (size 1.27 1.27))))
      )
      (pin bidirectional line (at 30.48 21.59 180) (length 2.54)
        (name "USBDP_DN1/PRT_DIS_P1" (effects (font (size 1.27 1.27))))
        (number "2" (effects (font (size 1.27 1.27))))
      )
      (pin bidirectional line (at 30.48 -19.05 180) (length 2.54)
        (name "PRTPWR4/BC_EN4" (effects (font (size 1.27 1.27))))
        (number "20" (effects (font (size 1.27 1.27))))
      )
      (pin input line (at 30.48 -21.59 180) (length 2.54)
        (name "OCS_N4" (effects (font (size 1.27 1.27))))
        (number "21" (effects (font (size 1.27 1.27))))
      )
      (pin input line (at 30.48 -8.89 180) (length 2.54)
        (name "OCS_N3" (effects (font (size 1.27 1.27))))
        (number "22" (effects (font (size 1.27 1.27))))
      )
      (pin bidirectional line (at 30.48 -6.35 180) (length 2.54)
        (name "PRTPWR3/BC_EN3" (effects (font (size 1.27 1.27))))
        (number "23" (effects (font (size 1.27 1.27))))
      )
      (pin power_in line (at 5.08 35.56 270) (length 2.54)
        (name "VDD33CR" (effects (font (size 1.27 1.27))))
        (number "24" (effects (font (size 1.27 1.27))))
      )
      (pin power_out line (at -17.78 35.56 270) (length 2.54)
        (name "VDD18" (effects (font (size 1.27 1.27))))
        (number "25" (effects (font (size 1.27 1.27))))
      )
      (pin bidirectional line (at 30.48 6.35 180) (length 2.54)
        (name "PRTPWR2/BC_EN2" (effects (font (size 1.27 1.27))))
        (number "26" (effects (font (size 1.27 1.27))))
      )
      (pin input line (at 30.48 3.81 180) (length 2.54)
        (name "OCS_N2" (effects (font (size 1.27 1.27))))
        (number "27" (effects (font (size 1.27 1.27))))
      )
      (pin input line (at 30.48 16.51 180) (length 2.54)
        (name "OCS_N1" (effects (font (size 1.27 1.27))))
        (number "28" (effects (font (size 1.27 1.27))))
      )
      (pin bidirectional line (at 30.48 19.05 180) (length 2.54)
        (name "PRTPWR1/BC_EN1" (effects (font (size 1.27 1.27))))
        (number "29" (effects (font (size 1.27 1.27))))
      )
      (pin bidirectional line (at 30.48 11.43 180) (length 2.54)
        (name "USBDM_DN2/PRT_DIS_M2" (effects (font (size 1.27 1.27))))
        (number "3" (effects (font (size 1.27 1.27))))
      )
      (pin bidirectional line (at 30.48 -31.75 180) (length 2.54)
        (name "PRTPWR5/BC_EN5" (effects (font (size 1.27 1.27))))
        (number "30" (effects (font (size 1.27 1.27))))
      )
      (pin passive line (at -27.94 -31.75 0) (length 2.54)
        (name "LED_A5_N/PRT_SWP5" (effects (font (size 1.27 1.27))))
        (number "31" (effects (font (size 1.27 1.27))))
      )
      (pin passive line (at -27.94 -53.34 0) (length 2.54)
        (name "LEDB4_N" (effects (font (size 1.27 1.27))))
        (number "32" (effects (font (size 1.27 1.27))))
      )
      (pin passive line (at -27.94 -34.29 0) (length 2.54)
        (name "LED_A4_N/PRT_SWP4" (effects (font (size 1.27 1.27))))
        (number "33" (effects (font (size 1.27 1.27))))
      )
      (pin passive line (at -27.94 -55.88 0) (length 2.54)
        (name "LEDB3_N" (effects (font (size 1.27 1.27))))
        (number "34" (effects (font (size 1.27 1.27))))
      )
      (pin input line (at 30.48 -34.29 180) (length 2.54)
        (name "OCS_N5" (effects (font (size 1.27 1.27))))
        (number "35" (effects (font (size 1.27 1.27))))
      )
      (pin bidirectional line (at 30.48 -57.15 180) (length 2.54)
        (name "PRTPWR7/BC_EN7" (effects (font (size 1.27 1.27))))
        (number "36" (effects (font (size 1.27 1.27))))
      )
      (pin input line (at 30.48 -59.69 180) (length 2.54)
        (name "OCS_N7" (effects (font (size 1.27 1.27))))
        (number "37" (effects (font (size 1.27 1.27))))
      )
      (pin power_in line (at 0 -68.58 90) (length 2.54)
        (name "VSS" (effects (font (size 1.27 1.27))))
        (number "37" (effects (font (size 1.27 1.27))))
      )
      (pin input line (at 30.48 -46.99 180) (length 2.54)
        (name "OCS_N6" (effects (font (size 1.27 1.27))))
        (number "38" (effects (font (size 1.27 1.27))))
      )
      (pin bidirectional line (at 30.48 -44.45 180) (length 2.54)
        (name "PRTPWR6/BC_EN6" (effects (font (size 1.27 1.27))))
        (number "39" (effects (font (size 1.27 1.27))))
      )
      (pin bidirectional line (at 30.48 8.89 180) (length 2.54)
        (name "USBDP_DN2/PRT_DIS_P2" (effects (font (size 1.27 1.27))))
        (number "4" (effects (font (size 1.27 1.27))))
      )
      (pin bidirectional line (at -27.94 -16.51 0) (length 2.54)
        (name "SDA/SMBDATA/NON_REM1" (effects (font (size 1.27 1.27))))
        (number "40" (effects (font (size 1.27 1.27))))
      )
      (pin bidirectional line (at -27.94 -13.97 0) (length 2.54)
        (name "SCL/SMBCLK/CFG_SEL0" (effects (font (size 1.27 1.27))))
        (number "41" (effects (font (size 1.27 1.27))))
      )
      (pin bidirectional line (at -27.94 -21.59 0) (length 2.54)
        (name "HS_IND/CFG_SEL1" (effects (font (size 1.27 1.27))))
        (number "42" (effects (font (size 1.27 1.27))))
      )
      (pin input line (at -27.94 7.62 0) (length 2.54)
        (name "RESET_N" (effects (font (size 1.27 1.27))))
        (number "43" (effects (font (size 1.27 1.27))))
      )
      (pin input line (at -27.94 20.32 0) (length 2.54)
        (name "VBUS_DET" (effects (font (size 1.27 1.27))))
        (number "44" (effects (font (size 1.27 1.27))))
      )
      (pin bidirectional line (at -27.94 -19.05 0) (length 2.54)
        (name "SUSP_IND/LOCAL_PWR/NON_REM0" (effects (font (size 1.27 1.27))))
        (number "45" (effects (font (size 1.27 1.27))))
      )
      (pin power_in line (at 7.62 35.56 270) (length 2.54)
        (name "VDD33" (effects (font (size 1.27 1.27))))
        (number "46" (effects (font (size 1.27 1.27))))
      )
      (pin passive line (at -27.94 -36.83 0) (length 2.54)
        (name "LED_A3_N/PRT_SWP3" (effects (font (size 1.27 1.27))))
        (number "47" (effects (font (size 1.27 1.27))))
      )
      (pin passive line (at -27.94 -58.42 0) (length 2.54)
        (name "LEDB2_N/BOOST1" (effects (font (size 1.27 1.27))))
        (number "48" (effects (font (size 1.27 1.27))))
      )
      (pin passive line (at -27.94 -39.37 0) (length 2.54)
        (name "LED_A2_N/PRT_SWP2" (effects (font (size 1.27 1.27))))
        (number "49" (effects (font (size 1.27 1.27))))
      )
      (pin power_in line (at -7.62 35.56 270) (length 2.54)
        (name "VDDA33" (effects (font (size 1.27 1.27))))
        (number "5" (effects (font (size 1.27 1.27))))
      )
      (pin passive line (at -27.94 -60.96 0) (length 2.54)
        (name "LEDB1_N/BOOST0" (effects (font (size 1.27 1.27))))
        (number "50" (effects (font (size 1.27 1.27))))
      )
      (pin passive line (at -27.94 -41.91 0) (length 2.54)
        (name "LED_A1_N/PRT_SWP1" (effects (font (size 1.27 1.27))))
        (number "51" (effects (font (size 1.27 1.27))))
      )
      (pin power_in line (at -2.54 35.56 270) (length 2.54)
        (name "VDDA33" (effects (font (size 1.27 1.27))))
        (number "52" (effects (font (size 1.27 1.27))))
      )
      (pin bidirectional line (at 30.48 -39.37 180) (length 2.54)
        (name "USBDM_DN6/PRT_DIS_M6" (effects (font (size 1.27 1.27))))
        (number "53" (effects (font (size 1.27 1.27))))
      )
      (pin bidirectional line (at 30.48 -41.91 180) (length 2.54)
        (name "USBDP_DN6/PRT_DIS_P6" (effects (font (size 1.27 1.27))))
        (number "54" (effects (font (size 1.27 1.27))))
      )
      (pin bidirectional line (at 30.48 -52.07 180) (length 2.54)
        (name "USBDM_DN7/PRT_DIS_M7" (effects (font (size 1.27 1.27))))
        (number "55" (effects (font (size 1.27 1.27))))
      )
      (pin bidirectional line (at 30.48 -54.61 180) (length 2.54)
        (name "USBDP_DN7/PRT_DIS_P7" (effects (font (size 1.27 1.27))))
        (number "56" (effects (font (size 1.27 1.27))))
      )
      (pin power_in line (at 0 35.56 270) (length 2.54)
        (name "VDDA33" (effects (font (size 1.27 1.27))))
        (number "57" (effects (font (size 1.27 1.27))))
      )
      (pin bidirectional line (at -27.94 15.24 0) (length 2.54)
        (name "USBDM_UP" (effects (font (size 1.27 1.27))))
        (number "58" (effects (font (size 1.27 1.27))))
      )
      (pin bidirectional line (at -27.94 12.7 0) (length 2.54)
        (name "USBDP_UP" (effects (font (size 1.27 1.27))))
        (number "59" (effects (font (size 1.27 1.27))))
      )
      (pin bidirectional line (at 30.48 -1.27 180) (length 2.54)
        (name "USBDM_DN3/PRT_DIS_M3" (effects (font (size 1.27 1.27))))
        (number "6" (effects (font (size 1.27 1.27))))
      )
      (pin output line (at -27.94 -7.62 0) (length 2.54)
        (name "XTAL2/OUT" (effects (font (size 1.27 1.27))))
        (number "60" (effects (font (size 1.27 1.27))))
      )
      (pin input clock (at -27.94 -5.08 0) (length 2.54)
        (name "XTAL1/CLKIN" (effects (font (size 1.27 1.27))))
        (number "61" (effects (font (size 1.27 1.27))))
      )
      (pin power_out line (at -15.24 35.56 270) (length 2.54)
        (name "VDD18PLL" (effects (font (size 1.27 1.27))))
        (number "62" (effects (font (size 1.27 1.27))))
      )
      (pin input line (at -27.94 0 0) (length 2.54)
        (name "RBIAS" (effects (font (size 1.27 1.27))))
        (number "63" (effects (font (size 1.27 1.27))))
      )
      (pin power_in line (at -12.7 35.56 270) (length 2.54)
        (name "VDD33PLL" (effects (font (size 1.27 1.27))))
        (number "64" (effects (font (size 1.27 1.27))))
      )
      (pin power_in line (at -2.54 -68.58 90) (length 2.54)
        (name "VSS" (effects (font (size 1.27 1.27))))
        (number "65" (effects (font (size 1.27 1.27))))
      )
      (pin bidirectional line (at 30.48 -3.81 180) (length 2.54)
        (name "USBDP_DN3/PRT_DIS_P3" (effects (font (size 1.27 1.27))))
        (number "7" (effects (font (size 1.27 1.27))))
      )
      (pin bidirectional line (at 30.48 -13.97 180) (length 2.54)
        (name "USBDM_DN4/PRT_DIS_M4" (effects (font (size 1.27 1.27))))
        (number "8" (effects (font (size 1.27 1.27))))
      )
      (pin bidirectional line (at 30.48 -16.51 180) (length 2.54)
        (name "USBDP_DN4/PRT_DIS_P4" (effects (font (size 1.27 1.27))))
        (number "9" (effects (font (size 1.27 1.27))))
      )
    )
  )
  (symbol "USB7206C" (in_bom yes) (on_board yes)
    (property "Reference" "U" (at -20.32 62.23 0)
      (effects (font (size 1.27 1.27)))
    )
    (property "Value" "USB7206C" (at -44.45 63.5 0)
      (effects (font (size 1.27 1.27)))
    )
    (property "Footprint" "BL_Package_DFN_QFN:VQFN-100_EP-12x12_P0.4mm_ThermalVias" (at -44.45 63.5 0)
      (effects (font (size 1.27 1.27)) hide)
    )
    (property "Datasheet" "https://ww1.microchip.com/downloads/aemDocuments/documents/UNG/ProductDocuments/DataSheets/00003850A.pdf" (at -44.45 63.5 0)
      (effects (font (size 1.27 1.27)) hide)
    )
    (property "ki_locked" "" (at 0 0 0)
      (effects (font (size 1.27 1.27)))
    )
    (property "ki_keywords" "USB, hub, usb3.2, controller, type-c" (at 0 0 0)
      (effects (font (size 1.27 1.27)) hide)
    )
    (property "ki_description" "6-Port USB 3.2 Gen 2 Type-C® Controller Hub" (at 0 0 0)
      (effects (font (size 1.27 1.27)) hide)
    )
    (symbol "USB7206C_1_0"
      (pin unspecified line (at 30.48 31.75 180) (length 5.08)
        (name "USB3DN_RXDP1" (effects (font (size 1.27 1.27))))
        (number "10" (effects (font (size 1.27 1.27))))
      )
      (pin unspecified line (at 30.48 29.21 180) (length 5.08)
        (name "USB3DN_RXDM1" (effects (font (size 1.27 1.27))))
        (number "11" (effects (font (size 1.27 1.27))))
      )
      (pin no_connect line (at 30.48 55.88 180) (length 5.08)
        (name "NC" (effects (font (size 1.27 1.27))))
        (number "12" (effects (font (size 1.27 1.27))))
      )
      (pin no_connect line (at 30.48 53.34 180) (length 5.08)
        (name "NC" (effects (font (size 1.27 1.27))))
        (number "13" (effects (font (size 1.27 1.27))))
      )
      (pin unspecified line (at 30.48 20.32 180) (length 5.08)
        (name "USB2DN_DP2/PRT_DIS_P2" (effects (font (size 1.27 1.27))))
        (number "14" (effects (font (size 1.27 1.27))))
      )
      (pin unspecified line (at 30.48 17.78 180) (length 5.08)
        (name "USB2DN_DM2/PRT_DIS_M2" (effects (font (size 1.27 1.27))))
        (number "15" (effects (font (size 1.27 1.27))))
      )
      (pin unspecified line (at 30.48 13.97 180) (length 5.08)
        (name "USB3DN_TXDP2" (effects (font (size 1.27 1.27))))
        (number "16" (effects (font (size 1.27 1.27))))
      )
      (pin unspecified line (at 30.48 11.43 180) (length 5.08)
        (name "USB3DN_TXDM2" (effects (font (size 1.27 1.27))))
        (number "17" (effects (font (size 1.27 1.27))))
      )
      (pin unspecified line (at 30.48 7.62 180) (length 5.08)
        (name "USB3DN_RXDP2" (effects (font (size 1.27 1.27))))
        (number "19" (effects (font (size 1.27 1.27))))
      )
      (pin bidirectional line (at -26.67 -48.26 0) (length 5.08)
        (name "PF30" (effects (font (size 1.27 1.27))))
        (number "2" (effects (font (size 1.27 1.27))))
        (alternate "VBUS_DET" input line)
      )
      (pin unspecified line (at 30.48 5.08 180) (length 5.08)
        (name "USB3DN_RXDM2" (effects (font (size 1.27 1.27))))
        (number "20" (effects (font (size 1.27 1.27))))
      )
      (pin unspecified line (at 30.48 -3.81 180) (length 5.08)
        (name "USB2DN_DP3/PRT_DIS_P3" (effects (font (size 1.27 1.27))))
        (number "27" (effects (font (size 1.27 1.27))))
      )
      (pin unspecified line (at 30.48 -6.35 180) (length 5.08)
        (name "USB2DN_DM3/PRT_DIS_M3" (effects (font (size 1.27 1.27))))
        (number "28" (effects (font (size 1.27 1.27))))
      )
      (pin unspecified line (at 30.48 -11.43 180) (length 5.08)
        (name "USB3DN_TXDP3" (effects (font (size 1.27 1.27))))
        (number "29" (effects (font (size 1.27 1.27))))
      )
      (pin bidirectional line (at -26.67 -50.8 0) (length 5.08)
        (name "PF31" (effects (font (size 1.27 1.27))))
        (number "3" (effects (font (size 1.27 1.27))))
        (alternate "MSTR_I2C_DATA" bidirectional line)
      )
      (pin unspecified line (at 30.48 -13.97 180) (length 5.08)
        (name "USB3DN_TXDM3" (effects (font (size 1.27 1.27))))
        (number "30" (effects (font (size 1.27 1.27))))
      )
      (pin unspecified line (at 30.48 -17.78 180) (length 5.08)
        (name "USB3DN_RXDP3" (effects (font (size 1.27 1.27))))
        (number "32" (effects (font (size 1.27 1.27))))
      )
      (pin unspecified line (at 30.48 -20.32 180) (length 5.08)
        (name "USB3DN_RXDM3" (effects (font (size 1.27 1.27))))
        (number "33" (effects (font (size 1.27 1.27))))
      )
      (pin unspecified line (at 30.48 -30.48 180) (length 5.08)
        (name "USB2DN_DP4/PRT_DIS_P4" (effects (font (size 1.27 1.27))))
        (number "34" (effects (font (size 1.27 1.27))))
      )
      (pin unspecified line (at 30.48 -27.94 180) (length 5.08)
        (name "USB2DN_DM4/PRT_DIS_M4" (effects (font (size 1.27 1.27))))
        (number "35" (effects (font (size 1.27 1.27))))
      )
      (pin unspecified line (at 30.48 -35.56 180) (length 5.08)
        (name "USB3DN_TXDP4" (effects (font (size 1.27 1.27))))
        (number "36" (effects (font (size 1.27 1.27))))
      )
      (pin unspecified line (at 30.48 -38.1 180) (length 5.08)
        (name "USB3DN_TXDM4" (effects (font (size 1.27 1.27))))
        (number "37" (effects (font (size 1.27 1.27))))
      )
      (pin unspecified line (at 30.48 -41.91 180) (length 5.08)
        (name "USB3DN_RXDP4" (effects (font (size 1.27 1.27))))
        (number "39" (effects (font (size 1.27 1.27))))
      )
      (pin no_connect line (at 30.48 58.42 180) (length 5.08)
        (name "NC" (effects (font (size 1.27 1.27))))
        (number "4" (effects (font (size 1.27 1.27))))
      )
      (pin unspecified line (at 30.48 -44.45 180) (length 5.08)
        (name "USB3DN_RXDM4" (effects (font (size 1.27 1.27))))
        (number "40" (effects (font (size 1.27 1.27))))
      )
      (pin unspecified line (at 30.48 -80.01 180) (length 5.08)
        (name "USB2DN_DM6/PRT_DIS_M6" (effects (font (size 1.27 1.27))))
        (number "41" (effects (font (size 1.27 1.27))))
      )
      (pin unspecified line (at 30.48 -77.47 180) (length 5.08)
        (name "USB2DN_DP6/PRT_DIS_P6" (effects (font (size 1.27 1.27))))
        (number "42" (effects (font (size 1.27 1.27))))
      )
      (pin bidirectional line (at -26.67 6.35 0) (length 5.08)
        (name "PF3" (effects (font (size 1.27 1.27))))
        (number "44" (effects (font (size 1.27 1.27))))
      )
      (pin bidirectional line (at -26.67 3.81 0) (length 5.08)
        (name "PF4" (effects (font (size 1.27 1.27))))
        (number "45" (effects (font (size 1.27 1.27))))
      )
      (pin bidirectional line (at -26.67 1.27 0) (length 5.08)
        (name "PF5" (effects (font (size 1.27 1.27))))
        (number "46" (effects (font (size 1.27 1.27))))
      )
      (pin bidirectional line (at -26.67 -1.27 0) (length 5.08)
        (name "PF6" (effects (font (size 1.27 1.27))))
        (number "47" (effects (font (size 1.27 1.27))))
      )
      (pin bidirectional line (at -26.67 -3.81 0) (length 5.08)
        (name "PF7" (effects (font (size 1.27 1.27))))
        (number "48" (effects (font (size 1.27 1.27))))
      )
      (pin bidirectional line (at -26.67 -6.35 0) (length 5.08)
        (name "PF8" (effects (font (size 1.27 1.27))))
        (number "49" (effects (font (size 1.27 1.27))))
        (alternate "NC" no_connect line)
      )
      (pin unspecified line (at 30.48 44.45 180) (length 5.08)
        (name "USB2DN_DP1/PRT_DIS_P1" (effects (font (size 1.27 1.27))))
        (number "5" (effects (font (size 1.27 1.27))))
      )
      (pin bidirectional line (at -26.67 -8.89 0) (length 5.08)
        (name "PF9" (effects (font (size 1.27 1.27))))
        (number "50" (effects (font (size 1.27 1.27))))
        (alternate "NC" no_connect line)
      )
      (pin bidirectional line (at -26.67 -11.43 0) (length 5.08)
        (name "PF10" (effects (font (size 1.27 1.27))))
        (number "51" (effects (font (size 1.27 1.27))))
      )
      (pin bidirectional line (at -26.67 -13.97 0) (length 5.08)
        (name "PF11" (effects (font (size 1.27 1.27))))
        (number "52" (effects (font (size 1.27 1.27))))
      )
      (pin bidirectional line (at -26.67 -16.51 0) (length 5.08)
        (name "PF12" (effects (font (size 1.27 1.27))))
        (number "54" (effects (font (size 1.27 1.27))))
      )
      (pin bidirectional line (at -26.67 -19.05 0) (length 5.08)
        (name "PF13" (effects (font (size 1.27 1.27))))
        (number "56" (effects (font (size 1.27 1.27))))
        (alternate "PRT_CTL5" bidirectional line)
      )
      (pin bidirectional line (at -26.67 -21.59 0) (length 5.08)
        (name "PF14" (effects (font (size 1.27 1.27))))
        (number "57" (effects (font (size 1.27 1.27))))
        (alternate "PRT_CTL4" bidirectional line)
      )
      (pin bidirectional line (at -26.67 -24.13 0) (length 5.08)
        (name "PF15" (effects (font (size 1.27 1.27))))
        (number "58" (effects (font (size 1.27 1.27))))
        (alternate "PRT_CTL3" bidirectional line)
      )
      (pin bidirectional line (at -26.67 -26.67 0) (length 5.08)
        (name "PF16" (effects (font (size 1.27 1.27))))
        (number "59" (effects (font (size 1.27 1.27))))
        (alternate "PRT_CTL2" bidirectional line)
      )
      (pin unspecified line (at 30.48 41.91 180) (length 5.08)
        (name "USB2DN_DM1/PRT_DIS_M1" (effects (font (size 1.27 1.27))))
        (number "6" (effects (font (size 1.27 1.27))))
      )
      (pin bidirectional line (at -26.67 -29.21 0) (length 5.08)
        (name "PF17" (effects (font (size 1.27 1.27))))
        (number "60" (effects (font (size 1.27 1.27))))
        (alternate "PRT_CTL1" bidirectional line)
      )
      (pin bidirectional line (at -26.67 -31.75 0) (length 5.08)
        (name "PF18" (effects (font (size 1.27 1.27))))
        (number "61" (effects (font (size 1.27 1.27))))
        (alternate "MSTR_I2C_CLK" output line)
      )
      (pin bidirectional line (at -26.67 -34.29 0) (length 5.08)
        (name "PF19" (effects (font (size 1.27 1.27))))
        (number "66" (effects (font (size 1.27 1.27))))
      )
      (pin unspecified line (at 30.48 38.1 180) (length 5.08)
        (name "USB3DN_TXDP1" (effects (font (size 1.27 1.27))))
        (number "7" (effects (font (size 1.27 1.27))))
      )
      (pin bidirectional line (at -26.67 -45.72 0) (length 5.08)
        (name "PF29" (effects (font (size 1.27 1.27))))
        (number "74" (effects (font (size 1.27 1.27))))
      )
      (pin bidirectional line (at -26.67 -38.1 0) (length 5.08)
        (name "PF26" (effects (font (size 1.27 1.27))))
        (number "75" (effects (font (size 1.27 1.27))))
        (alternate "SLV_I2C_CLK" input line)
      )
      (pin bidirectional line (at -26.67 -40.64 0) (length 5.08)
        (name "PF27" (effects (font (size 1.27 1.27))))
        (number "76" (effects (font (size 1.27 1.27))))
        (alternate "SLV_I2C_DATA" bidirectional line)
      )
      (pin bidirectional line (at -26.67 -43.18 0) (length 5.08)
        (name "PF28" (effects (font (size 1.27 1.27))))
        (number "77" (effects (font (size 1.27 1.27))))
        (alternate "PRT_CTL6" bidirectional line)
      )
      (pin unspecified line (at 30.48 35.56 180) (length 5.08)
        (name "USB3DN_TXDM1" (effects (font (size 1.27 1.27))))
        (number "8" (effects (font (size 1.27 1.27))))
      )
      (pin no_connect line (at -26.67 54.61 0) (length 5.08)
        (name "NC" (effects (font (size 1.27 1.27))))
        (number "80" (effects (font (size 1.27 1.27))))
      )
      (pin unspecified line (at 30.48 -52.07 180) (length 5.08)
        (name "USB2DN_DP5/PRT_DIS_P5" (effects (font (size 1.27 1.27))))
        (number "81" (effects (font (size 1.27 1.27))))
      )
      (pin unspecified line (at 30.48 -54.61 180) (length 5.08)
        (name "USB2DN_DM5/PRT_DIS_M5" (effects (font (size 1.27 1.27))))
        (number "82" (effects (font (size 1.27 1.27))))
      )
      (pin unspecified line (at 30.48 -59.69 180) (length 5.08)
        (name "USB3DN_TXDP5" (effects (font (size 1.27 1.27))))
        (number "83" (effects (font (size 1.27 1.27))))
      )
      (pin unspecified line (at 30.48 -62.23 180) (length 5.08)
        (name "USB3DN_TXDM5" (effects (font (size 1.27 1.27))))
        (number "84" (effects (font (size 1.27 1.27))))
      )
      (pin unspecified line (at 30.48 -67.31 180) (length 5.08)
        (name "USB3DN_RXDP5" (effects (font (size 1.27 1.27))))
        (number "86" (effects (font (size 1.27 1.27))))
      )
      (pin unspecified line (at 30.48 -69.85 180) (length 5.08)
        (name "USB3DN_RXDM5" (effects (font (size 1.27 1.27))))
        (number "87" (effects (font (size 1.27 1.27))))
      )
      (pin unspecified line (at -26.67 49.53 0) (length 5.08)
        (name "USB2UP_DP" (effects (font (size 1.27 1.27))))
        (number "89" (effects (font (size 1.27 1.27))))
      )
      (pin unspecified line (at -26.67 46.99 0) (length 5.08)
        (name "USB2UP_DM" (effects (font (size 1.27 1.27))))
        (number "90" (effects (font (size 1.27 1.27))))
      )
      (pin unspecified line (at -26.67 43.18 0) (length 5.08)
        (name "USB3UP_TXDP" (effects (font (size 1.27 1.27))))
        (number "91" (effects (font (size 1.27 1.27))))
      )
      (pin unspecified line (at -26.67 40.64 0) (length 5.08)
        (name "USB3UP_TXDM" (effects (font (size 1.27 1.27))))
        (number "92" (effects (font (size 1.27 1.27))))
      )
      (pin unspecified line (at -26.67 36.83 0) (length 5.08)
        (name "USB3UP_RXDP" (effects (font (size 1.27 1.27))))
        (number "94" (effects (font (size 1.27 1.27))))
      )
      (pin unspecified line (at -26.67 34.29 0) (length 5.08)
        (name "USB3UP_RXDM" (effects (font (size 1.27 1.27))))
        (number "95" (effects (font (size 1.27 1.27))))
      )
    )
    (symbol "USB7206C_1_1"
      (rectangle (start -21.59 60.96) (end 25.4 -82.55)
        (stroke (width 0) (type default))
        (fill (type background))
      )
      (polyline
        (pts
          (xy -21.59 21.59)
          (xy -1.27 21.59)
        )
        (stroke (width 0) (type default))
        (fill (type none))
      )
      (polyline
        (pts
          (xy -1.27 -62.23)
          (xy -1.27 -82.55)
        )
        (stroke (width 0) (type default))
        (fill (type none))
      )
      (polyline
        (pts
          (xy -1.27 -38.1)
          (xy -1.27 -62.23)
        )
        (stroke (width 0) (type default))
        (fill (type none))
      )
      (polyline
        (pts
          (xy -1.27 -38.1)
          (xy -1.27 -12.7)
        )
        (stroke (width 0) (type default))
        (fill (type none))
      )
      (polyline
        (pts
          (xy -1.27 -21.59)
          (xy 25.4 -21.59)
        )
        (stroke (width 0) (type default))
        (fill (type none))
      )
      (polyline
        (pts
          (xy -1.27 -12.7)
          (xy -1.27 12.7)
        )
        (stroke (width 0) (type default))
        (fill (type none))
      )
      (polyline
        (pts
          (xy -1.27 2.54)
          (xy 25.4 2.54)
        )
        (stroke (width 0) (type default))
        (fill (type none))
      )
      (polyline
        (pts
          (xy -1.27 12.7)
          (xy -1.27 60.96)
        )
        (stroke (width 0) (type default))
        (fill (type none))
      )
      (polyline
        (pts
          (xy -1.27 26.67)
          (xy 25.4 26.67)
        )
        (stroke (width 0) (type default))
        (fill (type none))
      )
      (polyline
        (pts
          (xy -1.27 52.07)
          (xy 25.4 52.07)
        )
        (stroke (width 0) (type default))
        (fill (type none))
      )
      (polyline
        (pts
          (xy 25.4 -71.12)
          (xy -1.27 -71.12)
        )
        (stroke (width 0) (type default))
        (fill (type none))
      )
      (polyline
        (pts
          (xy 25.4 -45.72)
          (xy -1.27 -45.72)
        )
        (stroke (width 0) (type default))
        (fill (type none))
      )
      (text "UPSTREAM" (at -15.24 59.69 0)
        (effects (font (size 1.27 1.27)))
      )
      (text "USB 2.0 Port 6" (at 7.62 -73.66 0)
        (effects (font (size 1.27 1.27)))
      )
      (text "USB 3.1 Port 1" (at 7.62 49.53 0)
        (effects (font (size 1.27 1.27)))
      )
      (text "USB 3.1 Port 2" (at 7.62 24.13 0)
        (effects (font (size 1.27 1.27)))
      )
      (text "USB 3.1 Port 3" (at 7.62 0 0)
        (effects (font (size 1.27 1.27)))
      )
      (text "USB 3.1 Port 4" (at 7.62 -24.13 0)
        (effects (font (size 1.27 1.27)))
      )
      (text "USB 3.1 Port 5" (at 7.62 -48.26 0)
        (effects (font (size 1.27 1.27)))
      )
    )
    (symbol "USB7206C_2_0"
      (pin unspecified line (at -25.4 -20.32 0) (length 5.08)
        (name "RESET_N" (effects (font (size 1.27 1.27))))
        (number "1" (effects (font (size 1.27 1.27))))
      )
      (pin unspecified line (at -25.4 -22.86 0) (length 5.08)
        (name "RBIAS" (effects (font (size 1.27 1.27))))
        (number "100" (effects (font (size 1.27 1.27))))
      )
      (pin unspecified line (at 25.4 -25.4 180) (length 5.08)
        (name "PAD" (effects (font (size 1.27 1.27))))
        (number "101" (effects (font (size 1.27 1.27))))
      )
      (pin unspecified line (at 25.4 -1.27 180) (length 5.08)
        (name "VCORE" (effects (font (size 1.27 1.27))))
        (number "18" (effects (font (size 1.27 1.27))))
      )
      (pin unspecified line (at -25.4 -27.94 0) (length 5.08)
        (name "CFG_STRAP1" (effects (font (size 1.27 1.27))))
        (number "21" (effects (font (size 1.27 1.27))))
      )
      (pin unspecified line (at -25.4 -30.48 0) (length 5.08)
        (name "CFG_STRAP2" (effects (font (size 1.27 1.27))))
        (number "22" (effects (font (size 1.27 1.27))))
      )
      (pin unspecified line (at -25.4 -33.02 0) (length 5.08)
        (name "CFG_STRAP3" (effects (font (size 1.27 1.27))))
        (number "23" (effects (font (size 1.27 1.27))))
      )
      (pin unspecified line (at -25.4 -17.78 0) (length 5.08)
        (name "TESTEN" (effects (font (size 1.27 1.27))))
        (number "24" (effects (font (size 1.27 1.27))))
      )
      (pin unspecified line (at 25.4 -3.81 180) (length 5.08)
        (name "VCORE" (effects (font (size 1.27 1.27))))
        (number "25" (effects (font (size 1.27 1.27))))
      )
      (pin unspecified line (at 25.4 26.67 180) (length 5.08)
        (name "VDD33" (effects (font (size 1.27 1.27))))
        (number "26" (effects (font (size 1.27 1.27))))
      )
      (pin unspecified line (at 25.4 -6.35 180) (length 5.08)
        (name "VCORE" (effects (font (size 1.27 1.27))))
        (number "31" (effects (font (size 1.27 1.27))))
      )
      (pin unspecified line (at 25.4 -8.89 180) (length 5.08)
        (name "VCORE" (effects (font (size 1.27 1.27))))
        (number "38" (effects (font (size 1.27 1.27))))
      )
      (pin unspecified line (at 25.4 24.13 180) (length 5.08)
        (name "VDD33" (effects (font (size 1.27 1.27))))
        (number "43" (effects (font (size 1.27 1.27))))
      )
      (pin unspecified line (at 25.4 21.59 180) (length 5.08)
        (name "VDD33" (effects (font (size 1.27 1.27))))
        (number "53" (effects (font (size 1.27 1.27))))
      )
      (pin unspecified line (at 25.4 -11.43 180) (length 5.08)
        (name "VCORE" (effects (font (size 1.27 1.27))))
        (number "55" (effects (font (size 1.27 1.27))))
      )
      (pin unspecified line (at 25.4 19.05 180) (length 5.08)
        (name "VDD33" (effects (font (size 1.27 1.27))))
        (number "62" (effects (font (size 1.27 1.27))))
      )
      (pin unspecified line (at -25.4 26.67 0) (length 5.08)
        (name "TEST1/MCLR" (effects (font (size 1.27 1.27))))
        (number "63" (effects (font (size 1.27 1.27))))
      )
      (pin unspecified line (at -25.4 24.13 0) (length 5.08)
        (name "TEST2/ICSP_DATA" (effects (font (size 1.27 1.27))))
        (number "64" (effects (font (size 1.27 1.27))))
      )
      (pin unspecified line (at -25.4 21.59 0) (length 5.08)
        (name "TEST3/ICSP_CLK" (effects (font (size 1.27 1.27))))
        (number "65" (effects (font (size 1.27 1.27))))
      )
      (pin unspecified line (at 25.4 16.51 180) (length 5.08)
        (name "VDD33" (effects (font (size 1.27 1.27))))
        (number "67" (effects (font (size 1.27 1.27))))
      )
      (pin unspecified line (at -25.4 15.24 0) (length 5.08)
        (name "SPI_CLK/PF21" (effects (font (size 1.27 1.27))))
        (number "68" (effects (font (size 1.27 1.27))))
      )
      (pin unspecified line (at -25.4 7.62 0) (length 5.08)
        (name "SPI_CE_N/CFG_NON_REM/PF20" (effects (font (size 1.27 1.27))))
        (number "69" (effects (font (size 1.27 1.27))))
      )
      (pin unspecified line (at -25.4 12.7 0) (length 5.08)
        (name "SPI_D0/CFG_BC_EN/PF22" (effects (font (size 1.27 1.27))))
        (number "70" (effects (font (size 1.27 1.27))))
      )
      (pin unspecified line (at -25.4 10.16 0) (length 5.08)
        (name "SPI_D1/PF23" (effects (font (size 1.27 1.27))))
        (number "71" (effects (font (size 1.27 1.27))))
      )
      (pin unspecified line (at -25.4 2.54 0) (length 5.08)
        (name "SPI_D2/PF24" (effects (font (size 1.27 1.27))))
        (number "72" (effects (font (size 1.27 1.27))))
      )
      (pin unspecified line (at -25.4 0 0) (length 5.08)
        (name "SPI_D3/PF25" (effects (font (size 1.27 1.27))))
        (number "73" (effects (font (size 1.27 1.27))))
      )
      (pin unspecified line (at 25.4 -13.97 180) (length 5.08)
        (name "VCORE" (effects (font (size 1.27 1.27))))
        (number "78" (effects (font (size 1.27 1.27))))
      )
      (pin unspecified line (at 25.4 13.97 180) (length 5.08)
        (name "VDD33" (effects (font (size 1.27 1.27))))
        (number "79" (effects (font (size 1.27 1.27))))
      )
      (pin unspecified line (at 25.4 -16.51 180) (length 5.08)
        (name "VCORE" (effects (font (size 1.27 1.27))))
        (number "85" (effects (font (size 1.27 1.27))))
      )
      (pin unspecified line (at 25.4 11.43 180) (length 5.08)
        (name "VDD33" (effects (font (size 1.27 1.27))))
        (number "88" (effects (font (size 1.27 1.27))))
      )
      (pin unspecified line (at 25.4 1.27 180) (length 5.08)
        (name "VCORE" (effects (font (size 1.27 1.27))))
        (number "9" (effects (font (size 1.27 1.27))))
      )
      (pin unspecified line (at 25.4 -19.05 180) (length 5.08)
        (name "VCORE" (effects (font (size 1.27 1.27))))
        (number "93" (effects (font (size 1.27 1.27))))
      )
      (pin unspecified line (at -25.4 -15.24 0) (length 5.08)
        (name "ATEST" (effects (font (size 1.27 1.27))))
        (number "96" (effects (font (size 1.27 1.27))))
      )
      (pin unspecified line (at -25.4 -6.35 0) (length 5.08)
        (name "XTALO" (effects (font (size 1.27 1.27))))
        (number "97" (effects (font (size 1.27 1.27))))
      )
      (pin unspecified line (at -25.4 -8.89 0) (length 5.08)
        (name "XTALI/CLK_IN" (effects (font (size 1.27 1.27))))
        (number "98" (effects (font (size 1.27 1.27))))
      )
      (pin unspecified line (at 25.4 8.89 180) (length 5.08)
        (name "VDD33" (effects (font (size 1.27 1.27))))
        (number "99" (effects (font (size 1.27 1.27))))
      )
    )
    (symbol "USB7206C_2_1"
      (rectangle (start -20.32 30.48) (end 20.32 -36.83)
        (stroke (width 0) (type default))
        (fill (type background))
      )
      (polyline
        (pts
          (xy -20.32 -25.4)
          (xy 10.16 -25.4)
        )
        (stroke (width 0) (type default))
        (fill (type none))
      )
      (polyline
        (pts
          (xy -20.32 -11.43)
          (xy 10.16 -11.43)
        )
        (stroke (width 0) (type default))
        (fill (type none))
      )
      (polyline
        (pts
          (xy -20.32 -2.54)
          (xy 10.16 -2.54)
        )
        (stroke (width 0) (type default))
        (fill (type none))
      )
      (polyline
        (pts
          (xy -20.32 19.05)
          (xy 10.16 19.05)
        )
        (stroke (width 0) (type default))
        (fill (type none))
      )
      (polyline
        (pts
          (xy 10.16 30.48)
          (xy 10.16 -36.83)
        )
        (stroke (width 0) (type default))
        (fill (type none))
      )
      (text "PROGRAMMING" (at -12.7 29.21 0)
        (effects (font (size 1.27 1.27)))
      )
      (text "SPI+SQI" (at -15.24 17.78 0)
        (effects (font (size 1.27 1.27)))
      )
    )
  )
  (symbol "USB7216C" (in_bom yes) (on_board yes)
    (property "Reference" "U" (at -20.32 62.23 0)
      (effects (font (size 1.27 1.27)))
    )
    (property "Value" "USB7216C" (at -44.45 63.5 0)
      (effects (font (size 1.27 1.27)))
    )
    (property "Footprint" "" (at -44.45 63.5 0)
      (effects (font (size 1.27 1.27)) hide)
    )
    (property "Datasheet" "https://ww1.microchip.com/downloads/aemDocuments/documents/UNG/ProductDocuments/DataSheets/00003851A.pdf" (at -44.45 63.5 0)
      (effects (font (size 1.27 1.27)) hide)
    )
    (property "ki_locked" "" (at 0 0 0)
      (effects (font (size 1.27 1.27)))
    )
    (property "ki_keywords" "USB, hub, usb3.2, controller, type-c" (at 0 0 0)
      (effects (font (size 1.27 1.27)) hide)
    )
    (property "ki_description" "6-Port USB 3.2 Gen 2 Type-C® Controller Hub" (at 0 0 0)
      (effects (font (size 1.27 1.27)) hide)
    )
    (symbol "USB7216C_1_0"
      (pin unspecified line (at 30.48 34.29 180) (length 5.08)
        (name "USB3DN_RXDP1A" (effects (font (size 1.27 1.27))))
        (number "10" (effects (font (size 1.27 1.27))))
      )
      (pin unspecified line (at 30.48 31.75 180) (length 5.08)
        (name "USB3DN_RXDM1A" (effects (font (size 1.27 1.27))))
        (number "11" (effects (font (size 1.27 1.27))))
      )
      (pin unspecified line (at 30.48 53.34 180) (length 5.08)
        (name "DP1_CC1" (effects (font (size 1.27 1.27))))
        (number "12" (effects (font (size 1.27 1.27))))
      )
      (pin unspecified line (at 30.48 50.8 180) (length 5.08)
        (name "DP1_CC2" (effects (font (size 1.27 1.27))))
        (number "13" (effects (font (size 1.27 1.27))))
      )
      (pin unspecified line (at 30.48 -66.04 180) (length 5.08)
        (name "USB2DN_DP5/PRT_DIS_P5" (effects (font (size 1.27 1.27))))
        (number "14" (effects (font (size 1.27 1.27))))
      )
      (pin unspecified line (at 30.48 -68.58 180) (length 5.08)
        (name "USB2DN_DM5/PRT_DIS_M5" (effects (font (size 1.27 1.27))))
        (number "15" (effects (font (size 1.27 1.27))))
      )
      (pin unspecified line (at 30.48 26.67 180) (length 5.08)
        (name "USB3DN_TXDP1B" (effects (font (size 1.27 1.27))))
        (number "16" (effects (font (size 1.27 1.27))))
      )
      (pin unspecified line (at 30.48 24.13 180) (length 5.08)
        (name "USB3DN_TXDM1B" (effects (font (size 1.27 1.27))))
        (number "17" (effects (font (size 1.27 1.27))))
      )
      (pin unspecified line (at 30.48 21.59 180) (length 5.08)
        (name "USB3DN_RXDP1B" (effects (font (size 1.27 1.27))))
        (number "19" (effects (font (size 1.27 1.27))))
      )
      (pin unspecified line (at -26.67 -48.26 0) (length 5.08)
        (name "PF30" (effects (font (size 1.27 1.27))))
        (number "2" (effects (font (size 1.27 1.27))))
      )
      (pin unspecified line (at 30.48 19.05 180) (length 5.08)
        (name "USB3DN_RXDM1B" (effects (font (size 1.27 1.27))))
        (number "20" (effects (font (size 1.27 1.27))))
      )
      (pin unspecified line (at 30.48 8.89 180) (length 5.08)
        (name "USB2DN_DP2/PRT_DIS_P2" (effects (font (size 1.27 1.27))))
        (number "27" (effects (font (size 1.27 1.27))))
      )
      (pin unspecified line (at 30.48 6.35 180) (length 5.08)
        (name "USB2DN_DM2/PRT_DIS_M2" (effects (font (size 1.27 1.27))))
        (number "28" (effects (font (size 1.27 1.27))))
      )
      (pin unspecified line (at 30.48 1.27 180) (length 5.08)
        (name "USB3DN_TXDP2" (effects (font (size 1.27 1.27))))
        (number "29" (effects (font (size 1.27 1.27))))
      )
      (pin unspecified line (at -26.67 -50.8 0) (length 5.08)
        (name "PF31" (effects (font (size 1.27 1.27))))
        (number "3" (effects (font (size 1.27 1.27))))
      )
      (pin unspecified line (at 30.48 -1.27 180) (length 5.08)
        (name "USB3DN_TXDM2" (effects (font (size 1.27 1.27))))
        (number "30" (effects (font (size 1.27 1.27))))
      )
      (pin unspecified line (at 30.48 -5.08 180) (length 5.08)
        (name "USB3DN_RXDP2" (effects (font (size 1.27 1.27))))
        (number "32" (effects (font (size 1.27 1.27))))
      )
      (pin unspecified line (at 30.48 -7.62 180) (length 5.08)
        (name "USB3DN_RXDM2" (effects (font (size 1.27 1.27))))
        (number "33" (effects (font (size 1.27 1.27))))
      )
      (pin unspecified line (at 30.48 -19.05 180) (length 5.08)
        (name "USB2DN_DP3/PRT_DIS_P3" (effects (font (size 1.27 1.27))))
        (number "34" (effects (font (size 1.27 1.27))))
      )
      (pin unspecified line (at 30.48 -16.51 180) (length 5.08)
        (name "USB2DN_DM3/PRT_DIS_M3" (effects (font (size 1.27 1.27))))
        (number "35" (effects (font (size 1.27 1.27))))
      )
      (pin unspecified line (at 30.48 -24.13 180) (length 5.08)
        (name "USB3DN_TXDP3" (effects (font (size 1.27 1.27))))
        (number "36" (effects (font (size 1.27 1.27))))
      )
      (pin unspecified line (at 30.48 -26.67 180) (length 5.08)
        (name "USB3DN_TXDM3" (effects (font (size 1.27 1.27))))
        (number "37" (effects (font (size 1.27 1.27))))
      )
      (pin unspecified line (at 30.48 -30.48 180) (length 5.08)
        (name "USB3DN_RXDP3" (effects (font (size 1.27 1.27))))
        (number "39" (effects (font (size 1.27 1.27))))
      )
      (pin unspecified line (at 30.48 57.15 180) (length 5.08)
        (name "DP1_VBUS_MON" (effects (font (size 1.27 1.27))))
        (number "4" (effects (font (size 1.27 1.27))))
      )
      (pin unspecified line (at 30.48 -33.02 180) (length 5.08)
        (name "USB3DN_RXDM3" (effects (font (size 1.27 1.27))))
        (number "40" (effects (font (size 1.27 1.27))))
      )
      (pin unspecified line (at 30.48 -77.47 180) (length 5.08)
        (name "USB2DN_DM6/PRT_DIS_M6" (effects (font (size 1.27 1.27))))
        (number "41" (effects (font (size 1.27 1.27))))
      )
      (pin unspecified line (at 30.48 -74.93 180) (length 5.08)
        (name "USB2DN_DP6/PRT_DIS_P6" (effects (font (size 1.27 1.27))))
        (number "42" (effects (font (size 1.27 1.27))))
      )
      (pin unspecified line (at -26.67 6.35 0) (length 5.08)
        (name "PF3" (effects (font (size 1.27 1.27))))
        (number "44" (effects (font (size 1.27 1.27))))
      )
      (pin unspecified line (at -26.67 3.81 0) (length 5.08)
        (name "PF4" (effects (font (size 1.27 1.27))))
        (number "45" (effects (font (size 1.27 1.27))))
      )
      (pin unspecified line (at -26.67 1.27 0) (length 5.08)
        (name "PF5" (effects (font (size 1.27 1.27))))
        (number "46" (effects (font (size 1.27 1.27))))
      )
      (pin unspecified line (at -26.67 -1.27 0) (length 5.08)
        (name "PF6" (effects (font (size 1.27 1.27))))
        (number "47" (effects (font (size 1.27 1.27))))
      )
      (pin unspecified line (at -26.67 -3.81 0) (length 5.08)
        (name "PF7" (effects (font (size 1.27 1.27))))
        (number "48" (effects (font (size 1.27 1.27))))
      )
      (pin unspecified line (at -26.67 -6.35 0) (length 5.08)
        (name "PF8" (effects (font (size 1.27 1.27))))
        (number "49" (effects (font (size 1.27 1.27))))
      )
      (pin unspecified line (at 30.48 46.99 180) (length 5.08)
        (name "USB2DN_DP1/PRT_DIS_P1" (effects (font (size 1.27 1.27))))
        (number "5" (effects (font (size 1.27 1.27))))
      )
      (pin unspecified line (at -26.67 -8.89 0) (length 5.08)
        (name "PF9" (effects (font (size 1.27 1.27))))
        (number "50" (effects (font (size 1.27 1.27))))
      )
      (pin unspecified line (at -26.67 -11.43 0) (length 5.08)
        (name "PF10" (effects (font (size 1.27 1.27))))
        (number "51" (effects (font (size 1.27 1.27))))
      )
      (pin unspecified line (at -26.67 -13.97 0) (length 5.08)
        (name "PF11" (effects (font (size 1.27 1.27))))
        (number "52" (effects (font (size 1.27 1.27))))
      )
      (pin unspecified line (at -26.67 -16.51 0) (length 5.08)
        (name "PF12" (effects (font (size 1.27 1.27))))
        (number "54" (effects (font (size 1.27 1.27))))
      )
      (pin unspecified line (at -26.67 -19.05 0) (length 5.08)
        (name "PF13" (effects (font (size 1.27 1.27))))
        (number "56" (effects (font (size 1.27 1.27))))
      )
      (pin unspecified line (at -26.67 -21.59 0) (length 5.08)
        (name "PF14" (effects (font (size 1.27 1.27))))
        (number "57" (effects (font (size 1.27 1.27))))
      )
      (pin unspecified line (at -26.67 -24.13 0) (length 5.08)
        (name "PF15" (effects (font (size 1.27 1.27))))
        (number "58" (effects (font (size 1.27 1.27))))
      )
      (pin unspecified line (at -26.67 -26.67 0) (length 5.08)
        (name "PF16" (effects (font (size 1.27 1.27))))
        (number "59" (effects (font (size 1.27 1.27))))
      )
      (pin unspecified line (at 30.48 44.45 180) (length 5.08)
        (name "USB2DN_DM1/PRT_DIS_M1" (effects (font (size 1.27 1.27))))
        (number "6" (effects (font (size 1.27 1.27))))
      )
      (pin unspecified line (at -26.67 -29.21 0) (length 5.08)
        (name "PF17" (effects (font (size 1.27 1.27))))
        (number "60" (effects (font (size 1.27 1.27))))
      )
      (pin unspecified line (at -26.67 -31.75 0) (length 5.08)
        (name "PF18" (effects (font (size 1.27 1.27))))
        (number "61" (effects (font (size 1.27 1.27))))
      )
      (pin unspecified line (at -26.67 -34.29 0) (length 5.08)
        (name "PF19" (effects (font (size 1.27 1.27))))
        (number "66" (effects (font (size 1.27 1.27))))
      )
      (pin unspecified line (at 30.48 40.64 180) (length 5.08)
        (name "USB3DN_TXDP1A" (effects (font (size 1.27 1.27))))
        (number "7" (effects (font (size 1.27 1.27))))
      )
      (pin unspecified line (at -26.67 -45.72 0) (length 5.08)
        (name "PF29" (effects (font (size 1.27 1.27))))
        (number "74" (effects (font (size 1.27 1.27))))
      )
      (pin unspecified line (at -26.67 -38.1 0) (length 5.08)
        (name "PF26" (effects (font (size 1.27 1.27))))
        (number "75" (effects (font (size 1.27 1.27))))
      )
      (pin unspecified line (at -26.67 -40.64 0) (length 5.08)
        (name "PF27" (effects (font (size 1.27 1.27))))
        (number "76" (effects (font (size 1.27 1.27))))
      )
      (pin unspecified line (at -26.67 -43.18 0) (length 5.08)
        (name "PF28" (effects (font (size 1.27 1.27))))
        (number "77" (effects (font (size 1.27 1.27))))
      )
      (pin unspecified line (at 30.48 38.1 180) (length 5.08)
        (name "USB3DN_TXDM1A" (effects (font (size 1.27 1.27))))
        (number "8" (effects (font (size 1.27 1.27))))
      )
      (pin unspecified line (at -26.67 54.61 0) (length 5.08)
        (name "VBUS_MON_UP" (effects (font (size 1.27 1.27))))
        (number "80" (effects (font (size 1.27 1.27))))
      )
      (pin unspecified line (at 30.48 -41.91 180) (length 5.08)
        (name "USB2DN_DP4/PRT_DIS_P4" (effects (font (size 1.27 1.27))))
        (number "81" (effects (font (size 1.27 1.27))))
      )
      (pin unspecified line (at 30.48 -44.45 180) (length 5.08)
        (name "USB2DN_DM4/PRT_DIS_M4" (effects (font (size 1.27 1.27))))
        (number "82" (effects (font (size 1.27 1.27))))
      )
      (pin unspecified line (at 30.48 -49.53 180) (length 5.08)
        (name "USB3DN_TXDP4" (effects (font (size 1.27 1.27))))
        (number "83" (effects (font (size 1.27 1.27))))
      )
      (pin unspecified line (at 30.48 -52.07 180) (length 5.08)
        (name "USB3DN_TXDM4" (effects (font (size 1.27 1.27))))
        (number "84" (effects (font (size 1.27 1.27))))
      )
      (pin unspecified line (at 30.48 -57.15 180) (length 5.08)
        (name "USB3DN_RXDP4" (effects (font (size 1.27 1.27))))
        (number "86" (effects (font (size 1.27 1.27))))
      )
      (pin unspecified line (at 30.48 -59.69 180) (length 5.08)
        (name "USB3DN_RXDM4" (effects (font (size 1.27 1.27))))
        (number "87" (effects (font (size 1.27 1.27))))
      )
      (pin unspecified line (at -26.67 49.53 0) (length 5.08)
        (name "USB2UP_DP" (effects (font (size 1.27 1.27))))
        (number "89" (effects (font (size 1.27 1.27))))
      )
      (pin unspecified line (at -26.67 46.99 0) (length 5.08)
        (name "USB2UP_DM" (effects (font (size 1.27 1.27))))
        (number "90" (effects (font (size 1.27 1.27))))
      )
      (pin unspecified line (at -26.67 43.18 0) (length 5.08)
        (name "USB3UP_TXDP" (effects (font (size 1.27 1.27))))
        (number "91" (effects (font (size 1.27 1.27))))
      )
      (pin unspecified line (at -26.67 40.64 0) (length 5.08)
        (name "USB3UP_TXDM" (effects (font (size 1.27 1.27))))
        (number "92" (effects (font (size 1.27 1.27))))
      )
      (pin unspecified line (at -26.67 36.83 0) (length 5.08)
        (name "USB3UP_RXDP" (effects (font (size 1.27 1.27))))
        (number "94" (effects (font (size 1.27 1.27))))
      )
      (pin unspecified line (at -26.67 34.29 0) (length 5.08)
        (name "USB3UP_RXDM" (effects (font (size 1.27 1.27))))
        (number "95" (effects (font (size 1.27 1.27))))
      )
    )
    (symbol "USB7216C_1_1"
      (rectangle (start -21.59 60.96) (end 25.4 -81.28)
        (stroke (width 0) (type default))
        (fill (type background))
      )
      (polyline
        (pts
          (xy -21.59 21.59)
          (xy -1.27 21.59)
        )
        (stroke (width 0) (type default))
        (fill (type none))
      )
      (polyline
        (pts
          (xy -1.27 -62.23)
          (xy -1.27 -81.28)
        )
        (stroke (width 0) (type default))
        (fill (type none))
      )
      (polyline
        (pts
          (xy -1.27 -38.1)
          (xy -1.27 -12.7)
        )
        (stroke (width 0) (type default))
        (fill (type none))
      )
      (polyline
        (pts
          (xy -1.27 -12.7)
          (xy -1.27 12.7)
        )
        (stroke (width 0) (type default))
        (fill (type none))
      )
      (polyline
        (pts
          (xy -1.27 -11.43)
          (xy 25.4 -11.43)
        )
        (stroke (width 0) (type default))
        (fill (type none))
      )
      (polyline
        (pts
          (xy -1.27 12.7)
          (xy -1.27 60.96)
        )
        (stroke (width 0) (type default))
        (fill (type none))
      )
      (polyline
        (pts
          (xy -1.27 13.97)
          (xy 25.4 13.97)
        )
        (stroke (width 0) (type default))
        (fill (type none))
      )
      (polyline
        (pts
          (xy 25.4 -71.12)
          (xy -1.27 -71.12)
        )
        (stroke (width 0) (type default))
        (fill (type none))
      )
      (polyline
        (pts
          (xy 25.4 -36.83)
          (xy -1.27 -36.83)
          (xy -1.27 -62.23)
          (xy 25.4 -62.23)
        )
        (stroke (width 0) (type default))
        (fill (type none))
      )
      (text "UPSTREAM" (at -15.24 59.69 0)
        (effects (font (size 1.27 1.27)))
      )
      (text "USB 2.0 Port 5" (at 7.62 -63.5 0)
        (effects (font (size 1.27 1.27)))
      )
      (text "USB 2.0 Port 6" (at 7.62 -72.39 0)
        (effects (font (size 1.27 1.27)))
      )
      (text "USB 3.0 Port 2" (at 7.62 11.43 0)
        (effects (font (size 1.27 1.27)))
      )
      (text "USB 3.0 Port 3" (at 7.62 -13.97 0)
        (effects (font (size 1.27 1.27)))
      )
      (text "USB 3.0 Port 4" (at 7.62 -39.37 0)
        (effects (font (size 1.27 1.27)))
      )
      (text "USB 3.1 Type C" (at 7.62 59.69 0)
        (effects (font (size 1.27 1.27)))
      )
    )
    (symbol "USB7216C_2_0"
      (pin unspecified line (at -25.4 -20.32 0) (length 5.08)
        (name "RESET_N" (effects (font (size 1.27 1.27))))
        (number "1" (effects (font (size 1.27 1.27))))
      )
      (pin unspecified line (at -25.4 -22.86 0) (length 5.08)
        (name "RBIAS" (effects (font (size 1.27 1.27))))
        (number "100" (effects (font (size 1.27 1.27))))
      )
      (pin unspecified line (at 25.4 -25.4 180) (length 5.08)
        (name "PAD" (effects (font (size 1.27 1.27))))
        (number "101" (effects (font (size 1.27 1.27))))
      )
      (pin unspecified line (at 25.4 -1.27 180) (length 5.08)
        (name "VCORE" (effects (font (size 1.27 1.27))))
        (number "18" (effects (font (size 1.27 1.27))))
      )
      (pin unspecified line (at -25.4 -27.94 0) (length 5.08)
        (name "CFG_STRAP1" (effects (font (size 1.27 1.27))))
        (number "21" (effects (font (size 1.27 1.27))))
      )
      (pin unspecified line (at -25.4 -30.48 0) (length 5.08)
        (name "CFG_STRAP2" (effects (font (size 1.27 1.27))))
        (number "22" (effects (font (size 1.27 1.27))))
      )
      (pin unspecified line (at -25.4 -33.02 0) (length 5.08)
        (name "CFG_STRAP3" (effects (font (size 1.27 1.27))))
        (number "23" (effects (font (size 1.27 1.27))))
      )
      (pin unspecified line (at -25.4 -17.78 0) (length 5.08)
        (name "TESTEN" (effects (font (size 1.27 1.27))))
        (number "24" (effects (font (size 1.27 1.27))))
      )
      (pin unspecified line (at 25.4 -3.81 180) (length 5.08)
        (name "VCORE" (effects (font (size 1.27 1.27))))
        (number "25" (effects (font (size 1.27 1.27))))
      )
      (pin unspecified line (at 25.4 26.67 180) (length 5.08)
        (name "VDD33" (effects (font (size 1.27 1.27))))
        (number "26" (effects (font (size 1.27 1.27))))
      )
      (pin unspecified line (at 25.4 -6.35 180) (length 5.08)
        (name "VCORE" (effects (font (size 1.27 1.27))))
        (number "31" (effects (font (size 1.27 1.27))))
      )
      (pin unspecified line (at 25.4 -8.89 180) (length 5.08)
        (name "VCORE" (effects (font (size 1.27 1.27))))
        (number "38" (effects (font (size 1.27 1.27))))
      )
      (pin unspecified line (at 25.4 24.13 180) (length 5.08)
        (name "VDD33" (effects (font (size 1.27 1.27))))
        (number "43" (effects (font (size 1.27 1.27))))
      )
      (pin unspecified line (at 25.4 21.59 180) (length 5.08)
        (name "VDD33" (effects (font (size 1.27 1.27))))
        (number "53" (effects (font (size 1.27 1.27))))
      )
      (pin unspecified line (at 25.4 -11.43 180) (length 5.08)
        (name "VCORE" (effects (font (size 1.27 1.27))))
        (number "55" (effects (font (size 1.27 1.27))))
      )
      (pin unspecified line (at 25.4 19.05 180) (length 5.08)
        (name "VDD33" (effects (font (size 1.27 1.27))))
        (number "62" (effects (font (size 1.27 1.27))))
      )
      (pin unspecified line (at -25.4 26.67 0) (length 5.08)
        (name "TEST1/MCLR" (effects (font (size 1.27 1.27))))
        (number "63" (effects (font (size 1.27 1.27))))
      )
      (pin unspecified line (at -25.4 24.13 0) (length 5.08)
        (name "TEST2/ICSP_DATA" (effects (font (size 1.27 1.27))))
        (number "64" (effects (font (size 1.27 1.27))))
      )
      (pin unspecified line (at -25.4 21.59 0) (length 5.08)
        (name "TEST3/ICSP_CLK" (effects (font (size 1.27 1.27))))
        (number "65" (effects (font (size 1.27 1.27))))
      )
      (pin unspecified line (at 25.4 16.51 180) (length 5.08)
        (name "VDD33" (effects (font (size 1.27 1.27))))
        (number "67" (effects (font (size 1.27 1.27))))
      )
      (pin unspecified line (at -25.4 15.24 0) (length 5.08)
        (name "SPI_CLK/PF21" (effects (font (size 1.27 1.27))))
        (number "68" (effects (font (size 1.27 1.27))))
      )
      (pin unspecified line (at -25.4 7.62 0) (length 5.08)
        (name "SPI_CE_N/CFG_NON_REM/PF20" (effects (font (size 1.27 1.27))))
        (number "69" (effects (font (size 1.27 1.27))))
      )
      (pin unspecified line (at -25.4 12.7 0) (length 5.08)
        (name "SPI_D0/CFG_BC_EN/PF22" (effects (font (size 1.27 1.27))))
        (number "70" (effects (font (size 1.27 1.27))))
      )
      (pin unspecified line (at -25.4 10.16 0) (length 5.08)
        (name "SPI_D1/PF23" (effects (font (size 1.27 1.27))))
        (number "71" (effects (font (size 1.27 1.27))))
      )
      (pin unspecified line (at -25.4 2.54 0) (length 5.08)
        (name "SPI_D2/PF24" (effects (font (size 1.27 1.27))))
        (number "72" (effects (font (size 1.27 1.27))))
      )
      (pin unspecified line (at -25.4 0 0) (length 5.08)
        (name "SPI_D3/PF25" (effects (font (size 1.27 1.27))))
        (number "73" (effects (font (size 1.27 1.27))))
      )
      (pin unspecified line (at 25.4 -13.97 180) (length 5.08)
        (name "VCORE" (effects (font (size 1.27 1.27))))
        (number "78" (effects (font (size 1.27 1.27))))
      )
      (pin unspecified line (at 25.4 13.97 180) (length 5.08)
        (name "VDD33" (effects (font (size 1.27 1.27))))
        (number "79" (effects (font (size 1.27 1.27))))
      )
      (pin unspecified line (at 25.4 -16.51 180) (length 5.08)
        (name "VCORE" (effects (font (size 1.27 1.27))))
        (number "85" (effects (font (size 1.27 1.27))))
      )
      (pin unspecified line (at 25.4 11.43 180) (length 5.08)
        (name "VDD33" (effects (font (size 1.27 1.27))))
        (number "88" (effects (font (size 1.27 1.27))))
      )
      (pin unspecified line (at 25.4 1.27 180) (length 5.08)
        (name "VCORE" (effects (font (size 1.27 1.27))))
        (number "9" (effects (font (size 1.27 1.27))))
      )
      (pin unspecified line (at 25.4 -19.05 180) (length 5.08)
        (name "VCORE" (effects (font (size 1.27 1.27))))
        (number "93" (effects (font (size 1.27 1.27))))
      )
      (pin unspecified line (at -25.4 -15.24 0) (length 5.08)
        (name "ATEST" (effects (font (size 1.27 1.27))))
        (number "96" (effects (font (size 1.27 1.27))))
      )
      (pin unspecified line (at -25.4 -6.35 0) (length 5.08)
        (name "XTALO" (effects (font (size 1.27 1.27))))
        (number "97" (effects (font (size 1.27 1.27))))
      )
      (pin unspecified line (at -25.4 -8.89 0) (length 5.08)
        (name "XTALI/CLK_IN" (effects (font (size 1.27 1.27))))
        (number "98" (effects (font (size 1.27 1.27))))
      )
      (pin unspecified line (at 25.4 8.89 180) (length 5.08)
        (name "VDD33" (effects (font (size 1.27 1.27))))
        (number "99" (effects (font (size 1.27 1.27))))
      )
    )
    (symbol "USB7216C_2_1"
      (rectangle (start -20.32 30.48) (end 20.32 -36.83)
        (stroke (width 0) (type default))
        (fill (type background))
      )
      (polyline
        (pts
          (xy -20.32 -25.4)
          (xy 10.16 -25.4)
        )
        (stroke (width 0) (type default))
        (fill (type none))
      )
      (polyline
        (pts
          (xy -20.32 -11.43)
          (xy 10.16 -11.43)
        )
        (stroke (width 0) (type default))
        (fill (type none))
      )
      (polyline
        (pts
          (xy -20.32 -2.54)
          (xy 10.16 -2.54)
        )
        (stroke (width 0) (type default))
        (fill (type none))
      )
      (polyline
        (pts
          (xy -20.32 19.05)
          (xy 10.16 19.05)
        )
        (stroke (width 0) (type default))
        (fill (type none))
      )
      (polyline
        (pts
          (xy 10.16 30.48)
          (xy 10.16 -36.83)
        )
        (stroke (width 0) (type default))
        (fill (type none))
      )
      (text "PROGRAMMING" (at -12.7 29.21 0)
        (effects (font (size 1.27 1.27)))
      )
      (text "SPI+SQI" (at -15.24 17.78 0)
        (effects (font (size 1.27 1.27)))
      )
    )
  )
)
