(kicad_symbol_lib (version 20220914) (generator kicad_symbol_editor)
  (symbol "W25Q80DVUXIE" (in_bom yes) (on_board yes)
    (property "Reference" "U" (at -8.89 7.62 0)
      (effects (font (size 1.27 1.27)))
    )
    (property "Value" "W25Q80DVUXIE" (at 8.89 -6.35 0)
      (effects (font (size 1.27 1.27)))
    )
    (property "Footprint" "BL_Package_SON:USON-6-1EP_3X2mm_P0.5mm_EP0.20x1.60mm" (at 17.78 -7.62 0)
      (effects (font (size 0.63 0.63)))
    )
    (property "Datasheet" "" (at -10.795 -3.81 0)
      (effects (font (size 1.27 1.27)) hide)
    )
    (symbol "W25Q80DVUXIE_0_0"
      (pin input inverted (at -12.7 2.54 0) (length 2.54)
        (name "CS" (effects (font (size 1.27 1.27))))
        (number "1" (effects (font (size 1.27 1.27))))
      )
      (pin bidirectional line (at -12.7 0 0) (length 2.54)
        (name "DO(IO1)" (effects (font (size 1.27 1.27))))
        (number "2" (effects (font (size 1.27 1.27))))
      )
      (pin bidirectional line (at -12.7 -2.54 0) (length 2.54)
        (name "/WP(IO2)" (effects (font (size 1.27 1.27))))
        (number "3" (effects (font (size 1.27 1.27))))
      )
      (pin passive line (at 1.27 -7.62 90) (length 2.54)
        (name "GND" (effects (font (size 1.27 1.27))))
        (number "4" (effects (font (size 1.27 1.27))))
      )
      (pin bidirectional line (at 12.7 -2.54 180) (length 2.54)
        (name "DI(IO0)" (effects (font (size 1.27 1.27))))
        (number "5" (effects (font (size 1.27 1.27))))
      )
      (pin input clock (at 13.335 0 180) (length 2.54)
        (name "CLK" (effects (font (size 1.27 1.27))))
        (number "6" (effects (font (size 1.27 1.27))))
      )
      (pin input inverted (at 12.7 2.54 180) (length 2.54)
        (name "HOLD" (effects (font (size 1.27 1.27))))
        (number "7" (effects (font (size 1.27 1.27))))
      )
      (pin power_in line (at 1.27 8.89 270) (length 2.54)
        (name "VCC" (effects (font (size 1.27 1.27))))
        (number "8" (effects (font (size 1.27 1.27))))
      )
    )
    (symbol "W25Q80DVUXIE_0_1"
      (rectangle (start -10.16 6.35) (end 10.16 -5.08)
        (stroke (width 0.001) (type default))
        (fill (type background))
      )
    )
  )
)
