(kicad_symbol_lib (version 20220914) (generator kicad_symbol_editor)
  (symbol "P3V3" (power) (pin_names (offset 0)) (in_bom yes) (on_board yes)
    (property "Reference" "#PWR" (at 0 -3.81 0)
      (effects (font (size 1.27 1.27)) hide)
    )
    (property "Value" "P3V3" (at 0 3.556 0)
      (effects (font (size 1.27 1.27)))
    )
    (property "Footprint" "" (at 0 0 0)
      (effects (font (size 1.27 1.27)) hide)
    )
    (property "Datasheet" "" (at 0 0 0)
      (effects (font (size 1.27 1.27)) hide)
    )
    (property "ki_keywords" "power-flag" (at 0 0 0)
      (effects (font (size 1.27 1.27)) hide)
    )
    (property "ki_description" "Power symbol creates a global label with name \"+5V\"" (at 0 0 0)
      (effects (font (size 1.27 1.27)) hide)
    )
    (symbol "P3V3_0_1"
      (polyline
        (pts
          (xy -0.762 1.27)
          (xy 0 2.54)
        )
        (stroke (width 0) (type default))
        (fill (type none))
      )
      (polyline
        (pts
          (xy 0 0)
          (xy 0 2.54)
        )
        (stroke (width 0) (type default))
        (fill (type none))
      )
      (polyline
        (pts
          (xy 0 2.54)
          (xy 0.762 1.27)
        )
        (stroke (width 0) (type default))
        (fill (type none))
      )
    )
    (symbol "P3V3_1_1"
      (pin power_in line (at 0 0 90) (length 0) hide
        (name "P3V3" (effects (font (size 1.27 1.27))))
        (number "1" (effects (font (size 1.27 1.27))))
      )
    )
  )
  (symbol "P5V0" (power) (pin_names (offset 0)) (in_bom yes) (on_board yes)
    (property "Reference" "#PWR" (at 0 -4.445 0)
      (effects (font (size 1.27 1.27)) hide)
    )
    (property "Value" "P5V0" (at 0 3.556 0)
      (effects (font (size 1.27 1.27)))
    )
    (property "Footprint" "" (at 0 0 0)
      (effects (font (size 1.27 1.27)) hide)
    )
    (property "Datasheet" "" (at 0 0 0)
      (effects (font (size 1.27 1.27)) hide)
    )
    (property "ki_keywords" "power-flag" (at 0 0 0)
      (effects (font (size 1.27 1.27)) hide)
    )
    (property "ki_description" "Power symbol creates a global label with name \"+5V\"" (at 0 0 0)
      (effects (font (size 1.27 1.27)) hide)
    )
    (symbol "P5V0_0_1"
      (polyline
        (pts
          (xy -0.762 1.27)
          (xy 0 2.54)
        )
        (stroke (width 0) (type default))
        (fill (type none))
      )
      (polyline
        (pts
          (xy 0 0)
          (xy 0 2.54)
        )
        (stroke (width 0) (type default))
        (fill (type none))
      )
      (polyline
        (pts
          (xy 0 2.54)
          (xy 0.762 1.27)
        )
        (stroke (width 0) (type default))
        (fill (type none))
      )
    )
    (symbol "P5V0_1_1"
      (pin power_in line (at 0 0 90) (length 0) hide
        (name "P5V0" (effects (font (size 1.27 1.27))))
        (number "1" (effects (font (size 1.27 1.27))))
      )
    )
  )
  (symbol "P5V0_A" (power) (pin_names (offset 0)) (in_bom yes) (on_board yes)
    (property "Reference" "#PWR" (at 0 -4.445 0)
      (effects (font (size 1.27 1.27)) hide)
    )
    (property "Value" "P5V0_A" (at 0 3.556 0)
      (effects (font (size 1.27 1.27)))
    )
    (property "Footprint" "" (at 0 0 0)
      (effects (font (size 1.27 1.27)) hide)
    )
    (property "Datasheet" "" (at 0 0 0)
      (effects (font (size 1.27 1.27)) hide)
    )
    (property "ki_keywords" "power-flag" (at 0 0 0)
      (effects (font (size 1.27 1.27)) hide)
    )
    (property "ki_description" "Power symbol creates a global label with name \"+5V\"" (at 0 0 0)
      (effects (font (size 1.27 1.27)) hide)
    )
    (symbol "P5V0_A_0_1"
      (polyline
        (pts
          (xy -0.762 1.27)
          (xy 0 2.54)
        )
        (stroke (width 0) (type default))
        (fill (type none))
      )
      (polyline
        (pts
          (xy 0 0)
          (xy 0 2.54)
        )
        (stroke (width 0) (type default))
        (fill (type none))
      )
      (polyline
        (pts
          (xy 0 2.54)
          (xy 0.762 1.27)
        )
        (stroke (width 0) (type default))
        (fill (type none))
      )
    )
    (symbol "P5V0_A_1_1"
      (pin power_in line (at 0 0 90) (length 0) hide
        (name "P5V0_A" (effects (font (size 1.27 1.27))))
        (number "1" (effects (font (size 1.27 1.27))))
      )
    )
  )
  (symbol "P5V0_B" (power) (pin_names (offset 0)) (in_bom yes) (on_board yes)
    (property "Reference" "#PWR" (at 0 -4.445 0)
      (effects (font (size 1.27 1.27)) hide)
    )
    (property "Value" "P5V0_B" (at 0 3.556 0)
      (effects (font (size 1.27 1.27)))
    )
    (property "Footprint" "" (at 0 0 0)
      (effects (font (size 1.27 1.27)) hide)
    )
    (property "Datasheet" "" (at 0 0 0)
      (effects (font (size 1.27 1.27)) hide)
    )
    (property "ki_keywords" "power-flag" (at 0 0 0)
      (effects (font (size 1.27 1.27)) hide)
    )
    (property "ki_description" "Power symbol creates a global label with name \"+5V\"" (at 0 0 0)
      (effects (font (size 1.27 1.27)) hide)
    )
    (symbol "P5V0_B_0_1"
      (polyline
        (pts
          (xy -0.762 1.27)
          (xy 0 2.54)
        )
        (stroke (width 0) (type default))
        (fill (type none))
      )
      (polyline
        (pts
          (xy 0 0)
          (xy 0 2.54)
        )
        (stroke (width 0) (type default))
        (fill (type none))
      )
      (polyline
        (pts
          (xy 0 2.54)
          (xy 0.762 1.27)
        )
        (stroke (width 0) (type default))
        (fill (type none))
      )
    )
    (symbol "P5V0_B_1_1"
      (pin power_in line (at 0 0 90) (length 0) hide
        (name "P5V0_B" (effects (font (size 1.27 1.27))))
        (number "1" (effects (font (size 1.27 1.27))))
      )
    )
  )
  (symbol "P5V0_EXT" (power) (pin_names (offset 0)) (in_bom yes) (on_board yes)
    (property "Reference" "#PWR" (at 0 -4.445 0)
      (effects (font (size 1.27 1.27)) hide)
    )
    (property "Value" "P5V0_EXT" (at 0 3.556 0)
      (effects (font (size 1.27 1.27)))
    )
    (property "Footprint" "" (at 0 0 0)
      (effects (font (size 1.27 1.27)) hide)
    )
    (property "Datasheet" "" (at 0 0 0)
      (effects (font (size 1.27 1.27)) hide)
    )
    (property "ki_keywords" "power-flag" (at 0 0 0)
      (effects (font (size 1.27 1.27)) hide)
    )
    (property "ki_description" "Power symbol creates a global label with name \"+5V\"" (at 0 0 0)
      (effects (font (size 1.27 1.27)) hide)
    )
    (symbol "P5V0_EXT_0_1"
      (polyline
        (pts
          (xy -0.762 1.27)
          (xy 0 2.54)
        )
        (stroke (width 0) (type default))
        (fill (type none))
      )
      (polyline
        (pts
          (xy 0 0)
          (xy 0 2.54)
        )
        (stroke (width 0) (type default))
        (fill (type none))
      )
      (polyline
        (pts
          (xy 0 2.54)
          (xy 0.762 1.27)
        )
        (stroke (width 0) (type default))
        (fill (type none))
      )
    )
    (symbol "P5V0_EXT_1_1"
      (pin power_in line (at 0 0 90) (length 0) hide
        (name "P5V0_EXT" (effects (font (size 1.27 1.27))))
        (number "1" (effects (font (size 1.27 1.27))))
      )
    )
  )
  (symbol "PUSB_EXT" (power) (pin_names (offset 0)) (in_bom yes) (on_board yes)
    (property "Reference" "#PWR" (at 0 -4.445 0)
      (effects (font (size 1.27 1.27)) hide)
    )
    (property "Value" "PUSB_EXT" (at 0 3.556 0)
      (effects (font (size 1.27 1.27)))
    )
    (property "Footprint" "" (at 0 0 0)
      (effects (font (size 1.27 1.27)) hide)
    )
    (property "Datasheet" "" (at 0 0 0)
      (effects (font (size 1.27 1.27)) hide)
    )
    (property "ki_keywords" "power-flag" (at 0 0 0)
      (effects (font (size 1.27 1.27)) hide)
    )
    (property "ki_description" "Power symbol creates a global label with name \"+5V\"" (at 0 0 0)
      (effects (font (size 1.27 1.27)) hide)
    )
    (symbol "PUSB_EXT_0_1"
      (polyline
        (pts
          (xy -0.762 1.27)
          (xy 0 2.54)
        )
        (stroke (width 0) (type default))
        (fill (type none))
      )
      (polyline
        (pts
          (xy 0 0)
          (xy 0 2.54)
        )
        (stroke (width 0) (type default))
        (fill (type none))
      )
      (polyline
        (pts
          (xy 0 2.54)
          (xy 0.762 1.27)
        )
        (stroke (width 0) (type default))
        (fill (type none))
      )
    )
    (symbol "PUSB_EXT_1_1"
      (pin power_in line (at 0 0 90) (length 0) hide
        (name "PUSB_EXT" (effects (font (size 1.27 1.27))))
        (number "1" (effects (font (size 1.27 1.27))))
      )
    )
  )
  (symbol "PVCORE" (power) (pin_names (offset 0)) (in_bom yes) (on_board yes)
    (property "Reference" "#PWR" (at 0 -4.445 0)
      (effects (font (size 1.27 1.27)) hide)
    )
    (property "Value" "PVCORE" (at 0 3.556 0)
      (effects (font (size 1.27 1.27)))
    )
    (property "Footprint" "" (at 0 0 0)
      (effects (font (size 1.27 1.27)) hide)
    )
    (property "Datasheet" "" (at 0 0 0)
      (effects (font (size 1.27 1.27)) hide)
    )
    (property "ki_keywords" "power-flag" (at 0 0 0)
      (effects (font (size 1.27 1.27)) hide)
    )
    (property "ki_description" "Power symbol creates a global label with name \"+5V\"" (at 0 0 0)
      (effects (font (size 1.27 1.27)) hide)
    )
    (symbol "PVCORE_0_1"
      (polyline
        (pts
          (xy -0.762 1.27)
          (xy 0 2.54)
        )
        (stroke (width 0) (type default))
        (fill (type none))
      )
      (polyline
        (pts
          (xy 0 0)
          (xy 0 2.54)
        )
        (stroke (width 0) (type default))
        (fill (type none))
      )
      (polyline
        (pts
          (xy 0 2.54)
          (xy 0.762 1.27)
        )
        (stroke (width 0) (type default))
        (fill (type none))
      )
    )
    (symbol "PVCORE_1_1"
      (pin power_in line (at 0 0 90) (length 0) hide
        (name "PVCORE" (effects (font (size 1.27 1.27))))
        (number "1" (effects (font (size 1.27 1.27))))
      )
    )
  )
  (symbol "PVIN" (power) (pin_names (offset 0)) (in_bom yes) (on_board yes)
    (property "Reference" "#PWR" (at 0 -4.445 0)
      (effects (font (size 1.27 1.27)) hide)
    )
    (property "Value" "PVIN" (at 0 3.556 0)
      (effects (font (size 1.27 1.27)))
    )
    (property "Footprint" "" (at 0 0 0)
      (effects (font (size 1.27 1.27)) hide)
    )
    (property "Datasheet" "" (at 0 0 0)
      (effects (font (size 1.27 1.27)) hide)
    )
    (property "ki_keywords" "power-flag" (at 0 0 0)
      (effects (font (size 1.27 1.27)) hide)
    )
    (property "ki_description" "Power symbol creates a global label with name \"+5V\"" (at 0 0 0)
      (effects (font (size 1.27 1.27)) hide)
    )
    (symbol "PVIN_0_1"
      (polyline
        (pts
          (xy -0.762 1.27)
          (xy 0 2.54)
        )
        (stroke (width 0) (type default))
        (fill (type none))
      )
      (polyline
        (pts
          (xy 0 0)
          (xy 0 2.54)
        )
        (stroke (width 0) (type default))
        (fill (type none))
      )
      (polyline
        (pts
          (xy 0 2.54)
          (xy 0.762 1.27)
        )
        (stroke (width 0) (type default))
        (fill (type none))
      )
    )
    (symbol "PVIN_1_1"
      (pin power_in line (at 0 0 90) (length 0) hide
        (name "PVIN" (effects (font (size 1.27 1.27))))
        (number "1" (effects (font (size 1.27 1.27))))
      )
    )
  )
)
