(footprint "L_Wuerth_HCC-8070" (version 20221018) (generator pcbnew)
  (layer "F.Cu")
  (descr "Inductor, Wuerth Elektronik, Wuerth_LHMI-4020, 4.45mmx4.06mm")
  (tags "inductor Wuerth smd")
  (attr smd)
  (fp_text reference "REF**" (at -0.254 -5.08) (layer "F.SilkS")
      (effects (font (size 1 1) (thickness 0.15)))
    (tstamp 9ad7b750-7f01-46bb-be7a-7c4b48d726da)
  )
  (fp_text value "L_Wuerth_HCC-8070" (at 0.381 4.826) (layer "F.Fab")
      (effects (font (size 1 1) (thickness 0.15)))
    (tstamp 005c1cf0-dfeb-4de0-990f-3d2244ba7fa1)
  )
  (fp_text user "${REFERENCE}" (at 0 0) (layer "F.Fab")
      (effects (font (size 0.8 0.8) (thickness 0.15)))
    (tstamp e001dd62-cd4d-4a9f-b74f-813c93b79832)
  )
  (fp_line (start -0.495 3.776737) (end 0.495 3.776737)
    (stroke (width 0.12) (type solid)) (layer "F.SilkS") (tstamp 233e02d1-0283-41a0-98dd-41b7bf09d776))
  (fp_line (start -0.482367 -3.833737) (end 0.507633 -3.833737)
    (stroke (width 0.12) (type solid)) (layer "F.SilkS") (tstamp e64ae847-5399-4c91-8260-d5fe684948ee))
  (fp_line (start -4.7 -4.07) (end -4.7 4.07)
    (stroke (width 0.05) (type solid)) (layer "F.CrtYd") (tstamp ce3c0e3f-b837-43f6-af27-e43058845396))
  (fp_line (start -4.7 4.07) (end 4.7 4.07)
    (stroke (width 0.05) (type solid)) (layer "F.CrtYd") (tstamp b2940b0c-d372-4116-a71e-889be1bbcb7b))
  (fp_line (start 4.7 -4.07) (end -4.7 -4.07)
    (stroke (width 0.05) (type solid)) (layer "F.CrtYd") (tstamp ad3d17b5-5f7b-4dcc-b73b-ebef8934730a))
  (fp_line (start 4.7 4.07) (end 4.7 -4.07)
    (stroke (width 0.05) (type solid)) (layer "F.CrtYd") (tstamp 6860cad1-d3a0-426c-8e9c-a4d48082ff0d))
  (fp_line (start -3.95 -3.95) (end -3.95 3.95)
    (stroke (width 0.1) (type solid)) (layer "F.Fab") (tstamp c8234e79-2c0f-4d11-a3e4-a4cc7368f3b5))
  (fp_line (start -3.95 3.95) (end 3.95 3.95)
    (stroke (width 0.1) (type solid)) (layer "F.Fab") (tstamp 177e614c-39d4-404d-996d-7601146fe8df))
  (fp_line (start 3.95 -3.95) (end -3.95 -3.95)
    (stroke (width 0.1) (type solid)) (layer "F.Fab") (tstamp 9948292a-2af5-47e6-84a1-173d30d1f0ef))
  (fp_line (start 3.95 3.95) (end 3.95 -3.95)
    (stroke (width 0.1) (type solid)) (layer "F.Fab") (tstamp 664174af-ab45-4bbe-a1a7-4867c9ea37e2))
  (pad "1" smd rect (at -3.3 0) (size 2.3 3) (layers "F.Cu" "F.Paste" "F.Mask") (tstamp b55e0c73-dc69-4a83-b2f5-0d6b2e7402b5))
  (pad "2" smd rect (at 3.3 0) (size 2.3 3) (layers "F.Cu" "F.Paste" "F.Mask") (tstamp fd9d89cb-ec8c-4e63-beb6-5520fa516571))
  (model "${BL_LIB_ROOT}/3dmodels/Inductors/WE-HCC-8070_rev1.stp"
    (offset (xyz 0 0 0))
    (scale (xyz 1 1 1))
    (rotate (xyz 0 0 0))
  )
)
